-1.527962 -0.29 -0.09113097
-1.403044 -0.04652023 -0.218307
-1.471005 -0.04566717 -0.07512641
-1.214159 -0.1253042 -0.385568
-1.231896 -0.5931311 0.1313596
-1.07322 -0.3673186 -0.3780259
-1.209921 -0.1708612 -0.2635953
-1.140957 -0.8904643 0.2923355
-1.448174 0.2411804 -0.09824753
-1.26581 -0.7352648 0.4271526
-1.100468 -0.2787986 -0.3116583
-1.529604 0.2346048 0.08290958
-1.519051 0.2721086 0.04637241
-1.221829 -0.8761191 0.5089333
-1.040601 -0.5378909 -0.1555533
-1.067007 -0.5986462 -0.005270958
-1.370263 0.254281 -0.1767645
-0.9732027 -0.8195038 0.01241207
-1.145762 -0.8775344 0.5001185
-0.8615897 -1.022366 0.07699847
-1.496646 0.04081535 0.4433126
-0.8832293 -0.6612463 -0.1303515
-0.8341975 -0.8220034 -0.08147836
-1.411125 -0.5013738 0.7803967
-1.3984 -0.6461554 0.8976462
-0.7885566 -1.041455 0.07810235
-1.410578 -0.5489202 0.8988259
-1.203823 -0.8664532 0.8164196
-1.423981 0.005635738 0.4625254
-1.423903 0.1685967 0.3271992
-1.257108 -0.8646698 0.9359975
-1.033369 -0.1695304 -0.1232224
-1.235561 -0.1841803 0.3173282
-1.13448 -0.2116485 0.1547463
-1.352544 -0.4979272 0.8816438
-0.8533938 -0.3408766 -0.2461879
-0.7542043 -1.192223 0.3960567
-1.401452 0.5284266 0.1440372
-0.7362795 -1.00778 0.2641363
-1.340067 -0.6335278 1.135147
-1.260837 0.3835628 0.05617237
-1.454934 0.5210016 0.3406098
-0.7383766 -1.165301 0.502279
-0.6136755 -1.241955 0.3546963
-0.7421105 -0.09401035 -0.4284209
-0.5688666 -0.5489697 -0.3371619
-0.911623 -0.5029774 0.3626297
-0.5032904 -0.5885701 -0.3332962
-0.6579387 -1.021518 0.3678911
-1.24343 0.2958865 0.3601444
-0.9711657 -0.984437 0.9930935
-1.22954 -0.6784968 1.232355
-0.972554 -0.9806085 0.996911
-1.252079 -0.5772438 1.268663
-1.29613 -0.4030418 1.205048
-0.9156613 -0.9758253 0.9697156
-1.149394 0.3956559 0.1913984
-0.573222 -0.1111679 -0.3939245
-1.270324 0.4282808 0.5569723
-0.3031931 -0.1147928 -0.8519967
-1.275726 -0.2833567 1.261762
-0.5045111 0.02770662 -0.5430021
-0.8901978 -0.2301021 0.4812651
-0.2783442 -1.131341 0.08756495
-0.3190584 -1.145513 0.2021179
-1.245156 0.4814799 0.5762272
-1.13291 -0.6134768 1.35816
-0.2841494 -1.265862 0.2667215
-0.8942025 -0.4126463 0.7384346
-0.231406 -1.0634 0.01732922
-0.5729355 -0.5608187 0.2397671
-0.4654889 -0.2579398 -0.2203336
-0.4055557 0.116354 -0.6707578
-0.7639647 0.0634799 0.09137344
-1.184496 0.5656133 0.4940851
-1.104718 0.6140316 0.291918
-1.224106 -0.3099389 1.422128
-1.024182 -0.2602501 0.9905128
-1.245071 -0.06603289 1.275047
-0.01267421 -0.4018335 -0.8493018
-0.3300595 -1.282157 0.5841031
-0.7867436 -0.5833936 0.8870986
-0.5374142 -0.9389048 0.7393258
-0.3660932 -1.28207 0.7253687
-0.0562712 -0.8804884 -0.2522402
-0.0004025698 -0.8499837 -0.3707014
-0.03661764 -0.8867993 -0.2411046
-0.0408026 -0.7754383 -0.3083265
-0.4494066 -0.8430476 0.5666652
-0.102909 -1.255281 0.2631655
-1.192257 0.05074167 1.264322
-0.7805517 -0.2781596 0.7540514
0.1357675 -0.417079 -0.9319899
-0.4427938 0.3666661 -0.4917439
-0.3731503 -1.198385 0.8138618
-0.8490667 0.3826528 0.3814721
0.05648434 -0.8075705 -0.3354224
-0.5571477 -0.9181395 1.011733
-0.7626419 -0.7372026 1.281784
0.1658032 -0.2766209 -0.9798288
0.05582881 -0.9897718 -0.09720874
-0.1613978 -0.8235493 0.2253397
-1.091687 0.1796169 1.172778
-1.129928 0.06000566 1.363395
-0.685667 0.5086062 0.07702732
0.2466725 -0.4726477 -0.8578117
-1.13015 0.3203201 1.164592
-1.119361 0.01803493 1.418205
-0.6673665 0.5167346 0.09094048
0.251389 -0.3496752 -0.9460618
-0.8462777 0.05843163 0.8855994
-0.6707606 -1.01453 1.524445
-0.8696499 0.4895771 0.5712254
-0.4549658 0.3683863 -0.1152942
0.1524253 -1.22366 0.1345522
0.0973351 -1.299426 0.3258893
0.283401 -0.5094223 -0.7607065
-0.1940885 -1.21688 0.8426535
-0.7181029 -0.5002446 1.255222
-0.5631206 -0.1999912 0.6794302
0.2922294 -0.2968721 -0.9242084
-0.2682022 0.1359439 -0.2019598
-0.3372247 0.08853817 -0.01377487
-0.358582 -0.2375202 0.356916
-0.9815717 0.6249609 0.821471
-0.2355547 0.0636158 -0.1457717
-1.03688 0.3609288 1.192665
0.2847104 -0.2052865 -0.9164336
0.08890736 -0.4832492 -0.2499757
0.3822786 -0.5834479 -0.7376916
0.1546028 -1.226602 0.3039424
-0.6848321 -0.9191236 1.696868
-0.5972221 -0.1041741 0.7903717
-0.5148638 -0.1641169 0.7228038
0.2903912 -0.2447629 -0.8046317
0.03621471 0.1633782 -0.667789
0.3821133 -0.4249806 -0.8056356
-0.5796387 -0.07662916 0.8025198
-1.032418 0.08681583 1.562078
-0.2283349 -0.8946676 0.8772368
-0.6213567 -0.8444815 1.614532
-0.5337617 -0.9634614 1.555181
0.3503511 -0.982285 -0.1448891
0.4022188 -0.4040937 -0.7547408
-0.3972232 0.5058055 0.02264118
-0.8693638 -0.3447962 1.742405
-0.9896672 0.142489 1.557269
-0.1763272 -0.07776499 0.1458502
0.02324665 0.2038465 -0.4713664
-0.5241152 -0.7995811 1.538694
-0.9968824 0.1432476 1.678237
-0.09730387 -0.2210875 0.2291212
0.04916096 -1.244331 0.8944309
0.3167319 -0.04080582 -0.7258072
-0.5932633 -0.7637563 1.743936
-0.2360409 0.2377687 0.1253121
0.3419559 -0.1643085 -0.6501292
-0.3646579 0.2601237 0.3727529
-0.002514362 -0.698452 0.570699
0.5685953 -0.6862402 -0.5533791
-0.8671737 0.8113685 0.9394281
-0.7741733 -0.2500892 1.726897
-0.9137683 0.8094378 1.049152
-0.0855056 0.7398703 -0.5059944
-0.3399978 -0.9773865 1.591483
-0.09662712 -1.084146 1.206506
0.1604815 -0.5970249 0.26017
-0.3479164 0.6292095 0.1678708
-0.8709826 0.8310151 1.025628
-0.8489747 0.5232902 1.286024
0.009120226 -1.103467 1.064989
-0.6223228 -0.149528 1.461031
0.4594368 -0.7571816 -0.1341002
-0.09252477 -1.068275 1.250294
-0.794631 0.8435853 0.908545
0.05636024 -1.154005 1.036573
0.3372376 -0.621222 0.0334096
-0.002297163 -0.06037092 0.2231243
0.1100246 -0.2436614 0.1677432
0.5481427 -0.8932552 -0.1059976
0.03134608 -0.5124731 0.585351
-0.7823429 0.9229426 0.8993976
0.16873 0.1730413 -0.288981
0.1152821 -0.07521009 0.04456544
0.05753231 0.1671448 -0.05543971
-0.2255201 -0.5559106 1.185469
-0.1843282 -0.7770557 1.30512
-0.5275578 0.3101859 1.000564
-0.4602942 -0.7758217 1.856058
0.616601 -1.053912 -0.01962972
-0.5048518 0.6525939 0.6815939
-0.7079251 0.9119585 0.8506591
0.5800183 -0.9408569 -0.02177262
-0.05365443 0.04910183 0.3666344
0.1591804 -0.7450085 0.6709948
0.274704 -0.1062036 -0.09897661
-0.8858416 0.5732467 1.596793
-0.3550487 -0.8587561 1.844462
-0.5530579 -0.2339621 1.671465
-0.3667858 -0.9126897 1.924651
0.2506583 -1.176705 0.9373038
-0.1355428 -0.2805004 0.902256
-0.2441198 -1.001873 1.790146
-0.3655951 0.08063316 1.063709
-0.2619543 0.08459425 0.8559291
-0.04891527 -0.008857727 0.5369775
0.6585291 -0.8343191 -0.09995699
0.4817595 -1.187425 0.5746541
0.6300277 -1.325728 0.4077237
0.5589474 -1.332992 0.5656683
0.1989156 0.2111039 -0.1150119
-0.01792908 -0.3276277 0.81322
-0.3955727 0.4677186 0.8480291
0.3373784 0.1422334 -0.3028433
-0.1541166 0.6806307 0.2045753
-0.6004144 0.3107557 1.448487
-0.6003386 0.09025478 1.668198
0.4941219 -1.291938 0.7575943
0.6753811 -1.127749 0.2667179
0.3819743 -0.8015499 0.5547764
-0.4189894 -0.3681693 1.7612
0.1991649 0.6690495 -0.384584
-0.8123198 0.6765347 1.640067
0.6704018 -0.7387285 -0.01529145
0.5096953 0.1608419 -0.4862846
-0.3864255 -0.1101384 1.555236
0.6045278 -0.4435902 -0.1060598
-0.396928 0.6488652 0.9100769
-0.2007313 -0.8969116 1.933501
-0.7193089 0.08654308 2.078721
-0.7168822 0.08633995 2.075678
0.01555276 -0.4716926 1.147932
0.5698719 -1.221565 0.735208
0.362745 -0.1427975 0.1863258
0.737983 -1.15689 0.3726699
0.7457749 -1.244768 0.4693296
0.1893206 0.8255606 -0.2850208
0.2556124 -1.064805 1.305255
0.4350936 -1.176155 1.051102
-0.5144913 0.992805 0.9675677
0.7887411 -1.00631 0.2159212
-0.2906272 0.1182814 1.365261
-0.4484136 0.9172869 0.9661775
0.2995105 0.644305 -0.2710872
-0.6886499 0.1603565 2.144539
0.2422825 0.8424249 -0.2954164
0.2887871 0.7166309 -0.2645297
-0.6133434 0.1334577 2.136069
-0.4033291 0.9524269 1.013926
-1.309219 -0.2131042 3.885273
0.1987092 -0.2815509 0.9553554
0.0875479 -0.3088856 1.208231
-1.279561 -0.147562 3.786701
0.3578814 -0.4172778 0.7776728
0.375921 0.3738182 0.02862024
0.01303899 0.2980633 0.8266044
0.4868013 -0.1383018 0.2817323
-0.1297616 -0.1566792 1.530921
0.06148565 -0.6879296 1.635568
0.7023538 -0.03659248 -0.2184761
-0.3471744 -0.5038753 2.29733
-0.3921628 0.9877009 1.037907
-0.4591945 0.9837575 1.174858
0.2925427 0.8356771 -0.1802719
-1.36451 -0.1365185 4.005455
0.08908927 1.036783 0.04991603
-1.152384 -0.5233521 3.937577
-1.306631 -0.1963 3.950308
-0.3635137 -0.4739456 2.334138
0.6767252 -0.7067604 0.4927881
0.2856134 -0.6459064 1.217585
0.2556677 -0.9464622 1.561575
-0.5886846 0.5094304 1.917958
-0.2871667 -0.5579171 2.31226
-1.287456 -0.1919985 3.96955
-0.3130169 -0.5144196 2.325485
0.6863432 0.4017615 -0.4900432
0.3692364 0.8524511 -0.2652988
-0.4053237 -0.1190162 2.181951
-0.6353769 0.2832704 2.282278
-0.1943805 0.7321758 1.010631
0.7561988 -1.051301 0.7573159
-0.6331072 0.2937326 2.315778
-0.6289581 0.8757577 1.782606
-1.258296 -0.2832165 4.100012
0.6437092 -1.039675 1.015402
-0.1263264 -0.2622571 1.841924
0.480932 0.5992789 -0.1480577
-0.6130326 0.8848858 1.780904
0.3070557 -0.1747823 0.9185462
-1.097528 -0.07134056 3.626103
0.1535941 0.1159663 0.9731658
-0.3024088 0.3141422 1.702885
-0.6322751 0.1211162 2.562447
0.4743897 0.7826846 -0.2347903
-1.2055 -0.1912088 3.998914
-0.5814378 0.9394088 1.730433
0.01397514 -0.7106352 2.055941
0.5579203 -0.9517322 1.195319
-0.8246224 -0.7791696 3.791902
-0.5773364 0.8603806 1.815465
0.8529583 -0.97155 0.6436377
-0.8589406 -0.4594078 3.590197
-0.3593653 -0.4802957 2.623007
0.9179903 -0.7071586 0.2959011
-0.5747443 0.8724892 1.84343
-0.3273807 -0.4425793 2.559646
-0.8513999 -0.8456445 3.975123
-0.5648255 0.8569138 1.864625
-0.482681 -0.3716784 2.832345
-0.6963034 -0.9254413 3.760818
-0.3959489 -0.5261798 2.828324
-0.5291494 0.888896 1.836561
-0.7544749 -0.4678206 3.535835
0.6728935 0.4479506 -0.1290116
-0.5128437 -0.1712747 2.811791
-1.184608 -0.1955514 4.174704
-0.6169752 -0.8181586 3.613018
0.1717781 1.014903 0.3814986
-0.555868 -0.1002374 2.84489
-1.171402 0.2040114 3.805608
-0.3946695 1.001564 1.5433
-0.782835 -0.9067707 4.052491
-1.135759 -0.265892 4.208488
0.07615888 1.302184 0.3733125
-1.17937 0.2652807 3.826292
0.3024006 0.07036066 1.063106
0.7905539 -0.8510876 0.9408596
-0.1305647 0.5212972 1.525097
-0.4167759 -0.284215 2.828385
-0.5884254 -0.5712118 3.437729
-0.701143 -0.9883094 4.046668
-0.543237 -0.1231813 2.967468
0.5784194 -0.4281878 1.031421
0.05062497 0.5456815 1.198543
-0.6556959 -0.281733 3.376722
-0.9021978 -0.6023073 4.161536
-0.6865938 -0.9937901 4.104064
0.3432158 -0.4129224 1.538887
0.4789467 0.1315126 0.7885416
0.7666885 -0.8168144 1.084229
-0.2766349 1.050872 1.461288
0.5516726 0.3314414 0.4693086
-0.8335633 -0.1572123 3.67003
0.7577759 -0.3396301 0.7000265
0.1493635 1.490877 0.2630894
0.06541777 0.4333661 1.400703
0.4845982 0.2713885 0.7174323
-0.53905 0.3701794 2.686534
-0.7332451 -0.01325941 3.422311
-0.64393 0.02010584 3.215477
0.1225785 0.1751852 1.550906
-0.3678699 -0.6974978 3.321721
0.5171623 0.3215117 0.6398184
-1.085224 -0.1922193 4.294238
-0.6241267 -1.017811 4.130539
0.6988538 -0.8428359 1.342503
0.251407 1.389678 0.2055731
-0.6476133 -0.9963613 4.163203
-0.5504149 0.4709201 2.63849
-0.5422598 0.4779062 2.616389
0.4034325 0.1849122 1.010854
0.3398609 1.446062 -0.006798983
0.6041229 -0.7601314 1.479226
0.004209995 0.1005492 1.894121
0.2854342 0.3424129 1.135681
-0.3251836 -0.7465906 3.348439
-0.55159 -1.049099 4.081755
0.4066505 1.349553 0.004735231
-0.1132709 0.08865929 2.188441
0.3152606 1.408036 0.1485336
-0.3563461 -0.7153311 3.415521
0.1044716 -0.3772693 2.194848
0.6248935 0.530268 0.3354325
0.04417813 -0.7515383 2.65666
-0.5667386 -1.06075 4.158466
0.3048544 1.422614 0.1700959
-1.021079 0.383275 3.757845
-0.5603465 0.4675982 2.783423
-0.1708421 -0.0580616 2.487791
-0.2576277 0.6177757 2.049383
-0.4979881 0.4805746 2.656234
-0.5503684 -1.024055 4.129375
0.06438518 0.03585196 1.959563
-0.1960157 0.3570848 2.189016
0.1793107 1.402474 0.4976609
0.2858155 1.490069 0.2088921
-0.2137251 1.026594 1.649098
0.3427711 1.287785 0.3109837
1.035759 -0.01415873 0.1235774
-0.7181113 0.05776644 3.547226
0.4854689 -0.8257704 1.966959
0.5283112 -0.7421603 1.836038
0.2796681 -0.1524901 1.795852
0.3011785 0.8436418 0.8631873
0.4861841 -0.8210735 2.023575
0.3943444 1.134163 0.434612
-0.560653 0.2131567 3.220659
0.5738078 -0.7812452 1.871627
0.6195801 0.05333281 1.029951
0.1894455 -0.752553 2.620565
-0.1945921 -1.201824 3.792945
-0.1761252 -0.5408163 3.158684
0.5450935 -0.7582159 1.927787
-0.3378394 -0.7786403 3.717847
-0.9938776 0.3827546 3.96632
0.003024101 -0.7708793 3.041605
0.5451151 -0.7536259 1.953791
-0.1377537 -1.073285 3.612548
1.123274 -0.2925577 0.3957298
0.3031203 -0.0448575 1.817495
0.2733717 -0.7505121 2.519976
-0.3863628 -0.1429405 3.285759
0.5692098 -0.714438 1.909312
1.132897 -0.3669128 0.4802752
-0.1568584 -1.230144 3.836644
0.5929593 -0.7741213 1.93353
0.3709283 0.8694968 0.8883836
0.4049866 0.1284552 1.497468
1.112417 0.224267 0.009550095
0.9609743 -0.6215529 1.082333
0.2083659 -0.7687712 2.754393
1.065815 0.2714787 0.1088402
0.4086553 -0.7368531 2.341623
-0.9738982 0.5120509 3.95866
-1.025568 0.4283652 4.143082
0.4441931 1.213218 0.5105882
0.8523731 -0.588129 1.348895
-0.6092477 0.2803311 3.474692
-0.1350597 -1.191164 3.872008
0.2738945 -0.640564 2.563015
0.07413626 -0.8315263 3.142924
0.5304401 -0.1155725 1.587236
-0.9567332 0.09518051 4.36477
1.223134 -0.3074613 0.3998969
-0.4117389 0.6477094 2.781604
0.1777955 0.8876708 1.403902
0.09079778 0.9519899 1.520676
-0.6129836 -0.2693667 4.045993
0.5127159 0.8446112 0.8038979
-0.9558759 0.6780472 3.893559
0.854453 0.9033778 0.09514713
0.352993 -0.7298026 2.579262
0.05097795 -0.8395214 3.281859
0.0588125 0.94486 1.651386
0.08814156 -0.7931962 3.200801
1.185842 0.2132545 0.1134202
1.205029 -0.361815 0.6028552
-0.1403736 -0.0005173683 2.958978
0.1332574 -0.5900717 2.954864
0.5726959 1.02771 0.6103418
1.248454 -0.213419 0.4190636
-0.8427217 0.10743 4.305424
-0.9334354 0.7598062 3.892813
0.431691 0.9745529 1.000423
0.9202967 -0.4430442 1.334654
1.140462 0.3950865 0.1372488
0.110262 0.8774548 1.747517
1.216531 -0.3100367 0.6329546
-0.3452095 0.6934316 2.825672
1.172282 0.356379 0.1241584
0.1398118 -0.8223786 3.260612
-0.8867848 0.8113186 3.816739
0.1502398 0.911597 1.671585
0.4110095 0.8313165 1.238602
-0.3702092 0.7231035 2.89127
0.5690006 0.8204374 0.9355493
0.9981231 -0.4344602 1.23585
1.002628 -0.01762486 0.857497
0.2334745 0.8518133 1.597697
0.2919741 -0.07648277 2.333213
1.287344 -0.2108526 0.4961228
1.165251 -0.3545609 0.8739352
0.5768765 1.189472 0.6456962
1.357745 -0.227922 0.3865364
-0.4370043 0.7236428 3.092315
-0.6210707 0.1002941 4.041095
0.6551859 -0.3235183 1.897772
0.6614487 1.144228 0.5682013
1.057998 -0.3945837 1.181923
1.037065 0.6886678 0.2387466
-0.0905149 -0.9193854 3.95677
-0.3505862 -0.2969894 3.908821
0.9323556 -0.2204871 1.294103
0.1190788 -0.1026926 2.805429
1.327675 0.2459974 0.1036775
-0.3706412 -0.6798415 4.326174
0.0944593 0.5929196 2.261436
0.1401672 0.854877 1.944482
0.901365 0.59778 0.6742687
-0.8778563 0.8239033 4.030976
0.0293051 0.2161174 2.802375
1.336805 0.02388525 0.3791049
0.5885049 -0.6226702 2.455996
-0.5623555 0.7459247 3.500174
0.6682521 1.066537 0.7639408
-0.7062182 -0.07093763 4.54212
1.353244 0.2401109 0.170953
0.2954745 0.1049137 2.401987
-0.2248447 0.4924309 3.092909
1.005688 -0.221715 1.317971
1.083709 0.7129095 0.328624
0.6454183 -0.2995257 2.121557
-0.1567373 0.7546742 2.805791
-0.4163575 0.216784 3.818461
0.1327606 -1.254809 4.072398
-0.6478348 0.895246 3.670965
0.4642078 0.7058969 1.636863
-0.4608247 0.7600591 3.427088
0.4904408 0.6723809 1.622831
-0.3176874 -0.3354101 4.152989
-0.1472375 0.2120419 3.328611
-0.4657016 -0.489181 4.603348
-0.6132929 -0.002437592 4.457078
0.7734734 0.4223664 1.320577
-0.8281693 0.8139672 4.148993
0.6677006 0.412323 1.551737
0.4206403 0.6760855 1.815296
-0.1028498 -0.1194353 3.59091
-0.5275844 -0.2788877 4.598732
1.133961 0.7154372 0.3917062
1.249813 0.2152052 0.6192591
0.02132094 0.7085602 2.622123
0.3360016 -1.014571 3.564113
0.373646 0.7532926 1.885154
0.7101353 0.1067472 1.811601
-0.4954953 0.7162025 3.669708
1.170763 0.6691091 0.4042015
1.204679 -0.157907 1.088886
0.1910726 -0.8990993 3.780609
-0.03071117 -0.4004035 3.770598
1.147118 0.6485693 0.476274
-0.02418923 -0.03417253 3.436759
0.2273121 -0.6026926 3.454384
0.2662971 0.7412202 2.155919
-0.1785052 -0.1549263 3.861507
-0.6525323 0.4103119 4.293694
0.7823247 0.8874917 1.014036
0.3165336 0.4632041 2.331191
0.235338 -1.287203 4.095086
0.8765751 0.7719235 0.9582965
0.5905058 0.3259072 1.93371
-0.3157587 0.8237736 3.297062
0.6209892 -0.523962 2.660964
0.1588167 -1.116559 4.125793
0.3356007 0.2035694 2.607256
-0.2609143 -0.6736674 4.593526
0.1764319 -1.212036 4.213825
0.2452375 -1.300427 4.161451
1.045433 0.05327702 1.362985
0.5272212 -0.673739 3.05675
-0.2973765 -0.2666688 4.329937
-0.6629789 0.9979274 3.913833
-0.2264383 0.6538155 3.362946
-0.04230309 0.1218724 3.480635
1.064386 0.2212515 1.196603
-0.4962138 -0.06497097 4.566701
-0.7028766 1.008783 4.012515
0.3172698 0.5622644 2.400427
0.8736517 0.09398937 1.733216
-0.4783452 -0.1392078 4.634381
0.2643516 0.6225369 2.467936
0.3071373 0.5442324 2.471067
0.8946572 0.3620076 1.475524
1.119236 0.4071505 0.9925783
-0.5088218 -0.02525663 4.624391
1.038126 0.3131204 1.244257
1.052985 0.3168297 1.22431
1.2501 0.2705631 0.8781822
0.6532462 -0.3949399 2.67645
1.138617 0.7893722 0.6419089
0.1730006 -0.6660657 3.88839
0.6824415 0.3202085 1.995974
-0.4929272 0.04486322 4.583212
0.7648063 0.1302938 2.006286
0.8024589 0.1251044 1.936988
0.3159859 -1.220411 4.139536
-0.05160677 -0.8725386 4.588319
1.221363 0.5074949 0.8079998
0.7585489 0.171648 2.041507
1.08434 0.7847595 0.8414147
0.5042166 -1.170061 3.775231
0.2801286 -0.002911091 3.162423
1.096498 0.7540541 0.8556011
0.5714536 -0.06296158 2.642649
-0.1052064 -0.7593966 4.639319
0.774018 0.2163992 2.014063
0.5331802 -1.031151 3.643184
-0.02084208 -0.8245707 4.563888
-0.3566284 0.1965714 4.331009
0.2652228 -0.1222425 3.388829
0.6015195 -0.5853763 3.153672
-0.3054466 0.9376504 3.599653
0.3340254 0.6127052 2.626601
0.09134424 0.8077159 2.940885
0.6743476 -0.1452041 2.663989
0.1664621 -0.1047711 3.657169
-0.5203013 1.068148 3.973555
0.6162763 -0.1528072 2.840983
-0.2685496 0.5379763 3.983194
0.05688429 -0.6043096 4.377253
0.7007579 -0.2515998 2.789512
-0.1457825 0.4873204 3.818331
0.09139943 -0.2069359 3.989413
-0.4065585 1.090626 3.832585
0.2992424 0.6911671 2.8057
-0.07662809 -0.6155825 4.762448
0.2289745 0.2778344 3.378137
-0.04669762 -0.6554275 4.781938
0.5164544 -1.225656 4.186133
0.09777844 -0.3824739 4.253252
0.10346 0.04089308 3.875112
-0.5562547 1.09451 4.236238
0.6634327 -0.703527 3.446939
0.584292 -1.190892 4.068096
-0.0138123 0.9042289 3.357776
0.755819 -0.3085032 2.933755
-0.04028213 0.2136846 4.049896
-0.4157152 0.3334007 4.692763
0.336971 0.6513829 2.949248
0.6180518 -0.408258 3.378764
0.7346796 -0.1531 2.920535
-0.5086265 1.09024 4.299255
0.6830183 0.08650875 2.850321
0.3713048 0.7044811 2.908559
-0.1130899 -0.3396554 4.857346
-0.476696 0.851228 4.49939
-0.05747378 0.0390377 4.407902
0.4800516 0.4982591 2.956534
-0.4239793 1.121793 4.192155
-0.2562706 0.5416527 4.38851
-0.01966035 -0.4668159 4.850886
-0.4318585 0.7476146 4.571067
-0.420583 1.132828 4.210497
0.4159927 -0.3964057 3.960674
0.742343 -0.7928972 3.691958
0.4212912 0.6548078 3.091412
0.8506351 -0.8636765 3.620565
0.6124829 0.3195205 3.025235
-0.3757807 1.066664 4.382666
-0.08144784 1.054735 3.816317
0.3194087 -0.71908 4.635402
-0.4098798 1.056713 4.483997
0.3561845 -0.7869496 4.641313
0.4926629 -0.1839123 3.822092
0.4961864 -0.01837444 3.674982
0.8284277 -1.006207 3.913262
0.07815468 0.9577692 3.646382
-0.03185582 -0.2099123 4.930749
0.4292797 0.6340783 3.255113
0.454356 -0.5687714 4.336953
-0.04319274 -0.1329641 4.941566
0.9189566 -0.9294724 3.772666
0.2527634 0.5184133 3.816159
-0.1021121 1.167278 3.938491
-0.04107308 0.1157694 4.803484
0.9318134 -0.8176236 3.739547
0.7969441 -0.4336901 3.670779
0.2083662 0.9007936 3.64626
-0.2587224 0.9172525 4.574554
0.7127165 -0.9410405 4.335029
0.2613877 0.2432914 4.156139
-0.09209478 0.2493186 4.871907
0.2182305 0.6068268 3.969455
0.7232978 0.2682838 3.357929
0.9495548 -0.2435856 3.377976
-0.1005901 0.4093893 4.881823
0.4897457 0.6661451 3.487713
0.9009808 -0.001681328 3.314581
-0.01816607 0.8532233 4.372423
0.9709743 -0.3531499 3.503062
0.7070869 -0.8305874 4.466326
0.9811202 -0.8722911 3.961885
0.4772738 0.7120643 3.526675
0.4317472 -0.3188658 4.554761
0.6760645 -0.8176665 4.547402
0.3563912 0.8626838 3.658904
0.7329196 -0.8597136 4.495663
0.4006513 0.8404558 3.618286
-0.1131202 0.7075524 4.768663
0.1935022 -0.1252708 4.917104
0.1320577 0.5887334 4.432632
-0.1488739 0.8997662 4.711677
0.0982033 0.218349 4.855642
-0.1414745 1.0179 4.613566
0.6160762 -0.1472898 4.178797
0.9361886 -0.04020643 3.461106
0.3485336 0.9109452 3.797694
0.8427287 0.1883297 3.480417
0.938703 -0.8254423 4.216702
0.0004426241 0.5149026 4.878866
1.029937 -0.708169 3.967217
0.8007438 0.2858658 3.519969
0.2166963 0.0802989 4.897721
0.5997971 0.3468375 3.893876
0.4546598 0.1897697 4.326427
0.900614 -0.4324203 4.040235
0.772731 -0.641315 4.487925
0.05448306 0.4723496 4.906408
0.2006342 0.1777344 4.893483
0.1387696 1.034612 4.262753
0.8431745 0.3191314 3.556707
0.3883493 0.462317 4.332649
0.4749925 -0.1734838 4.844229
1.118684 -0.2922368 3.710244
1.121695 -0.3108392 3.722009
0.8633 0.2510872 3.846791
1.148156 -0.1655426 3.712133
1.121665 -0.08746958 3.755502
1.006517 -0.3679438 4.307686
0.3438346 1.236705 4.181231
1.074076 0.1831131 3.75795
0.5769137 1.074025 3.943523
0.754954 -0.0003056526 4.661324
0.5632014 1.1455 4.027287
0.7227833 0.02573538 4.745347
0.8006248 0.02639914 4.660134
0.5702401 0.4334362 4.755561
0.9618785 -0.1475139 4.528538
0.7837853 0.03944492 4.715525
0.4972479 1.23766 4.196458
0.6925834 0.6608257 4.3582
0.6074702 1.152611 4.085328
0.3507478 1.064331 4.677042
0.5287786 1.223126 4.217894
0.4126717 1.047256 4.60891
0.8157992 0.09489536 4.689389
0.6200365 0.5704906 4.659366
0.5167994 1.242741 4.270384
0.5282005 0.8059609 4.698482
0.8200352 0.1662436 4.702394
1.086051 -0.07526016 4.403231
0.4940044 1.225654 4.404903
0.4754612 1.114549 4.582796
0.5078659 1.123166 4.520078
1.088984 0.5052495 3.944331
0.558235 1.173331 4.443513
1.112616 0.1173387 4.349616
1.020378 0.6507716 4.08555
1.0353 0.6730905 4.077079
1.177325 0.193841 4.245714
1.099914 0.1862416 4.426305
1.201254 0.3342896 4.117498
1.115046 0.6019874 4.123453
1.118265 0.6631114 4.086613
1.103893 0.6892431 4.143446
1.059535 0.5762637 4.360095
1.161438 0.4167216 4.377458
1.09158 0.5976148 4.377211
1.129454 0.5800066 4.342055
0 0 0
0 0 0
0 0 0
0 0 0
0 0 0
0 0 0
0 0 0
0 0 0
0 0 0
0 0 0
0 0 0
0 0 0
0 0 0
0 0 0
0 0 0
0 0 0
0 0 0
0 0 0
0 0 0
0 0 0
0 0 0
0 0 0
0 0 0
0 0 0
0 0 0
0 0 0
0 0 0
0 0 0
0 0 0
0 0 0
0 0 0
0 0 0
0 0 0
0 0 0
0 0 0
0 0 0
0 0 0
0 0 0
0 0 0
0 0 0
0 0 0
0 0 0
0 0 0
0 0 0
0 0 0
0 0 0
0 0 0
0 0 0
0 0 0
0 0 0
0 0 0
0 0 0
0 0 0
0 0 0
0 0 0
0 0 0
0 0 0
0 0 0
0 0 0
0 0 0
0 0 0
0 0 0
0 0 0
0 0 0
0 0 0
0 0 0
0 0 0
0 0 0
0 0 0
0 0 0
0 0 0
0 0 0
0 0 0
0 0 0
0 0 0
0 0 0
0 0 0
0 0 0
0 0 0
0 0 0
0 0 0
0 0 0
0 0 0
0 0 0
0 0 0
0 0 0
0 0 0
0 0 0
0 0 0
0 0 0
0 0 0
0 0 0
0 0 0
0 0 0
0 0 0
0 0 0
0 0 0
0 0 0
0 0 0
0 0 0
0 0 0
0 0 0
0 0 0
0 0 0
0 0 0
0 0 0
0 0 0
0 0 0
0 0 0
0 0 0
0 0 0
0 0 0
0 0 0
0 0 0
0 0 0
0 0 0
0 0 0
0 0 0
0 0 0
0 0 0
0 0 0
0 0 0
0 0 0
0 0 0
0 0 0
0 0 0
0 0 0
0 0 0
0 0 0
0 0 0
0 0 0
0 0 0
0 0 0
0 0 0
0 0 0
0 0 0
0 0 0
0 0 0
0 0 0
0 0 0
0 0 0
0 0 0
0 0 0
0 0 0
0 0 0
0 0 0
0 0 0
0 0 0
0 0 0
0 0 0
0 0 0
0 0 0
0 0 0
0 0 0
0 0 0
0 0 0
0 0 0
0 0 0
0 0 0
0 0 0
0 0 0
0 0 0
0 0 0
0 0 0
0 0 0
0 0 0
0 0 0
0 0 0
0 0 0
0 0 0
0 0 0
0 0 0
0 0 0
0 0 0
0 0 0
0 0 0
0 0 0
0 0 0
0 0 0
0 0 0
0 0 0
0 0 0
0 0 0
0 0 0
0 0 0
0 0 0
0 0 0
0 0 0
0 0 0
0 0 0
0 0 0
0 0 0
0 0 0
0 0 0
0 0 0
0 0 0
0 0 0
0 0 0
0 0 0
0 0 0
0 0 0
0 0 0
0 0 0
0 0 0
0 0 0
0 0 0
0 0 0
0 0 0
0 0 0
0 0 0
0 0 0
0 0 0
0 0 0
0 0 0
0 0 0
0 0 0
0 0 0
0 0 0
0 0 0
0 0 0
0 0 0
0 0 0
0 0 0
0 0 0
0 0 0
0 0 0
0 0 0
0 0 0
0 0 0
0 0 0
0 0 0
0 0 0
0 0 0
0 0 0
0 0 0
0 0 0
0 0 0
0 0 0
0 0 0
0 0 0
0 0 0
0 0 0
0 0 0
0 0 0
0 0 0
0 0 0
0 0 0
0 0 0
0 0 0
0 0 0
0 0 0
0 0 0
0 0 0
0 0 0
0 0 0
0 0 0
0 0 0
0 0 0
0 0 0
0 0 0
0 0 0
0 0 0
0 0 0
0 0 0
0 0 0
0 0 0
0 0 0
0 0 0
0 0 0
0 0 0
0 0 0
0 0 0
0 0 0
0 0 0
0 0 0
0 0 0
0 0 0
0 0 0
0 0 0
0 0 0
0 0 0
0 0 0
0 0 0
0 0 0
0 0 0
0 0 0
0 0 0
0 0 0
0 0 0
0 0 0
0 0 0
0 0 0
0 0 0
0 0 0
0 0 0
0 0 0
0 0 0
0 0 0
0 0 0
0 0 0
0 0 0
0 0 0
0 0 0
0 0 0
0 0 0
0 0 0
0 0 0
0 0 0
0 0 0
0 0 0
0 0 0
0 0 0
0 0 0
0 0 0
0 0 0
0 0 0
0 0 0
0 0 0
0 0 0
0 0 0
0 0 0
0 0 0
0 0 0
0 0 0
0 0 0
0 0 0
0 0 0
0 0 0
0 0 0
0 0 0
0 0 0
0 0 0
0 0 0
0 0 0
0 0 0
0 0 0
0 0 0
0 0 0
0 0 0
0 0 0
0 0 0
0 0 0
0 0 0
0 0 0
0 0 0
0 0 0
0 0 0
0 0 0
0 0 0
0 0 0
0 0 0
0 0 0
0 0 0
0 0 0
0 0 0
0 0 0
0 0 0
0 0 0
0 0 0
0 0 0
0 0 0
0 0 0
0 0 0
0 0 0
0 0 0
0 0 0
0 0 0
0 0 0
0 0 0
0 0 0
0 0 0
0 0 0
0 0 0
0 0 0
0 0 0
0 0 0
0 0 0
0 0 0
0 0 0
0 0 0
0 0 0
0 0 0
0 0 0
0 0 0
0 0 0
0 0 0
0 0 0
0 0 0
0 0 0
0 0 0
0 0 0
0 0 0
0 0 0
0 0 0
0 0 0
0 0 0
0 0 0
0 0 0
0 0 0
0 0 0
0 0 0
0 0 0
0 0 0
0 0 0
0 0 0
0 0 0
0 0 0
0 0 0
0 0 0
0 0 0
0 0 0
0 0 0
0 0 0
0 0 0
0 0 0
0 0 0
0 0 0
0 0 0
0 0 0
0 0 0
0 0 0
0 0 0
0 0 0
0 0 0
0 0 0
0 0 0
0 0 0
0 0 0
0 0 0
0 0 0
0 0 0
0 0 0
0 0 0
0 0 0
0 0 0
0 0 0
0 0 0
0 0 0
0 0 0
0 0 0
0 0 0
0 0 0
0 0 0
0 0 0
0 0 0
0 0 0
0 0 0
0 0 0
0 0 0
0 0 0
0 0 0
0 0 0
0 0 0
0 0 0
0 0 0
0 0 0
0 0 0
0 0 0
0 0 0
0 0 0
0 0 0
0 0 0
0 0 0
0 0 0
0 0 0
0 0 0
0 0 0
0 0 0
0 0 0
0 0 0
0 0 0
0 0 0
0 0 0
0 0 0
0 0 0
0 0 0
0 0 0
0 0 0
0 0 0
0 0 0
0 0 0
0 0 0
0 0 0
0 0 0
0 0 0
0 0 0
0 0 0
0 0 0
0 0 0
0 0 0
0 0 0
0 0 0
0 0 0
0 0 0
0 0 0
0 0 0
0 0 0
0 0 0
0 0 0
0 0 0
0 0 0
0 0 0
0 0 0
0 0 0
0 0 0
0 0 0
0 0 0
0 0 0
0 0 0
0 0 0
0 0 0
0 0 0
0 0 0
0 0 0
0 0 0
0 0 0
0 0 0
0 0 0
0 0 0
0 0 0
0 0 0
0 0 0
0 0 0
0 0 0
0 0 0
0 0 0
0 0 0
0 0 0
0 0 0
0 0 0
0 0 0
0 0 0
0 0 0
0 0 0
0 0 0
0 0 0
0 0 0
0 0 0
0 0 0
0 0 0
0 0 0
0 0 0
0 0 0
0 0 0
0 0 0
0 0 0
0 0 0
0 0 0
0 0 0
0 0 0
0 0 0
0 0 0
0 0 0
0 0 0
0 0 0
0 0 0
0 0 0
0 0 0
0 0 0
0 0 0
0 0 0
0 0 0
0 0 0
0 0 0
0 0 0
0 0 0
0 0 0
0 0 0
0 0 0
0 0 0
0 0 0
0 0 0
0 0 0
0 0 0
0 0 0
0 0 0
0 0 0
0 0 0
0 0 0
0 0 0
0 0 0
0 0 0
0 0 0
0 0 0
0 0 0
0 0 0
0 0 0
0 0 0
0 0 0
0 0 0
0 0 0
0 0 0
0 0 0
0 0 0
0 0 0
0 0 0
0 0 0
0 0 0
0 0 0
0 0 0
0 0 0
0 0 0
0 0 0
0 0 0
0 0 0
0 0 0
0 0 0
0 0 0
0 0 0
0 0 0
0 0 0
0 0 0
0 0 0
0 0 0
0 0 0
0 0 0
0 0 0
0 0 0
0 0 0
0 0 0
0 0 0
0 0 0
0 0 0
0 0 0
0 0 0
0 0 0
0 0 0
0 0 0
0 0 0
0 0 0
0 0 0
0 0 0
0 0 0
0 0 0
0 0 0
0 0 0
0 0 0
0 0 0
0 0 0
0 0 0
0 0 0
0 0 0
0 0 0
0 0 0
0 0 0
0 0 0
0 0 0
0 0 0
0 0 0
0 0 0
0 0 0
0 0 0
0 0 0
0 0 0
0 0 0
0 0 0
0 0 0
0 0 0
0 0 0
0 0 0
0 0 0
0 0 0
0 0 0
0 0 0
0 0 0
0 0 0
0 0 0
0 0 0
0 0 0
0 0 0
0 0 0
0 0 0
0 0 0
0 0 0
0 0 0
0 0 0
0 0 0
0 0 0
0 0 0
0 0 0
0 0 0
0 0 0
0 0 0
0 0 0
0 0 0
0 0 0
0 0 0
0 0 0
0 0 0
0 0 0
0 0 0
0 0 0
0 0 0
0 0 0
0 0 0
0 0 0
0 0 0
0 0 0
0 0 0
0 0 0
0 0 0
0 0 0
0 0 0
0 0 0
0 0 0
0 0 0
0 0 0
0 0 0
0 0 0
0 0 0
0 0 0
0 0 0
0 0 0
0 0 0
0 0 0
0 0 0
0 0 0
0 0 0
0 0 0
0 0 0
0 0 0
0 0 0
0 0 0
0 0 0
0 0 0
0 0 0
0 0 0
0 0 0
0 0 0
0 0 0
0 0 0
0 0 0
0 0 0
0 0 0
0 0 0
0 0 0
0 0 0
0 0 0
0 0 0
0 0 0
0 0 0
0 0 0
0 0 0
0 0 0
0 0 0
0 0 0
0 0 0
0 0 0
0 0 0
0 0 0
0 0 0
0 0 0
0 0 0
0 0 0
0 0 0
0 0 0
0 0 0
0 0 0
0 0 0
0 0 0
0 0 0
0 0 0
0 0 0
0 0 0
0 0 0
0 0 0
0 0 0
0 0 0
0 0 0
0 0 0
0 0 0
0 0 0
0 0 0
0 0 0
0 0 0
0 0 0
0 0 0
0 0 0
0 0 0
0 0 0
0 0 0
0 0 0
0 0 0
0 0 0
0 0 0
0 0 0
0 0 0
0 0 0
0 0 0
0 0 0
0 0 0
0 0 0
0 0 0
0 0 0
0 0 0
0 0 0
0 0 0
0 0 0
0 0 0
0 0 0
0 0 0
0 0 0
0 0 0
0 0 0
0 0 0
0 0 0
0 0 0
0 0 0
0 0 0
0 0 0
0 0 0
0 0 0
0 0 0
0 0 0
0 0 0
0 0 0
0 0 0
0 0 0
0 0 0
0 0 0
0 0 0
0 0 0
0 0 0
0 0 0
0 0 0
0 0 0
0 0 0
0 0 0
0 0 0
0 0 0
0 0 0
0 0 0
0 0 0
0 0 0
0 0 0
0 0 0
0 0 0
0 0 0
0 0 0
0 0 0
0 0 0
0 0 0
0 0 0
0 0 0
0 0 0
0 0 0
0 0 0
0 0 0
0 0 0
0 0 0
0 0 0
0 0 0
0 0 0
0 0 0
0 0 0
0 0 0
0 0 0
0 0 0
0 0 0
0 0 0
0 0 0
0 0 0
0 0 0
0 0 0
0 0 0
0 0 0
0 0 0
0 0 0
0 0 0
0 0 0
0 0 0
0 0 0
0 0 0
0 0 0
0 0 0
0 0 0
0 0 0
0 0 0
0 0 0
0 0 0
0 0 0
0 0 0
0 0 0
0 0 0
0 0 0
0 0 0
0 0 0
0 0 0
0 0 0
0 0 0
0 0 0
0 0 0
0 0 0
0 0 0
0 0 0
0 0 0
0 0 0
0 0 0
0 0 0
0 0 0
0 0 0
0 0 0
0 0 0
0 0 0
0 0 0
0 0 0
0 0 0
0 0 0
0 0 0
0 0 0
0 0 0
0 0 0
0 0 0
0 0 0
0 0 0
0 0 0
0 0 0
0 0 0
0 0 0
0 0 0
0 0 0
0 0 0
0 0 0
0 0 0
0 0 0
0 0 0
0 0 0
0 0 0
0 0 0
0 0 0
0 0 0
0 0 0
0 0 0
0 0 0
0 0 0
0 0 0
0 0 0
0 0 0
0 0 0
0 0 0
0 0 0
0 0 0
0 0 0
0 0 0
0 0 0
0 0 0
0 0 0
0 0 0
0 0 0
0 0 0
0 0 0
0 0 0
0 0 0
0 0 0
0 0 0
0 0 0
0 0 0
0 0 0
0 0 0
0 0 0
0 0 0
0 0 0
0 0 0
0 0 0
0 0 0
0 0 0
0 0 0
0 0 0
0 0 0
0 0 0
0 0 0
0 0 0
0 0 0
0 0 0
0 0 0
0 0 0
0 0 0
0 0 0
0 0 0
0 0 0
0 0 0
0 0 0
0 0 0
0 0 0
0 0 0
0 0 0
0 0 0
0 0 0
0 0 0
0 0 0
0 0 0
0 0 0
0 0 0
0 0 0
0 0 0
0 0 0
0 0 0
0 0 0
0 0 0
0 0 0
0 0 0
0 0 0
0 0 0
0 0 0
0 0 0
0 0 0
0 0 0
0 0 0
0 0 0
0 0 0
0 0 0
0 0 0
0 0 0
0 0 0
0 0 0
0 0 0
0 0 0
0 0 0
0 0 0
0 0 0
0 0 0
0 0 0
0 0 0
0 0 0
0 0 0
0 0 0
0 0 0
0 0 0
0 0 0
0 0 0
0 0 0
0 0 0
0 0 0
0 0 0
0 0 0
0 0 0
0 0 0
0 0 0
0 0 0
0 0 0
0 0 0
0 0 0
0 0 0
0 0 0
0 0 0
0 0 0
0 0 0
0 0 0
0 0 0
0 0 0
0 0 0
0 0 0
0 0 0
0 0 0
0 0 0
0 0 0
0 0 0
0 0 0
0 0 0
0 0 0
0 0 0
0 0 0
0 0 0
0 0 0
0 0 0
0 0 0
0 0 0
0 0 0
0 0 0
0 0 0
0 0 0
0 0 0
0 0 0
0 0 0
0 0 0
0 0 0
0 0 0
0 0 0
0 0 0
0 0 0
0 0 0
0 0 0
0 0 0
0 0 0
0 0 0
0 0 0
0 0 0
0 0 0
0 0 0
0 0 0
0 0 0
0 0 0
0 0 0
0 0 0
0 0 0
0 0 0
0 0 0
0 0 0
0 0 0
0 0 0
0 0 0
0 0 0
0 0 0
0 0 0
0 0 0
0 0 0
0 0 0
0 0 0
0 0 0
0 0 0
0 0 0
0 0 0
0 0 0
0 0 0
0 0 0
0 0 0
0 0 0
0 0 0
0 0 0
0 0 0
0 0 0
0 0 0
0 0 0
0 0 0
0 0 0
0 0 0
0 0 0
0 0 0
0 0 0
0 0 0
0 0 0
0 0 0
0 0 0
0 0 0
0 0 0
0 0 0
0 0 0
0 0 0
0 0 0
0 0 0
0 0 0
0 0 0
0 0 0
0 0 0
0 0 0
0 0 0
0 0 0
0 0 0
0 0 0
0 0 0
0 0 0
0 0 0
0 0 0
0 0 0
0 0 0
0 0 0
0 0 0
0 0 0
0 0 0
0 0 0
0 0 0
0 0 0
0 0 0
0 0 0
0 0 0
0 0 0
0 0 0
0 0 0
0 0 0
0 0 0
0 0 0
0 0 0
0 0 0
0 0 0
0 0 0
0 0 0
0 0 0
0 0 0
0 0 0
0 0 0
0 0 0
0 0 0
0 0 0
0 0 0
0 0 0
0 0 0
0 0 0
0 0 0
0 0 0
0 0 0
0 0 0
0 0 0
0 0 0
0 0 0
0 0 0
0 0 0
0 0 0
0 0 0
0 0 0
0 0 0
0 0 0
0 0 0
0 0 0
0 0 0
0 0 0
0 0 0
0 0 0
0 0 0
0 0 0
0 0 0
0 0 0
0 0 0
0 0 0
0 0 0
0 0 0
0 0 0
0 0 0
0 0 0
0 0 0
0 0 0
0 0 0
0 0 0
0 0 0
0 0 0
0 0 0
0 0 0
0 0 0
0 0 0
0 0 0
0 0 0
0 0 0
0 0 0
0 0 0
0 0 0
0 0 0
0 0 0
0 0 0
0 0 0
0 0 0
0 0 0
0 0 0
0 0 0
0 0 0
0 0 0
0 0 0
0 0 0
0 0 0
0 0 0
0 0 0
0 0 0
0 0 0
0 0 0
0 0 0
0 0 0
0 0 0
0 0 0
0 0 0
0 0 0
0 0 0
0 0 0
0 0 0
0 0 0
0 0 0
0 0 0
0 0 0
0 0 0
0 0 0
0 0 0
0 0 0
0 0 0
0 0 0
0 0 0
0 0 0
0 0 0
0 0 0
0 0 0
0 0 0
0 0 0
0 0 0
0 0 0
0 0 0
0 0 0
0 0 0
0 0 0
0 0 0
0 0 0
0 0 0
0 0 0
0 0 0
0 0 0
0 0 0
0 0 0
0 0 0
0 0 0
0 0 0
0 0 0
0 0 0
0 0 0
0 0 0
0 0 0
0 0 0
0 0 0
0 0 0
0 0 0
0 0 0
0 0 0
0 0 0
0 0 0
0 0 0
0 0 0
0 0 0
0 0 0
0 0 0
0 0 0
0 0 0
0 0 0
0 0 0
0 0 0
0 0 0
0 0 0
0 0 0
0 0 0
0 0 0
0 0 0
0 0 0
0 0 0
0 0 0
0 0 0
0 0 0
0 0 0
0 0 0
0 0 0
0 0 0
0 0 0
0 0 0
0 0 0
0 0 0
0 0 0
0 0 0
0 0 0
0 0 0
0 0 0
0 0 0
0 0 0
0 0 0
0 0 0
0 0 0
0 0 0
0 0 0
0 0 0
0 0 0
0 0 0
0 0 0
0 0 0
0 0 0
0 0 0
0 0 0
0 0 0
0 0 0
0 0 0
0 0 0
0 0 0
0 0 0
0 0 0
0 0 0
0 0 0
0 0 0
0 0 0
0 0 0
0 0 0
0 0 0
0 0 0
0 0 0
0 0 0
0 0 0
0 0 0
0 0 0
0 0 0
0 0 0
0 0 0
0 0 0
0 0 0
0 0 0
0 0 0
0 0 0
0 0 0
0 0 0
0 0 0
0 0 0
0 0 0
0 0 0
0 0 0
0 0 0
0 0 0
0 0 0
0 0 0
0 0 0
0 0 0
0 0 0
0 0 0
0 0 0
0 0 0
0 0 0
0 0 0
0 0 0
0 0 0
0 0 0
0 0 0
0 0 0
0 0 0
0 0 0
0 0 0
0 0 0
0 0 0
0 0 0
0 0 0
0 0 0
0 0 0
0 0 0
0 0 0
0 0 0
0 0 0
0 0 0
0 0 0
0 0 0
0 0 0
0 0 0
0 0 0
0 0 0
0 0 0
0 0 0
0 0 0
0 0 0
0 0 0
0 0 0
0 0 0
0 0 0
0 0 0
0 0 0
0 0 0
0 0 0
0 0 0
0 0 0
0 0 0
0 0 0
0 0 0
0 0 0
0 0 0
0 0 0
0 0 0
0 0 0
0 0 0
0 0 0
0 0 0
0 0 0
0 0 0
0 0 0
0 0 0
0 0 0
0 0 0
0 0 0
0 0 0
0 0 0
0 0 0
0 0 0
0 0 0
0 0 0
0 0 0
0 0 0
0 0 0
0 0 0
0 0 0
0 0 0
0 0 0
0 0 0
0 0 0
0 0 0
0 0 0
0 0 0
0 0 0
0 0 0
0 0 0
0 0 0
0 0 0
0 0 0
0 0 0
0 0 0
0 0 0
0 0 0
0 0 0
0 0 0
0 0 0
0 0 0
0 0 0
0 0 0
0 0 0
0 0 0
0 0 0
0 0 0
0 0 0
0 0 0
0 0 0
0 0 0
0 0 0
0 0 0
0 0 0
0 0 0
0 0 0
0 0 0
0 0 0
0 0 0
0 0 0
0 0 0
0 0 0
0 0 0
0 0 0
0 0 0
0 0 0
0 0 0
0 0 0
0 0 0
0 0 0
0 0 0
0 0 0
0 0 0
0 0 0
0 0 0
0 0 0
0 0 0
0 0 0
0 0 0
0 0 0
0 0 0
0 0 0
0 0 0
0 0 0
0 0 0
0 0 0
0 0 0
0 0 0
0 0 0
0 0 0
0 0 0
0 0 0
0 0 0
0 0 0
0 0 0
0 0 0
0 0 0
0 0 0
0 0 0
0 0 0
0 0 0
0 0 0
0 0 0
0 0 0
0 0 0
0 0 0
0 0 0
0 0 0
0 0 0
0 0 0
0 0 0
0 0 0
0 0 0
0 0 0
0 0 0
0 0 0
0 0 0
0 0 0
0 0 0
0 0 0
0 0 0
0 0 0
0 0 0
0 0 0
0 0 0
0 0 0
0 0 0
0 0 0
0 0 0
0 0 0
0 0 0
0 0 0
0 0 0
0 0 0
0 0 0
0 0 0
0 0 0
0 0 0
0 0 0
0 0 0
0 0 0
0 0 0
0 0 0
0 0 0
0 0 0
0 0 0
0 0 0
0 0 0
0 0 0
0 0 0
0 0 0
0 0 0
0 0 0
0 0 0
0 0 0
0 0 0
0 0 0
0 0 0
0 0 0
0 0 0
0 0 0
0 0 0
0 0 0
0 0 0
0 0 0
0 0 0
0 0 0
0 0 0
0 0 0
0 0 0
0 0 0
0 0 0
0 0 0
0 0 0
0 0 0
0 0 0
0 0 0
0 0 0
0 0 0
0 0 0
0 0 0
0 0 0
0 0 0
0 0 0
0 0 0
0 0 0
0 0 0
0 0 0
0 0 0
0 0 0
0 0 0
0 0 0
0 0 0
0 0 0
0 0 0
0 0 0
0 0 0
0 0 0
0 0 0
0 0 0
0 0 0
0 0 0
0 0 0
0 0 0
0 0 0
0 0 0
0 0 0
0 0 0
0 0 0
0 0 0
0 0 0
0 0 0
0 0 0
0 0 0
0 0 0
0 0 0
0 0 0
0 0 0
0 0 0
0 0 0
0 0 0
0 0 0
0 0 0
0 0 0
0 0 0
0 0 0
0 0 0
0 0 0
0 0 0
0 0 0
0 0 0
0 0 0
0 0 0
0 0 0
0 0 0
0 0 0
0 0 0
0 0 0
0 0 0
0 0 0
0 0 0
0 0 0
0 0 0
0 0 0
0 0 0
0 0 0
0 0 0
0 0 0
0 0 0
0 0 0
0 0 0
0 0 0
0 0 0
0 0 0
0 0 0
0 0 0
0 0 0
0 0 0
0 0 0
0 0 0
0 0 0
0 0 0
0 0 0
0 0 0
0 0 0
0 0 0
0 0 0
0 0 0
0 0 0
0 0 0
0 0 0
0 0 0
0 0 0
0 0 0
0 0 0
0 0 0
0 0 0
0 0 0
0 0 0
0 0 0
0 0 0
0 0 0
0 0 0
0 0 0
0 0 0
0 0 0
0 0 0
0 0 0
0 0 0
0 0 0
0 0 0
0 0 0
0 0 0
0 0 0
0 0 0
0 0 0
0 0 0
0 0 0
0 0 0
0 0 0
0 0 0
0 0 0
0 0 0
0 0 0
0 0 0
0 0 0
0 0 0
0 0 0
0 0 0
0 0 0
0 0 0
0 0 0
0 0 0
0 0 0
0 0 0
0 0 0
0 0 0
0 0 0
0 0 0
0 0 0
0 0 0
0 0 0
0 0 0
0 0 0
0 0 0
0 0 0
0 0 0
0 0 0
0 0 0
0 0 0
0 0 0
0 0 0
0 0 0
0 0 0
0 0 0
0 0 0
0 0 0
0 0 0
0 0 0
0 0 0
0 0 0
0 0 0
0 0 0
0 0 0
0 0 0
0 0 0
0 0 0
0 0 0
0 0 0
0 0 0
0 0 0
0 0 0
0 0 0
0 0 0
0 0 0
0 0 0
0 0 0
0 0 0
0 0 0
0 0 0
0 0 0
0 0 0
0 0 0
0 0 0
0 0 0
0 0 0
0 0 0
0 0 0
0 0 0
0 0 0
0 0 0
0 0 0
0 0 0
0 0 0
0 0 0
0 0 0
0 0 0
0 0 0
0 0 0
0 0 0
0 0 0
0 0 0
0 0 0
0 0 0
0 0 0
0 0 0
0 0 0
0 0 0
0 0 0
0 0 0
0 0 0
0 0 0
0 0 0
0 0 0
0 0 0
0 0 0
0 0 0
0 0 0
0 0 0
0 0 0
0 0 0
0 0 0
0 0 0
0 0 0
0 0 0
0 0 0
0 0 0
0 0 0
0 0 0
0 0 0
0 0 0
0 0 0
0 0 0
0 0 0
0 0 0
0 0 0
0 0 0
0 0 0
0 0 0
0 0 0
0 0 0
0 0 0
0 0 0
0 0 0
0 0 0
0 0 0
0 0 0
0 0 0
0 0 0
0 0 0
0 0 0
0 0 0
0 0 0
0 0 0
0 0 0
0 0 0
0 0 0
0 0 0
0 0 0
0 0 0
0 0 0
0 0 0
0 0 0
0 0 0
0 0 0
0 0 0
0 0 0
0 0 0
0 0 0
0 0 0
0 0 0
0 0 0
0 0 0
0 0 0
0 0 0
0 0 0
0 0 0
0 0 0
0 0 0
0 0 0
0 0 0
0 0 0
0 0 0
0 0 0
0 0 0
0 0 0
0 0 0
0 0 0
0 0 0
0 0 0
0 0 0
0 0 0
0 0 0
0 0 0
0 0 0
0 0 0
0 0 0
0 0 0
0 0 0
0 0 0
0 0 0
0 0 0
0 0 0
0 0 0
0 0 0
0 0 0
0 0 0
0 0 0
0 0 0
0 0 0
0 0 0
0 0 0
0 0 0
0 0 0
0 0 0
0 0 0
0 0 0
0 0 0
0 0 0
0 0 0
0 0 0
0 0 0
0 0 0
0 0 0
0 0 0
0 0 0
0 0 0
0 0 0
0 0 0
0 0 0
0 0 0
0 0 0
0 0 0
0 0 0
0 0 0
0 0 0
0 0 0
0 0 0
0 0 0
0 0 0
0 0 0
0 0 0
0 0 0
0 0 0
0 0 0
0 0 0
0 0 0
0 0 0
0 0 0
0 0 0
0 0 0
0 0 0
0 0 0
0 0 0
0 0 0
0 0 0
0 0 0
0 0 0
0 0 0
0 0 0
0 0 0
0 0 0
0 0 0
0 0 0
0 0 0
0 0 0
0 0 0
0 0 0
0 0 0
0 0 0
0 0 0
0 0 0
0 0 0
0 0 0
0 0 0
0 0 0
0 0 0
0 0 0
0 0 0
0 0 0
0 0 0
0 0 0
0 0 0
0 0 0
0 0 0
0 0 0
0 0 0
0 0 0
0 0 0
0 0 0
0 0 0
0 0 0
0 0 0
0 0 0
0 0 0
0 0 0
0 0 0
0 0 0
0 0 0
0 0 0
0 0 0
0 0 0
0 0 0
0 0 0
0 0 0
0 0 0
0 0 0
0 0 0
0 0 0
0 0 0
0 0 0
0 0 0
0 0 0
0 0 0
0 0 0
0 0 0
0 0 0
0 0 0
0 0 0
0 0 0
0 0 0
0 0 0
0 0 0
0 0 0
0 0 0
0 0 0
0 0 0
0 0 0
0 0 0
0 0 0
0 0 0
0 0 0
0 0 0
0 0 0
0 0 0
0 0 0
0 0 0
0 0 0
0 0 0
0 0 0
0 0 0
0 0 0
0 0 0
0 0 0
0 0 0
0 0 0
0 0 0
0 0 0
0 0 0
0 0 0
0 0 0
0 0 0
0 0 0
0 0 0
0 0 0
0 0 0
0 0 0
0 0 0
0 0 0
0 0 0
0 0 0
0 0 0
0 0 0
0 0 0
0 0 0
0 0 0
0 0 0
0 0 0
0 0 0
0 0 0
0 0 0
0 0 0
0 0 0
0 0 0
0 0 0
0 0 0
0 0 0
0 0 0
0 0 0
0 0 0
0 0 0
0 0 0
0 0 0
0 0 0
0 0 0
0 0 0
0 0 0
0 0 0
0 0 0
0 0 0
0 0 0
0 0 0
0 0 0
0 0 0
0 0 0
0 0 0
0 0 0
0 0 0
0 0 0
0 0 0
0 0 0
0 0 0
0 0 0
0 0 0
0 0 0
0 0 0
0 0 0
0 0 0
0 0 0
0 0 0
0 0 0
0 0 0
0 0 0
0 0 0
0 0 0
0 0 0
0 0 0
0 0 0
0 0 0
0 0 0
0 0 0
0 0 0
0 0 0
0 0 0
0 0 0
0 0 0
0 0 0
0 0 0
0 0 0
0 0 0
0 0 0
0 0 0
0 0 0
0 0 0
0 0 0
0 0 0
0 0 0
0 0 0
0 0 0
0 0 0
0 0 0
0 0 0
0 0 0
0 0 0
0 0 0
0 0 0
0 0 0
0 0 0
0 0 0
0 0 0
0 0 0
0 0 0
0 0 0
0 0 0
0 0 0
0 0 0
0 0 0
0 0 0
0 0 0
0 0 0
0 0 0
0 0 0
0 0 0
0 0 0
0 0 0
0 0 0
0 0 0
0 0 0
0 0 0
0 0 0
0 0 0
0 0 0
0 0 0
0 0 0
0 0 0
0 0 0
0 0 0
0 0 0
0 0 0
0 0 0
0 0 0
0 0 0
0 0 0
0 0 0
0 0 0
0 0 0
0 0 0
0 0 0
0 0 0
0 0 0
0 0 0
0 0 0
0 0 0
0 0 0
0 0 0
0 0 0
0 0 0
0 0 0
0 0 0
0 0 0
0 0 0
0 0 0
0 0 0
0 0 0
0 0 0
0 0 0
0 0 0
0 0 0
0 0 0
0 0 0
0 0 0
0 0 0
0 0 0
0 0 0
0 0 0
0 0 0
0 0 0
0 0 0
