-0.6666193 -0.6390419 -0.9638717
-0.6794496 -0.539465 -0.9991951
-1.40432 -0.3815608 0.30709
-0.7800279 -0.2450571 -1.008348
-0.6122297 -0.6297336 -0.9911361
-0.7198944 -0.176909 -1.187783
-0.6176182 -0.6167016 -0.9751704
-0.7512307 -0.241468 -1.039895
-0.8401117 -0.716723 -0.3690561
-1.242666 -0.6127195 0.419992
-0.7460098 -0.6204529 -0.5339384
-0.4955347 -0.3274345 -1.277158
-0.7577705 -0.05749655 -0.9920641
-0.7247722 -0.6699843 -0.495303
-0.6369634 -0.2026777 -1.081163
-0.7539139 -0.630713 -0.443593
-0.6719675 -0.1066332 -1.065808
-1.221035 -0.2515354 0.1913261
-1.160151 -0.3385353 0.1938245
-1.21981 -0.2867308 0.2884312
-0.6616297 -0.7085176 -0.4330647
-1.230842 -0.2827773 0.3244998
-1.144514 -0.8828368 0.7037199
-1.155772 -0.2684355 0.1733768
-1.163244 -0.3063955 0.2262142
-1.072948 -0.9371023 0.6348059
-1.116173 -0.3146515 0.1559029
-1.034977 -0.9482865 0.5981791
-0.6876287 -0.5759234 -0.4257995
-1.176115 -0.8445387 0.814415
-1.104782 -0.8837061 0.7201743
-1.011355 -0.9614949 0.6218119
-0.7512805 -0.5990672 -0.2040825
-1.02095 -0.8968291 0.6131308
-0.7470689 -0.7288284 -0.07766151
-0.5308826 -0.06280231 -1.088585
-0.4483156 -0.24685 -1.079133
-0.9080157 -0.5542727 0.1326137
-0.4266517 -0.4812407 -0.8343084
-1.021095 -0.9947042 0.8238056
-0.4023311 -0.474299 -0.7634917
-0.9828253 -0.9422975 0.8166168
-0.4540219 -0.7699203 -0.3749892
-0.3863747 -0.8228679 -0.3459989
-0.4974375 -0.5213027 -0.3975915
-1.189094 -0.4484272 0.9132385
-1.047409 -0.170857 0.4236035
-1.256814 -0.4351444 1.096816
-1.114282 -0.7063899 1.182751
-0.2740422 -0.1164846 -0.998282
-0.286063 -0.0113368 -1.035976
-0.7247128 0.05186939 -0.1969132
-0.3733972 -0.8241243 -0.08308935
-0.7262654 -0.5198326 0.4157083
-1.217246 -0.1155286 1.072518
-1.238934 -0.02498817 1.091772
-0.6389098 -0.4567513 0.2946527
-1.064141 -0.6220908 1.326543
-1.177759 -0.3114457 1.285642
-1.044333 -0.6684914 1.359546
-0.2482555 -0.9863768 0.07444906
-1.242071 0.00309515 1.171938
-1.155793 0.01808071 1.013829
-0.3579484 0.06463766 -0.5977144
-0.6055826 -0.8986921 0.7778668
-0.3557097 0.228529 -0.7098217
-0.8853693 -0.7960272 1.294137
-0.1871449 -0.8940821 0.005826473
-1.006964 0.3718622 0.5054202
-0.4929887 -0.9425063 0.6974959
-0.3941194 -0.3268738 -0.01886344
-1.267098 -0.01712942 1.436122
-0.6084253 0.5720999 -0.3903613
-0.01495874 -0.6340408 -0.4389371
-1.125267 -0.325191 1.497194
-0.8598309 -0.06918764 0.747288
-0.9839249 0.1114402 0.8378413
-1.096638 -0.3752418 1.523127
-0.5854037 0.5781052 -0.3528084
-0.2038836 -0.2140441 -0.3902843
-0.6624937 -0.9274163 1.214846
-0.05813456 -1.173864 0.2393153
-0.9543252 -0.5368824 1.444123
-0.3165083 0.4063601 -0.6743449
-0.07786798 -1.213965 0.3411551
-1.072901 -0.3886366 1.587309
-0.1130674 -1.224425 0.4418778
-0.4191759 0.216105 -0.2502522
-0.1512177 -1.067292 0.4216805
-1.143491 -0.1760674 1.609436
-0.03339183 -1.240237 0.3731358
-0.05996621 -1.129541 0.345794
-0.04425919 -1.143386 0.350359
-0.7920485 0.2704639 0.5571823
-0.9995832 0.3623261 0.8971293
0.1595881 -0.5501976 -0.5763575
-1.152142 0.2420192 1.321815
-0.08294475 -1.13681 0.4723527
-0.07402396 -0.2488065 -0.3491033
-0.8460608 0.5896761 0.4381423
-0.4096844 -0.8861175 0.9199727
-1.109611 0.3677011 1.174656
-0.8030534 0.350059 0.5914612
-0.5155716 -0.7300401 1.01573
0.3028662 -0.8015976 -0.533348
-0.4733453 0.5395687 -0.2090542
0.01252294 -1.204593 0.4164045
-0.3986388 0.5191541 -0.332715
-0.8299217 0.4618785 0.5824661
-1.109828 0.01263571 1.550085
-0.5237728 -0.5082841 0.8915832
-0.02145481 -0.8080053 0.1740999
-0.8653765 0.5902064 0.6090493
-0.2336419 -0.06024504 0.003928661
0.1399556 0.01819897 -0.8025639
0.3466167 -0.5853858 -0.6619561
0.08268285 0.2072153 -0.8490729
0.3502783 -0.7252016 -0.5299006
0.4536534 -0.7896743 -0.6662503
-0.01247978 -1.153589 0.5949733
-0.1982483 -0.2013874 0.1324413
-0.2833152 -1.054253 1.081348
-0.6723678 0.7147243 0.2813652
-0.03725576 -0.0326252 -0.2819843
0.4012251 -0.6725225 -0.5603926
0.3824008 -0.5299864 -0.6259898
-0.579533 -0.3783092 1.163981
-0.6833906 0.1912203 0.8565505
-0.313329 -0.9873223 1.219367
-0.6650445 0.6354802 0.458823
0.08582103 0.4151399 -0.8247036
0.4416564 -0.713181 -0.5006194
-0.6507051 -0.4214687 1.411712
-0.6811073 0.7723019 0.3936036
-0.4223647 0.09965801 0.4917166
-1.041198 0.4789805 1.386245
0.0271951 -0.03762007 -0.2612927
0.01994312 0.5458574 -0.7741663
0.4384261 -0.6989088 -0.468529
0.5468106 -0.6133814 -0.751408
-0.6011575 0.7995281 0.2508149
0.002029538 -0.15979 -0.0741086
-0.6183379 0.8156676 0.277988
-1.065156 0.4114776 1.539719
-0.6049494 0.7587638 0.3316314
0.07368171 0.5413234 -0.8148192
-0.2085855 0.1511908 0.1117172
0.470044 -0.624372 -0.510273
-0.3579421 0.4212074 0.1913042
-0.1753021 0.1924229 0.05472827
-0.7425041 -0.01367474 1.379476
-0.8675287 0.5603673 1.113672
-1.039415 0.4007215 1.609114
0.2095698 0.4700165 -0.9264015
0.057706 0.5090356 -0.6502662
-1.012422 0.3671353 1.609675
-0.09322238 -0.4682455 0.5427167
-0.3181784 -0.8725767 1.38892
-0.6868343 -0.3666792 1.674596
0.302236 -0.3838158 -0.2756011
-0.1683912 -0.5407581 0.823241
-0.05801582 -1.004344 1.044816
-0.1293275 0.285758 0.0184207
-0.1051935 0.1953421 0.07046318
-0.1693565 0.4252989 -0.003596783
0.2330395 -0.4208326 0.004684687
0.03858769 -0.2231708 0.2287419
0.3440406 0.1969786 -0.7580749
-0.05843735 -1.033987 1.192595
-0.9387343 0.6237822 1.443263
0.3147215 0.5488241 -0.9799567
-0.9222131 0.4685943 1.561401
0.1169741 0.15553 -0.2041256
-0.7175348 1.118649 0.5851715
0.5241858 -0.5495152 -0.3633904
-0.8692415 -0.4393306 2.317842
-0.1386325 -0.747581 1.155944
-0.4830852 0.107244 1.090636
-0.02936602 -0.1180558 0.3972862
-0.8393188 -0.4306722 2.298546
-0.85179 -0.5041828 2.397689
-0.4702746 -0.5292253 1.666004
-0.762183 -0.5575566 2.278561
0.1447215 0.1801081 -0.1944385
0.5088039 -1.02931 0.1904304
-0.8700705 -0.3575311 2.356892
-0.1866763 -0.8508544 1.458415
0.3211251 -0.1576939 -0.1102228
-0.1065094 -0.936522 1.461203
-0.735929 0.9058895 1.048772
-0.8876953 -0.3560762 2.525908
0.3356998 -0.6958818 0.4065464
-0.3894382 -0.00112915 1.218734
-0.2982227 -0.1988673 1.237002
-0.8714595 -0.1519494 2.342047
0.5936485 -1.093515 0.2997961
0.5148771 0.3137441 -0.7968373
-0.863286 -0.1498413 2.389851
0.2564883 0.5427198 -0.454548
-0.04673564 -0.9173255 1.483361
0.5542817 -0.2046814 -0.3313441
-0.6629734 -0.5894928 2.445999
0.2300543 0.08645535 0.05673671
-0.1158702 -0.2485194 1.059974
-0.7632637 0.2135682 1.940299
0.1857255 -0.9031215 1.089088
-0.8674285 -0.2330923 2.576164
-0.6380379 -0.05212688 1.959361
-0.08795321 -0.1203046 0.9392684
-0.4953841 0.6702099 1.043549
-0.6617637 1.043489 1.041425
-0.145642 0.606076 0.4215989
0.3538454 -0.4104109 0.3938808
-0.6077274 1.012921 1.025844
-0.6809464 -0.5871086 2.627805
0.6883115 -0.8583703 0.1612129
-0.6335851 0.6674805 1.402844
-0.1310589 -0.00992775 1.019801
0.4944776 -0.9526434 0.6385577
-0.8150074 -0.339355 2.687415
0.7424886 -0.9755344 0.1874075
0.6018698 0.4902248 -0.8644041
0.6668187 -1.133608 0.5220945
-0.5732434 0.3471394 1.658666
0.7493675 -0.9432511 0.2041168
0.2367511 -0.9634266 1.245364
0.7721106 -0.9765444 0.1980145
0.5814518 0.3913267 -0.6554301
0.5551824 0.3867688 -0.5910962
-0.3649712 -0.6610565 2.206987
-0.3432206 1.151501 0.5255566
0.5915203 0.4633613 -0.7007383
-0.3018398 0.4358053 1.103657
-0.02804601 -0.02478313 0.985985
-0.5819589 0.9325044 1.243907
-0.2712071 -0.6436796 2.06069
0.07165754 -0.3780475 1.142903
-0.2174692 -0.6396952 1.963877
0.3373611 -0.1998272 0.465759
0.3846732 0.7494714 -0.475057
-0.1807216 -0.311285 1.618765
-0.3317716 -0.3287878 1.951324
-0.7709222 0.1604371 2.381712
0.575987 0.6438005 -0.7209224
0.5767652 -1.051077 0.8460803
0.7177968 0.3745272 -0.7297587
0.3011875 0.4316759 0.05135274
-0.1658757 -0.6519885 1.966287
-0.3603883 -0.6532269 2.359937
-0.3927718 1.220966 0.7426536
0.2842307 0.2819433 0.2553821
-0.2660012 0.3191633 1.318558
0.18656 0.435653 0.3162937
0.3988166 -0.5515189 0.794163
-0.291126 1.213533 0.5801666
-0.3630193 1.229768 0.7198708
-0.6295815 -0.5029979 2.827442
-0.6636171 0.7803726 1.737723
-0.3777634 1.260374 0.7332613
-0.8141222 0.1345706 2.627701
0.5026522 0.6487122 -0.4485927
-0.3185341 -0.0243969 1.805662
0.005363107 0.09164429 1.064336
-0.4263591 1.125041 0.9915135
0.3217235 -0.986084 1.438026
-0.215848 -0.6758776 2.232008
-0.7089396 0.6854317 1.980462
0.6632077 -0.7704606 0.5834715
-0.7820253 0.4236846 2.396424
-0.7733121 0.4598248 2.349345
-0.06049562 0.03742027 1.319155
0.03657424 0.995573 0.297507
-0.6391501 0.6904013 1.931127
0.2178349 1.186432 -0.219317
-0.6588969 0.6666362 2.006225
-0.3686421 -0.5918121 2.579229
0.9043865 -0.9709172 0.3931963
0.290755 0.1200624 0.6371605
0.6216886 0.6639864 -0.5028629
-0.3069239 0.0284586 1.935895
0.3185251 -0.2607355 0.9571686
0.4295716 -0.9476051 1.369859
0.5625324 0.7528343 -0.4333841
-0.5803262 0.7182567 1.92464
0.7325394 -1.006602 0.8995686
0.0737294 -0.4921455 1.746193
0.1433091 0.1937933 1.005642
0.9995896 -0.9045696 0.308023
-0.7031777 -0.4564037 3.295509
-0.8783104 -0.3540392 3.558848
-0.2546139 0.3130636 1.718611
-0.4663661 0.173615 2.272526
0.3882958 1.005717 -0.1719961
-0.1862898 1.262786 0.7421906
0.6797183 -0.9141827 1.007351
0.52479 -0.89604 1.306437
-0.8562922 -0.4501548 3.654529
-0.01108861 0.01930571 1.549752
0.6284193 -0.3623824 0.6336057
-0.7432213 0.5523469 2.534254
-0.1493239 1.296743 0.6784823
-0.7815046 -0.2352095 3.334969
-0.05697501 -0.6326785 2.276941
-0.7177958 0.5615385 2.509143
-0.0064888 -0.6044326 2.165058
0.0860424 1.201181 0.3417192
-0.6353304 -0.4527702 3.285509
-0.7113791 0.5748329 2.506464
-0.5813756 -0.4536004 3.200465
0.730837 -0.3502302 0.5091593
0.9288121 -1.057751 0.7648365
-0.03452408 0.7796171 1.01151
-0.2507174 1.246229 1.023361
-0.9290156 -0.2089944 3.698495
1.049139 -0.8430734 0.3573663
0.09539604 1.302734 0.3049281
-0.8198135 -0.1582375 3.486131
-0.6180794 -0.2295504 3.151406
-0.9173789 -0.3460097 3.860544
-0.2078068 1.181181 1.06175
-0.5976636 0.01466465 2.903219
-0.1706002 0.04746866 2.026829
-0.207558 1.067688 1.177547
0.7729747 -0.1155105 0.3267229
0.5399201 -0.4477577 1.096821
0.4690413 -0.8282304 1.583787
-0.8339615 -0.4455023 3.835846
-0.5897552 -0.5888095 3.481302
0.1631923 0.4620159 1.03224
0.3157554 1.22543 0.03803682
-0.6577003 0.6079249 2.548835
0.3214972 -0.4798326 1.599564
-0.2865438 0.998775 1.472397
0.2579124 0.6481762 0.7141659
0.3831728 1.107927 0.05758929
-0.5684962 0.2367916 2.743438
0.505864 -0.8219895 1.583515
-0.897367 -0.5690117 4.162566
0.8123168 -1.000202 1.157447
-0.2967119 -0.1919217 2.627392
1.085256 -0.869679 0.4998193
0.03514779 0.191299 1.642593
-0.03018367 0.5949821 1.416212
-0.8293309 -0.6843185 4.190668
-0.9193697 -0.2840543 4.018808
-0.5082834 -0.6966534 3.577424
-0.238057 0.9898238 1.514955
-0.2654054 0.5018597 2.02958
-0.3604233 -0.6082997 3.230707
-0.2860142 0.9839993 1.637737
-0.8238466 0.05311203 3.55853
-0.01466656 -0.6156468 2.592828
-0.7036924 -0.6808491 4.0272
-0.7560196 0.1196914 3.408457
0.582128 -0.732244 1.526187
-0.7544231 0.1435385 3.38709
-0.5518143 -0.6807108 3.734503
0.395134 1.162208 0.1959836
0.3231274 1.199653 0.3190427
-0.8556652 -0.6134782 4.316525
-0.8932076 -0.02327538 3.867541
-0.5803735 0.2236409 3.021343
0.1381004 -0.02710772 1.827454
0.1109505 1.286649 0.6909835
0.2918888 1.013954 0.5795436
-0.6190302 -0.7364707 3.98801
0.345463 -0.1431813 1.531662
1.09911 -0.7089748 0.5561719
-0.9462924 -0.4146156 4.371788
-0.1622914 0.9669175 1.562608
-0.9325285 -0.4759641 4.422828
-0.5872313 -0.8555293 4.084409
0.7958045 -0.7502537 1.240642
0.3777771 0.4155583 1.014663
0.8258202 0.1297765 0.411839
0.01361454 -0.07984924 2.221521
-0.7053392 -0.7895632 4.345171
-0.6113428 -0.9028239 4.266663
0.5552952 1.06446 0.1677406
0.8890532 0.1874175 0.3057594
-1.136663 0.02684259 4.491393
0.5949841 1.054316 0.1273985
1.041723 -0.2922993 0.4721925
-0.1929479 -0.2174063 2.858997
0.3892969 1.30365 0.3289602
-0.4808426 -0.8398476 4.018318
0.8458455 -0.6919193 1.252869
0.8170825 0.1676583 0.541748
-1.11364 -0.2311864 4.745716
-0.1001744 -0.1707706 2.688502
0.562451 1.124971 0.2071676
-1.151034 0.1047235 4.545865
0.2315217 0.9647603 1.024516
-0.0470407 0.4999812 2.003494
-0.4487357 0.7152534 2.608236
-0.426688 0.7186105 2.570301
-1.039577 0.3727181 4.107037
-0.4543202 0.6744938 2.673163
1.166563 -0.6223888 0.631566
-1.167711 0.1889091 4.561853
-0.125668 0.7662621 1.965591
1.083554 -0.7597442 0.950552
-1.160536 0.231039 4.515947
0.9048449 0.09702301 0.5452163
-0.8429837 -0.6525078 4.709353
-0.748528 -0.1056418 4.032027
0.7886678 0.3310843 0.5790973
-0.7177651 0.3892114 3.527407
-0.1367989 0.8949041 1.92664
-0.5548483 0.578546 3.048002
-1.171265 0.2977486 4.542927
1.096475 -0.6666584 0.9116044
0.5020664 0.8578112 0.7090147
0.6404371 0.2216978 1.023358
0.4540578 -0.5268312 2.077982
1.179126 -0.6185479 0.7375846
0.8922859 0.1646094 0.6050894
0.7439691 -0.4689488 1.492342
0.4785901 0.1692753 1.444582
-1.168357 0.4681058 4.447564
-0.6827927 -0.8104973 4.647367
-0.8578124 0.03158092 4.250545
0.3849438 1.103941 0.8049216
-1.149595 0.2796626 4.608884
-0.9238153 -0.5162601 4.893728
0.02971244 -0.5904174 3.073341
-0.05678248 0.8846073 1.905582
1.049513 -0.1713977 0.6728327
-0.5565519 0.5249231 3.233745
-0.006267905 -0.6202364 3.188537
0.7452756 -0.5059299 1.597481
0.3228824 -0.5212173 2.477265
-1.13405 0.5391994 4.409723
1.037903 -0.5663471 1.123398
0.7605445 -0.4861212 1.617349
0.2833596 0.3099337 1.849197
-0.6664751 0.269094 3.775299
-0.1772079 -0.6835184 3.672267
0.07857418 0.9493544 1.682791
0.02667618 -0.6335831 3.235609
-1.072498 -0.009296417 4.863272
-0.05553472 -0.6903362 3.46741
-0.8880959 -0.5204682 4.970135
0.09857309 -0.5388331 3.031137
-0.8473644 0.465476 3.99895
0.7477971 0.8427567 0.4876003
-1.098095 0.4246559 4.545547
0.5001568 -0.5146627 2.228152
1.166448 -0.4202294 0.8263998
0.05307329 -0.6009603 3.213398
0.3895822 -0.4670153 2.427507
0.9549385 0.2153921 0.6946037
1.103544 -0.1435742 0.7275696
-0.3648534 -1.035486 4.461426
0.0528636 0.8456511 1.926103
0.2437508 -0.4536142 2.746608
-1.086555 0.7200716 4.342794
-0.3844182 -1.018034 4.543533
-0.06285775 0.5499671 2.486732
0.7780839 0.9428065 0.4641447
0.6262544 -0.338613 1.948888
0.5902201 -0.4303479 2.113475
-0.7438593 0.6359575 3.796293
-0.2904385 -0.2004676 3.665884
0.7302887 0.456074 1.067969
-0.2116082 -0.7093277 4.002835
-0.7282763 -0.6578822 4.98781
-1.043509 0.2355871 4.807214
0.1240994 -0.6336989 3.280505
-0.2312 -1.056654 4.377087
-0.3868077 0.2891254 3.481086
0.7334486 0.8980443 0.704731
-0.0073421 0.5035563 2.562109
-0.7163959 -0.140883 4.563372
0.2164136 0.8934519 1.772024
0.7432004 0.0005397797 1.554035
0.334166 0.8063233 1.638993
0.6943427 -0.1848149 1.828423
0.9110029 0.07045889 1.168615
-0.9406641 -0.0845294 4.992949
0.8481153 0.9427869 0.5074129
-0.02568877 0.5563297 2.604342
-0.8776429 0.8415258 4.044234
0.9375516 0.008814812 1.195851
-0.4236441 -0.9626222 4.78925
-0.187465 -1.008868 4.365212
0.427574 -0.3799934 2.575812
0.9900454 -0.01861286 1.133175
-0.1871989 -0.5534434 3.962329
0.5185813 0.9878473 1.157717
-0.7914128 -0.4907594 5.108779
0.07509768 -0.267067 3.192225
-0.0142653 0.5780706 2.603286
0.6713643 0.4375613 1.368694
0.4759844 -0.3776565 2.504627
0.9468809 0.07818317 1.158597
-0.6070727 0.7053559 3.683632
-0.3099023 -1.054802 4.696024
0.9444917 0.06349659 1.187374
-0.634429 0.7108617 3.739327
0.6245059 0.5439498 1.397199
0.4366061 0.9065974 1.443864
-0.7088284 -0.5777454 5.072117
0.6280125 0.8171124 1.147391
0.436807 -0.3855577 2.624451
0.3889711 0.6465714 1.789389
-0.5896518 0.7159042 3.677047
0.61119 1.006119 1.033291
0.4671094 -0.3637772 2.566784
0.6022431 0.1047492 1.875776
-0.5037796 -0.2184 4.384779
0.02362597 0.4675043 2.715141
0.1558423 0.1860657 2.71149
-0.5881085 0.720093 3.715514
0.3623903 0.9309537 1.641789
0.7948256 1.023203 0.7004297
-0.05209315 0.5972207 2.774798
0.4031229 0.7292206 1.75267
0.002176285 0.2027764 3.030597
0.1957843 -0.6179028 3.394537
-0.2502984 0.5783789 3.199164
-0.9395933 0.3929338 4.749982
0.140378 -0.641223 3.551615
-0.1278787 0.4588835 3.087168
1.043313 0.100462 1.085711
0.5408286 1.036743 1.244645
0.00276351 0.4381723 2.85975
0.4472124 0.6413972 1.795509
0.6168584 -0.0517664 2.109265
0.02488184 -0.0008330345 3.283168
0.768548 0.8328347 1.048705
0.7022002 0.8386655 1.190799
0.7260692 0.9458976 1.050241
0.6740852 0.2775774 1.762762
-0.9749761 0.964165 4.419102
0.3207581 0.4734852 2.296971
-0.2298338 0.5403335 3.374107
-0.1394061 -1.128543 4.719593
0.6497534 0.08082867 2.082375
-0.3903131 0.05134964 4.182166
-0.6280944 -0.4690304 5.137964
0.6273876 0.03705406 2.18281
-0.02059817 -1.12939 4.540655
-0.4971224 -0.6442871 5.05057
-0.6999016 -0.2856016 5.139018
-0.7763505 0.08300352 4.966882
0.670638 0.0145793 2.173614
0.5868214 0.1145964 2.266683
-0.4448487 0.1813607 4.323384
0.3936966 -0.3237624 3.128361
-0.434366 0.8362789 3.733293
-0.2608249 -0.9003849 4.968419
-0.6533313 1.023769 3.999543
0.4809612 0.3839753 2.337808
0.0393219 0.177104 3.419984
-0.073107 0.04446554 3.773371
-0.7133083 0.1530738 4.955794
-0.2152964 -0.1536016 4.24851
-0.8014512 0.9113684 4.446596
-0.6731985 -0.02936602 5.066521
0.170028 -0.9619761 4.241644
-0.3810799 -0.6824007 5.087439
-0.5532053 0.4996774 4.367965
0.2273018 -0.693675 3.913293
-0.2648768 0.7556899 3.578005
-0.6830473 1.129832 4.112539
-0.8230844 1.08409 4.446728
0.1628798 -0.3956723 3.845881
-0.5715039 1.036772 4.004725
0.5922649 0.1436186 2.508408
0.1275157 -1.185629 4.641706
-0.03531718 0.1684818 3.806868
0.2470224 -1.11132 4.415319
-0.444898 -0.05609798 4.834497
-0.03453016 -0.03375578 4.027814
0.1774373 -1.187881 4.655951
0.5693772 0.1348519 2.679809
0.4758523 0.2271304 2.791218
-0.05971336 0.6105134 3.537471
0.2568648 -0.686893 4.09661
-0.1779799 0.4375601 3.97108
-0.08979988 0.06621933 4.137653
-0.5132987 1.133351 4.036591
-0.5723728 0.4959533 4.733912
-0.1702987 -0.3767939 4.730839
-0.6946039 0.9036202 4.623079
-0.1605395 -0.7392273 5.056493
0.2058587 -1.178026 4.747669
0.3547944 -0.8265553 4.146629
0.09933865 -0.5374298 4.401095
0.404609 -0.1215158 3.428022
-0.07036233 -0.8389874 5.03474
0.5125299 0.2028584 2.969666
-0.3309488 0.1336603 4.713846
-0.7027249 1.11423 4.570445
-0.2495476 0.3756065 4.370814
0.06222534 0.1257877 3.980268
-0.494421 0.6839261 4.587451
-0.2368946 -0.2973151 4.999564
0.1506088 0.1706343 3.806903
0.06525958 -0.9589834 5.011395
0.5001473 -0.3168354 3.637008
0.5892245 0.04785109 3.129853
0.4816405 -0.706655 4.061274
-0.5129471 0.9476893 4.535154
0.1176811 0.6579533 3.553279
0.6125084 0.2537603 2.957963
0.6257207 -0.1267476 3.310553
0.6749809 0.09577036 3.02575
-0.5416911 1.198673 4.453304
0.1121202 -0.8726954 5.043906
0.5455288 -0.8608489 4.207274
-0.5172378 1.12597 4.527869
-0.2770677 0.5486329 4.595236
0.2172982 0.1555367 3.979565
0.004892349 0.8836014 3.745699
0.2853259 0.5609562 3.489382
0.6060744 -0.5481243 3.870843
0.6006708 -0.6405392 3.980036
0.4775379 -1.166976 4.7064
-0.3272769 0.6547525 4.654577
0.6583123 0.0326643 3.261299
-0.1725254 1.088158 3.97548
0.2910626 -0.5276799 4.5457
0.6557654 -0.4579163 3.797214
0.09891319 -0.3551126 4.821552
-0.1058471 0.6771462 4.335411
-0.1518267 0.2824554 4.801964
0.5295069 0.5214152 3.24192
0.1465826 0.0760293 4.410331
0.01526749 0.2202392 4.555697
0.6883766 -0.4268084 3.817327
0.4963322 -1.130684 4.844282
0.3646185 0.05857801 4.058968
0.3173316 -0.2263846 4.465467
0.663381 -1.036407 4.516675
0.6828745 -1.068588 4.52562
0.5902447 -1.130439 4.770524
0.3213329 0.7455714 3.637112
-0.008761406 0.1829028 4.82658
0.1933899 -0.4829879 5.040999
0.275458 -0.5055108 4.943055
0.209276 -0.4829516 5.055029
0.6958875 0.4313557 3.261108
0.1260873 0.6693978 4.185781
0.1654 0.9860847 3.831966
0.01095366 0.2682571 4.830506
0.6467795 -0.04863501 3.858188
0.8218752 -0.5743828 4.021822
0.6348368 -1.031668 4.873699
0.5001056 0.3125458 3.956224
0.7748065 0.3474808 3.390973
0.7098258 0.4443955 3.437406
0.6538883 0.5221231 3.485538
0.02351165 1.292351 4.044641
0.6821734 0.4984019 3.457439
0.85106 -0.7642317 4.288864
0.5873556 -0.9525127 4.985842
0.2657712 -0.2604594 5.000595
0.7404771 0.4700258 3.486492
0.8638115 0.02662849 3.656286
0.2491212 -0.05186749 4.964049
0.827165 -0.9835 4.68362
-0.07861376 1.289341 4.42653
0.854445 0.09340191 3.666511
0.3728545 0.9835384 3.832873
0.2125689 0.2616048 4.813233
0.18852 0.9084284 4.297531
0.6255334 0.6685326 3.652143
0.878563 -0.9948459 4.683718
-0.01186252 1.259486 4.414855
-0.03283882 1.25751 4.485223
0.7977454 -0.9745383 4.878647
0.03733742 1.266866 4.381245
0.3301523 0.2051768 4.764931
1.017984 -0.4879069 4.06725
0.4780072 0.9721506 3.859482
0.1638786 1.269371 4.218228
0.0498575 1.20854 4.50501
0.6154915 0.5464058 3.98831
0.6607445 -0.6350875 4.999518
0.4940108 0.9806774 3.865099
0.07899415 1.260527 4.441792
0.8801402 0.2604208 3.768862
0.6800169 -0.5941205 4.960332
1.042914 -0.3398609 4.030747
1.071847 -0.5242987 4.145266
0.3436234 1.305544 3.986232
0.6085328 -0.2686901 4.903352
0.4721007 0.7157075 4.315256
0.5512604 -0.0148797 4.841208
0.7807156 -0.1062055 4.479292
0.4446182 0.413377 4.678217
0.9773587 -0.7624002 4.730742
0.9039606 0.1542449 4.048249
0.5008528 0.3043842 4.727359
0.9761125 -0.8736429 4.875406
0.595115 1.039057 3.901811
1.120809 -0.312624 4.096356
1.160156 -0.673305 4.406549
1.136023 -0.1581697 4.02052
0.5778378 0.3019137 4.799333
0.6213338 0.467649 4.564623
1.100836 0.1183677 3.937088
1.190829 -0.2701025 4.117021
0.7911777 0.205852 4.489177
0.5785112 0.274219 4.853255
0.6117662 0.3751445 4.698897
0.8148302 -0.1118708 4.835255
1.260934 -0.5952973 4.40933
0.5220295 1.376575 4.217957
0.9431741 0.7570102 4.010542
0.5996305 1.086548 4.421543
1.1303 -0.5376062 4.861553
0.7633513 0.5824213 4.615886
1.134961 -0.2315373 4.709078
0.7494698 1.297676 4.09132
1.228601 -0.4291778 4.726895
1.246017 -0.5010653 4.771575
1.207022 0.3752439 4.10382
1.285946 -0.4387579 4.716727
1.297379 -0.5047002 4.762357
0.6499192 1.204907 4.562764
0.8266159 0.7989988 4.612753
0.7265403 1.229499 4.435791
1.361334 -0.3800063 4.684902
1.356285 -0.2956443 4.657968
1.162012 0.7054915 4.20679
1.348213 -0.2433338 4.703229
1.333851 0.3038096 4.257354
1.248893 0.5593927 4.238566
1.038488 0.9706416 4.29323
0.9110141 1.222063 4.358261
0.9803643 1.167758 4.275326
1.381523 0.3236041 4.249449
1.387483 0.2183843 4.345079
1.414803 0.01274252 4.504965
1.329965 0.3604031 4.40677
1.039551 1.250705 4.179784
1.274975 0.3873708 4.528979
1.063937 1.137095 4.288611
1.350028 0.3216267 4.470259
1.343606 0.3812723 4.439207
1.407715 0.3391414 4.356611
1.086514 1.174836 4.245348
1.111303 1.197027 4.237369
1.041068 1.249846 4.344316
1.08036 1.191427 4.331151
1.318722 0.4431026 4.555881
0 0 0
0 0 0
0 0 0
0 0 0
0 0 0
0 0 0
0 0 0
0 0 0
0 0 0
0 0 0
0 0 0
0 0 0
0 0 0
0 0 0
0 0 0
0 0 0
0 0 0
0 0 0
0 0 0
0 0 0
0 0 0
0 0 0
0 0 0
0 0 0
0 0 0
0 0 0
0 0 0
0 0 0
0 0 0
0 0 0
0 0 0
0 0 0
0 0 0
0 0 0
0 0 0
0 0 0
0 0 0
0 0 0
0 0 0
0 0 0
0 0 0
0 0 0
0 0 0
0 0 0
0 0 0
0 0 0
0 0 0
0 0 0
0 0 0
0 0 0
0 0 0
0 0 0
0 0 0
0 0 0
0 0 0
0 0 0
0 0 0
0 0 0
0 0 0
0 0 0
0 0 0
0 0 0
0 0 0
0 0 0
0 0 0
0 0 0
0 0 0
0 0 0
0 0 0
0 0 0
0 0 0
0 0 0
0 0 0
0 0 0
0 0 0
0 0 0
0 0 0
0 0 0
0 0 0
0 0 0
0 0 0
0 0 0
0 0 0
0 0 0
0 0 0
0 0 0
0 0 0
0 0 0
0 0 0
0 0 0
0 0 0
0 0 0
0 0 0
0 0 0
0 0 0
0 0 0
0 0 0
0 0 0
0 0 0
0 0 0
0 0 0
0 0 0
0 0 0
0 0 0
0 0 0
0 0 0
0 0 0
0 0 0
0 0 0
0 0 0
0 0 0
0 0 0
0 0 0
0 0 0
0 0 0
0 0 0
0 0 0
0 0 0
0 0 0
0 0 0
0 0 0
0 0 0
0 0 0
0 0 0
0 0 0
0 0 0
0 0 0
0 0 0
0 0 0
0 0 0
0 0 0
0 0 0
0 0 0
0 0 0
0 0 0
0 0 0
0 0 0
0 0 0
0 0 0
0 0 0
0 0 0
0 0 0
0 0 0
0 0 0
0 0 0
0 0 0
0 0 0
0 0 0
0 0 0
0 0 0
0 0 0
0 0 0
0 0 0
0 0 0
0 0 0
0 0 0
0 0 0
0 0 0
0 0 0
0 0 0
0 0 0
0 0 0
0 0 0
0 0 0
0 0 0
0 0 0
0 0 0
0 0 0
0 0 0
0 0 0
0 0 0
0 0 0
0 0 0
0 0 0
0 0 0
0 0 0
0 0 0
0 0 0
0 0 0
0 0 0
0 0 0
0 0 0
0 0 0
0 0 0
0 0 0
0 0 0
0 0 0
0 0 0
0 0 0
0 0 0
0 0 0
0 0 0
0 0 0
0 0 0
0 0 0
0 0 0
0 0 0
0 0 0
0 0 0
0 0 0
0 0 0
0 0 0
0 0 0
0 0 0
0 0 0
0 0 0
0 0 0
0 0 0
0 0 0
0 0 0
0 0 0
0 0 0
0 0 0
0 0 0
0 0 0
0 0 0
0 0 0
0 0 0
0 0 0
0 0 0
0 0 0
0 0 0
0 0 0
0 0 0
0 0 0
0 0 0
0 0 0
0 0 0
0 0 0
0 0 0
0 0 0
0 0 0
0 0 0
0 0 0
0 0 0
0 0 0
0 0 0
0 0 0
0 0 0
0 0 0
0 0 0
0 0 0
0 0 0
0 0 0
0 0 0
0 0 0
0 0 0
0 0 0
0 0 0
0 0 0
0 0 0
0 0 0
0 0 0
0 0 0
0 0 0
0 0 0
0 0 0
0 0 0
0 0 0
0 0 0
0 0 0
0 0 0
0 0 0
0 0 0
0 0 0
0 0 0
0 0 0
0 0 0
0 0 0
0 0 0
0 0 0
0 0 0
0 0 0
0 0 0
0 0 0
0 0 0
0 0 0
0 0 0
0 0 0
0 0 0
0 0 0
0 0 0
0 0 0
0 0 0
0 0 0
0 0 0
0 0 0
0 0 0
0 0 0
0 0 0
0 0 0
0 0 0
0 0 0
0 0 0
0 0 0
0 0 0
0 0 0
0 0 0
0 0 0
0 0 0
0 0 0
0 0 0
0 0 0
0 0 0
0 0 0
0 0 0
0 0 0
0 0 0
0 0 0
0 0 0
0 0 0
0 0 0
0 0 0
0 0 0
0 0 0
0 0 0
0 0 0
0 0 0
0 0 0
0 0 0
0 0 0
0 0 0
0 0 0
0 0 0
0 0 0
0 0 0
0 0 0
0 0 0
0 0 0
0 0 0
0 0 0
0 0 0
0 0 0
0 0 0
0 0 0
0 0 0
0 0 0
0 0 0
0 0 0
0 0 0
0 0 0
0 0 0
0 0 0
0 0 0
0 0 0
0 0 0
0 0 0
0 0 0
0 0 0
0 0 0
0 0 0
0 0 0
0 0 0
0 0 0
0 0 0
0 0 0
0 0 0
0 0 0
0 0 0
0 0 0
0 0 0
0 0 0
0 0 0
0 0 0
0 0 0
0 0 0
0 0 0
0 0 0
0 0 0
0 0 0
0 0 0
0 0 0
0 0 0
0 0 0
0 0 0
0 0 0
0 0 0
0 0 0
0 0 0
0 0 0
0 0 0
0 0 0
0 0 0
0 0 0
0 0 0
0 0 0
0 0 0
0 0 0
0 0 0
0 0 0
0 0 0
0 0 0
0 0 0
0 0 0
0 0 0
0 0 0
0 0 0
0 0 0
0 0 0
0 0 0
0 0 0
0 0 0
0 0 0
0 0 0
0 0 0
0 0 0
0 0 0
0 0 0
0 0 0
0 0 0
0 0 0
0 0 0
0 0 0
0 0 0
0 0 0
0 0 0
0 0 0
0 0 0
0 0 0
0 0 0
0 0 0
0 0 0
0 0 0
0 0 0
0 0 0
0 0 0
0 0 0
0 0 0
0 0 0
0 0 0
0 0 0
0 0 0
0 0 0
0 0 0
0 0 0
0 0 0
0 0 0
0 0 0
0 0 0
0 0 0
0 0 0
0 0 0
0 0 0
0 0 0
0 0 0
0 0 0
0 0 0
0 0 0
0 0 0
0 0 0
0 0 0
0 0 0
0 0 0
0 0 0
0 0 0
0 0 0
0 0 0
0 0 0
0 0 0
0 0 0
0 0 0
0 0 0
0 0 0
0 0 0
0 0 0
0 0 0
0 0 0
0 0 0
0 0 0
0 0 0
0 0 0
0 0 0
0 0 0
0 0 0
0 0 0
0 0 0
0 0 0
0 0 0
0 0 0
0 0 0
0 0 0
0 0 0
0 0 0
0 0 0
0 0 0
0 0 0
0 0 0
0 0 0
0 0 0
0 0 0
0 0 0
0 0 0
0 0 0
0 0 0
0 0 0
0 0 0
0 0 0
0 0 0
0 0 0
0 0 0
0 0 0
0 0 0
0 0 0
0 0 0
0 0 0
0 0 0
0 0 0
0 0 0
0 0 0
0 0 0
0 0 0
0 0 0
0 0 0
0 0 0
0 0 0
0 0 0
0 0 0
0 0 0
0 0 0
0 0 0
0 0 0
0 0 0
0 0 0
0 0 0
0 0 0
0 0 0
0 0 0
0 0 0
0 0 0
0 0 0
0 0 0
0 0 0
0 0 0
0 0 0
0 0 0
0 0 0
0 0 0
0 0 0
0 0 0
0 0 0
0 0 0
0 0 0
0 0 0
0 0 0
0 0 0
0 0 0
0 0 0
0 0 0
0 0 0
0 0 0
0 0 0
0 0 0
0 0 0
0 0 0
0 0 0
0 0 0
0 0 0
0 0 0
0 0 0
0 0 0
0 0 0
0 0 0
0 0 0
0 0 0
0 0 0
0 0 0
0 0 0
0 0 0
0 0 0
0 0 0
0 0 0
0 0 0
0 0 0
0 0 0
0 0 0
0 0 0
0 0 0
0 0 0
0 0 0
0 0 0
0 0 0
0 0 0
0 0 0
0 0 0
0 0 0
0 0 0
0 0 0
0 0 0
0 0 0
0 0 0
0 0 0
0 0 0
0 0 0
0 0 0
0 0 0
0 0 0
0 0 0
0 0 0
0 0 0
0 0 0
0 0 0
0 0 0
0 0 0
0 0 0
0 0 0
0 0 0
0 0 0
0 0 0
0 0 0
0 0 0
0 0 0
0 0 0
0 0 0
0 0 0
0 0 0
0 0 0
0 0 0
0 0 0
0 0 0
0 0 0
0 0 0
0 0 0
0 0 0
0 0 0
0 0 0
0 0 0
0 0 0
0 0 0
0 0 0
0 0 0
0 0 0
0 0 0
0 0 0
0 0 0
0 0 0
0 0 0
0 0 0
0 0 0
0 0 0
0 0 0
0 0 0
0 0 0
0 0 0
0 0 0
0 0 0
0 0 0
0 0 0
0 0 0
0 0 0
0 0 0
0 0 0
0 0 0
0 0 0
0 0 0
0 0 0
0 0 0
0 0 0
0 0 0
0 0 0
0 0 0
0 0 0
0 0 0
0 0 0
0 0 0
0 0 0
0 0 0
0 0 0
0 0 0
0 0 0
0 0 0
0 0 0
0 0 0
0 0 0
0 0 0
0 0 0
0 0 0
0 0 0
0 0 0
0 0 0
0 0 0
0 0 0
0 0 0
0 0 0
0 0 0
0 0 0
0 0 0
0 0 0
0 0 0
0 0 0
0 0 0
0 0 0
0 0 0
0 0 0
0 0 0
0 0 0
0 0 0
0 0 0
0 0 0
0 0 0
0 0 0
0 0 0
0 0 0
0 0 0
0 0 0
0 0 0
0 0 0
0 0 0
0 0 0
0 0 0
0 0 0
0 0 0
0 0 0
0 0 0
0 0 0
0 0 0
0 0 0
0 0 0
0 0 0
0 0 0
0 0 0
0 0 0
0 0 0
0 0 0
0 0 0
0 0 0
0 0 0
0 0 0
0 0 0
0 0 0
0 0 0
0 0 0
0 0 0
0 0 0
0 0 0
0 0 0
0 0 0
0 0 0
0 0 0
0 0 0
0 0 0
0 0 0
0 0 0
0 0 0
0 0 0
0 0 0
0 0 0
0 0 0
0 0 0
0 0 0
0 0 0
0 0 0
0 0 0
0 0 0
0 0 0
0 0 0
0 0 0
0 0 0
0 0 0
0 0 0
0 0 0
0 0 0
0 0 0
0 0 0
0 0 0
0 0 0
0 0 0
0 0 0
0 0 0
0 0 0
0 0 0
0 0 0
0 0 0
0 0 0
0 0 0
0 0 0
0 0 0
0 0 0
0 0 0
0 0 0
0 0 0
0 0 0
0 0 0
0 0 0
0 0 0
0 0 0
0 0 0
0 0 0
0 0 0
0 0 0
0 0 0
0 0 0
0 0 0
0 0 0
0 0 0
0 0 0
0 0 0
0 0 0
0 0 0
0 0 0
0 0 0
0 0 0
0 0 0
0 0 0
0 0 0
0 0 0
0 0 0
0 0 0
0 0 0
0 0 0
0 0 0
0 0 0
0 0 0
0 0 0
0 0 0
0 0 0
0 0 0
0 0 0
0 0 0
0 0 0
0 0 0
0 0 0
0 0 0
0 0 0
0 0 0
0 0 0
0 0 0
0 0 0
0 0 0
0 0 0
0 0 0
0 0 0
0 0 0
0 0 0
0 0 0
0 0 0
0 0 0
0 0 0
0 0 0
0 0 0
0 0 0
0 0 0
0 0 0
0 0 0
0 0 0
0 0 0
0 0 0
0 0 0
0 0 0
0 0 0
0 0 0
0 0 0
0 0 0
0 0 0
0 0 0
0 0 0
0 0 0
0 0 0
0 0 0
0 0 0
0 0 0
0 0 0
0 0 0
0 0 0
0 0 0
0 0 0
0 0 0
0 0 0
0 0 0
0 0 0
0 0 0
0 0 0
0 0 0
0 0 0
0 0 0
0 0 0
0 0 0
0 0 0
0 0 0
0 0 0
0 0 0
0 0 0
0 0 0
0 0 0
0 0 0
0 0 0
0 0 0
0 0 0
0 0 0
0 0 0
0 0 0
0 0 0
0 0 0
0 0 0
0 0 0
0 0 0
0 0 0
0 0 0
0 0 0
0 0 0
0 0 0
0 0 0
0 0 0
0 0 0
0 0 0
0 0 0
0 0 0
0 0 0
0 0 0
0 0 0
0 0 0
0 0 0
0 0 0
0 0 0
0 0 0
0 0 0
0 0 0
0 0 0
0 0 0
0 0 0
0 0 0
0 0 0
0 0 0
0 0 0
0 0 0
0 0 0
0 0 0
0 0 0
0 0 0
0 0 0
0 0 0
0 0 0
0 0 0
0 0 0
0 0 0
0 0 0
0 0 0
0 0 0
0 0 0
0 0 0
0 0 0
0 0 0
0 0 0
0 0 0
0 0 0
0 0 0
0 0 0
0 0 0
0 0 0
0 0 0
0 0 0
0 0 0
0 0 0
0 0 0
0 0 0
0 0 0
0 0 0
0 0 0
0 0 0
0 0 0
0 0 0
0 0 0
0 0 0
0 0 0
0 0 0
0 0 0
0 0 0
0 0 0
0 0 0
0 0 0
0 0 0
0 0 0
0 0 0
0 0 0
0 0 0
0 0 0
0 0 0
0 0 0
0 0 0
0 0 0
0 0 0
0 0 0
0 0 0
0 0 0
0 0 0
0 0 0
0 0 0
0 0 0
0 0 0
0 0 0
0 0 0
0 0 0
0 0 0
0 0 0
0 0 0
0 0 0
0 0 0
0 0 0
0 0 0
0 0 0
0 0 0
0 0 0
0 0 0
0 0 0
0 0 0
0 0 0
0 0 0
0 0 0
0 0 0
0 0 0
0 0 0
0 0 0
0 0 0
0 0 0
0 0 0
0 0 0
0 0 0
0 0 0
0 0 0
0 0 0
0 0 0
0 0 0
0 0 0
0 0 0
0 0 0
0 0 0
0 0 0
0 0 0
0 0 0
0 0 0
0 0 0
0 0 0
0 0 0
0 0 0
0 0 0
0 0 0
0 0 0
0 0 0
0 0 0
0 0 0
0 0 0
0 0 0
0 0 0
0 0 0
0 0 0
0 0 0
0 0 0
0 0 0
0 0 0
0 0 0
0 0 0
0 0 0
0 0 0
0 0 0
0 0 0
0 0 0
0 0 0
0 0 0
0 0 0
0 0 0
0 0 0
0 0 0
0 0 0
0 0 0
0 0 0
0 0 0
0 0 0
0 0 0
0 0 0
0 0 0
0 0 0
0 0 0
0 0 0
0 0 0
0 0 0
0 0 0
0 0 0
0 0 0
0 0 0
0 0 0
0 0 0
0 0 0
0 0 0
0 0 0
0 0 0
0 0 0
0 0 0
0 0 0
0 0 0
0 0 0
0 0 0
0 0 0
0 0 0
0 0 0
0 0 0
0 0 0
0 0 0
0 0 0
0 0 0
0 0 0
0 0 0
0 0 0
0 0 0
0 0 0
0 0 0
0 0 0
0 0 0
0 0 0
0 0 0
0 0 0
0 0 0
0 0 0
0 0 0
0 0 0
0 0 0
0 0 0
0 0 0
0 0 0
0 0 0
0 0 0
0 0 0
0 0 0
0 0 0
0 0 0
0 0 0
0 0 0
0 0 0
0 0 0
0 0 0
0 0 0
0 0 0
0 0 0
0 0 0
0 0 0
0 0 0
0 0 0
0 0 0
0 0 0
0 0 0
0 0 0
0 0 0
0 0 0
0 0 0
0 0 0
0 0 0
0 0 0
0 0 0
0 0 0
0 0 0
0 0 0
0 0 0
0 0 0
0 0 0
0 0 0
0 0 0
0 0 0
0 0 0
0 0 0
0 0 0
0 0 0
0 0 0
0 0 0
0 0 0
0 0 0
0 0 0
0 0 0
0 0 0
0 0 0
0 0 0
0 0 0
0 0 0
0 0 0
0 0 0
0 0 0
0 0 0
0 0 0
0 0 0
0 0 0
0 0 0
0 0 0
0 0 0
0 0 0
0 0 0
0 0 0
0 0 0
0 0 0
0 0 0
0 0 0
0 0 0
0 0 0
0 0 0
0 0 0
0 0 0
0 0 0
0 0 0
0 0 0
0 0 0
0 0 0
0 0 0
0 0 0
0 0 0
0 0 0
0 0 0
0 0 0
0 0 0
0 0 0
0 0 0
0 0 0
0 0 0
0 0 0
0 0 0
0 0 0
0 0 0
0 0 0
0 0 0
0 0 0
0 0 0
0 0 0
0 0 0
0 0 0
0 0 0
0 0 0
0 0 0
0 0 0
0 0 0
0 0 0
0 0 0
0 0 0
0 0 0
0 0 0
0 0 0
0 0 0
0 0 0
0 0 0
0 0 0
0 0 0
0 0 0
0 0 0
0 0 0
0 0 0
0 0 0
0 0 0
0 0 0
0 0 0
0 0 0
0 0 0
0 0 0
0 0 0
0 0 0
0 0 0
0 0 0
0 0 0
0 0 0
0 0 0
0 0 0
0 0 0
0 0 0
0 0 0
0 0 0
0 0 0
0 0 0
0 0 0
0 0 0
0 0 0
0 0 0
0 0 0
0 0 0
0 0 0
0 0 0
0 0 0
0 0 0
0 0 0
0 0 0
0 0 0
0 0 0
0 0 0
0 0 0
0 0 0
0 0 0
0 0 0
0 0 0
0 0 0
0 0 0
0 0 0
0 0 0
0 0 0
0 0 0
0 0 0
0 0 0
0 0 0
0 0 0
0 0 0
0 0 0
0 0 0
0 0 0
0 0 0
0 0 0
0 0 0
0 0 0
0 0 0
0 0 0
0 0 0
0 0 0
0 0 0
0 0 0
0 0 0
0 0 0
0 0 0
0 0 0
0 0 0
0 0 0
0 0 0
0 0 0
0 0 0
0 0 0
0 0 0
0 0 0
0 0 0
0 0 0
0 0 0
0 0 0
0 0 0
0 0 0
0 0 0
0 0 0
0 0 0
0 0 0
0 0 0
0 0 0
0 0 0
0 0 0
0 0 0
0 0 0
0 0 0
0 0 0
0 0 0
0 0 0
0 0 0
0 0 0
0 0 0
0 0 0
0 0 0
0 0 0
0 0 0
0 0 0
0 0 0
0 0 0
0 0 0
0 0 0
0 0 0
0 0 0
0 0 0
0 0 0
0 0 0
0 0 0
0 0 0
0 0 0
0 0 0
0 0 0
0 0 0
0 0 0
0 0 0
0 0 0
0 0 0
0 0 0
0 0 0
0 0 0
0 0 0
0 0 0
0 0 0
0 0 0
0 0 0
0 0 0
0 0 0
0 0 0
0 0 0
0 0 0
0 0 0
0 0 0
0 0 0
0 0 0
0 0 0
0 0 0
0 0 0
0 0 0
0 0 0
0 0 0
0 0 0
0 0 0
0 0 0
0 0 0
0 0 0
0 0 0
0 0 0
0 0 0
0 0 0
0 0 0
0 0 0
0 0 0
0 0 0
0 0 0
0 0 0
0 0 0
0 0 0
0 0 0
0 0 0
0 0 0
0 0 0
0 0 0
0 0 0
0 0 0
0 0 0
0 0 0
0 0 0
0 0 0
0 0 0
0 0 0
0 0 0
0 0 0
0 0 0
0 0 0
0 0 0
0 0 0
0 0 0
0 0 0
0 0 0
0 0 0
0 0 0
0 0 0
0 0 0
0 0 0
0 0 0
0 0 0
0 0 0
0 0 0
0 0 0
0 0 0
0 0 0
0 0 0
0 0 0
0 0 0
0 0 0
0 0 0
0 0 0
0 0 0
0 0 0
0 0 0
0 0 0
0 0 0
0 0 0
0 0 0
0 0 0
0 0 0
0 0 0
0 0 0
0 0 0
0 0 0
0 0 0
0 0 0
0 0 0
0 0 0
0 0 0
0 0 0
0 0 0
0 0 0
0 0 0
0 0 0
0 0 0
0 0 0
0 0 0
0 0 0
0 0 0
0 0 0
0 0 0
0 0 0
0 0 0
0 0 0
0 0 0
0 0 0
0 0 0
0 0 0
0 0 0
0 0 0
0 0 0
0 0 0
0 0 0
0 0 0
0 0 0
0 0 0
0 0 0
0 0 0
0 0 0
0 0 0
0 0 0
0 0 0
0 0 0
0 0 0
0 0 0
0 0 0
0 0 0
0 0 0
0 0 0
0 0 0
0 0 0
0 0 0
0 0 0
0 0 0
0 0 0
0 0 0
0 0 0
0 0 0
0 0 0
0 0 0
0 0 0
0 0 0
0 0 0
0 0 0
0 0 0
0 0 0
0 0 0
0 0 0
0 0 0
0 0 0
0 0 0
0 0 0
0 0 0
0 0 0
0 0 0
0 0 0
0 0 0
0 0 0
0 0 0
0 0 0
0 0 0
0 0 0
0 0 0
0 0 0
0 0 0
0 0 0
0 0 0
0 0 0
0 0 0
0 0 0
0 0 0
0 0 0
0 0 0
0 0 0
0 0 0
0 0 0
0 0 0
0 0 0
0 0 0
0 0 0
0 0 0
0 0 0
0 0 0
0 0 0
0 0 0
0 0 0
0 0 0
0 0 0
0 0 0
0 0 0
0 0 0
0 0 0
0 0 0
0 0 0
0 0 0
0 0 0
0 0 0
0 0 0
0 0 0
0 0 0
0 0 0
0 0 0
0 0 0
0 0 0
0 0 0
0 0 0
0 0 0
0 0 0
0 0 0
0 0 0
0 0 0
0 0 0
0 0 0
0 0 0
0 0 0
0 0 0
0 0 0
0 0 0
0 0 0
0 0 0
0 0 0
0 0 0
0 0 0
0 0 0
0 0 0
0 0 0
0 0 0
0 0 0
0 0 0
0 0 0
0 0 0
0 0 0
0 0 0
0 0 0
0 0 0
0 0 0
0 0 0
0 0 0
0 0 0
0 0 0
0 0 0
0 0 0
0 0 0
0 0 0
0 0 0
0 0 0
0 0 0
0 0 0
0 0 0
0 0 0
0 0 0
0 0 0
0 0 0
0 0 0
0 0 0
0 0 0
0 0 0
0 0 0
0 0 0
0 0 0
0 0 0
0 0 0
0 0 0
0 0 0
0 0 0
0 0 0
0 0 0
0 0 0
0 0 0
0 0 0
0 0 0
0 0 0
0 0 0
0 0 0
0 0 0
0 0 0
0 0 0
0 0 0
0 0 0
0 0 0
0 0 0
0 0 0
0 0 0
0 0 0
0 0 0
0 0 0
0 0 0
0 0 0
0 0 0
0 0 0
0 0 0
0 0 0
0 0 0
0 0 0
0 0 0
0 0 0
0 0 0
0 0 0
0 0 0
0 0 0
0 0 0
0 0 0
0 0 0
0 0 0
0 0 0
0 0 0
0 0 0
0 0 0
0 0 0
0 0 0
0 0 0
0 0 0
0 0 0
0 0 0
0 0 0
0 0 0
0 0 0
0 0 0
0 0 0
0 0 0
0 0 0
0 0 0
0 0 0
0 0 0
0 0 0
0 0 0
0 0 0
0 0 0
0 0 0
0 0 0
0 0 0
0 0 0
0 0 0
0 0 0
0 0 0
0 0 0
0 0 0
0 0 0
0 0 0
0 0 0
0 0 0
0 0 0
0 0 0
0 0 0
0 0 0
0 0 0
0 0 0
0 0 0
0 0 0
0 0 0
0 0 0
0 0 0
0 0 0
0 0 0
0 0 0
0 0 0
0 0 0
0 0 0
0 0 0
0 0 0
0 0 0
0 0 0
0 0 0
0 0 0
0 0 0
0 0 0
0 0 0
0 0 0
0 0 0
0 0 0
0 0 0
0 0 0
0 0 0
0 0 0
0 0 0
0 0 0
0 0 0
0 0 0
0 0 0
0 0 0
0 0 0
0 0 0
0 0 0
0 0 0
0 0 0
0 0 0
0 0 0
0 0 0
0 0 0
0 0 0
0 0 0
0 0 0
0 0 0
0 0 0
0 0 0
0 0 0
0 0 0
0 0 0
0 0 0
0 0 0
0 0 0
0 0 0
0 0 0
0 0 0
0 0 0
0 0 0
0 0 0
0 0 0
0 0 0
0 0 0
0 0 0
0 0 0
0 0 0
0 0 0
0 0 0
0 0 0
0 0 0
0 0 0
0 0 0
0 0 0
0 0 0
0 0 0
0 0 0
0 0 0
0 0 0
0 0 0
0 0 0
0 0 0
0 0 0
0 0 0
0 0 0
0 0 0
0 0 0
0 0 0
0 0 0
0 0 0
0 0 0
0 0 0
0 0 0
0 0 0
0 0 0
0 0 0
0 0 0
0 0 0
0 0 0
0 0 0
0 0 0
0 0 0
0 0 0
0 0 0
0 0 0
0 0 0
0 0 0
0 0 0
0 0 0
0 0 0
0 0 0
0 0 0
0 0 0
0 0 0
0 0 0
0 0 0
0 0 0
0 0 0
0 0 0
0 0 0
0 0 0
0 0 0
0 0 0
0 0 0
0 0 0
0 0 0
0 0 0
0 0 0
0 0 0
0 0 0
0 0 0
0 0 0
0 0 0
0 0 0
0 0 0
0 0 0
0 0 0
0 0 0
0 0 0
0 0 0
0 0 0
0 0 0
0 0 0
0 0 0
0 0 0
0 0 0
0 0 0
0 0 0
0 0 0
0 0 0
0 0 0
0 0 0
0 0 0
0 0 0
0 0 0
0 0 0
0 0 0
0 0 0
0 0 0
0 0 0
0 0 0
0 0 0
0 0 0
0 0 0
0 0 0
0 0 0
0 0 0
0 0 0
0 0 0
0 0 0
0 0 0
0 0 0
0 0 0
0 0 0
0 0 0
0 0 0
0 0 0
0 0 0
0 0 0
0 0 0
0 0 0
0 0 0
0 0 0
0 0 0
0 0 0
0 0 0
0 0 0
0 0 0
0 0 0
0 0 0
0 0 0
0 0 0
0 0 0
0 0 0
0 0 0
0 0 0
0 0 0
0 0 0
0 0 0
0 0 0
0 0 0
0 0 0
0 0 0
0 0 0
0 0 0
0 0 0
0 0 0
0 0 0
0 0 0
0 0 0
0 0 0
0 0 0
0 0 0
0 0 0
0 0 0
0 0 0
0 0 0
0 0 0
0 0 0
0 0 0
0 0 0
0 0 0
0 0 0
0 0 0
0 0 0
0 0 0
0 0 0
0 0 0
0 0 0
0 0 0
0 0 0
0 0 0
0 0 0
0 0 0
0 0 0
0 0 0
0 0 0
0 0 0
0 0 0
0 0 0
0 0 0
0 0 0
0 0 0
0 0 0
0 0 0
0 0 0
0 0 0
0 0 0
0 0 0
0 0 0
0 0 0
0 0 0
0 0 0
0 0 0
0 0 0
0 0 0
0 0 0
0 0 0
0 0 0
0 0 0
0 0 0
0 0 0
0 0 0
0 0 0
0 0 0
0 0 0
0 0 0
0 0 0
0 0 0
0 0 0
0 0 0
0 0 0
0 0 0
0 0 0
0 0 0
0 0 0
0 0 0
0 0 0
0 0 0
0 0 0
0 0 0
0 0 0
0 0 0
0 0 0
0 0 0
0 0 0
0 0 0
0 0 0
0 0 0
0 0 0
0 0 0
0 0 0
0 0 0
0 0 0
0 0 0
0 0 0
0 0 0
0 0 0
0 0 0
0 0 0
0 0 0
0 0 0
0 0 0
0 0 0
0 0 0
0 0 0
0 0 0
0 0 0
0 0 0
0 0 0
0 0 0
0 0 0
0 0 0
0 0 0
0 0 0
0 0 0
0 0 0
0 0 0
0 0 0
0 0 0
0 0 0
0 0 0
0 0 0
0 0 0
0 0 0
0 0 0
0 0 0
0 0 0
0 0 0
0 0 0
0 0 0
0 0 0
0 0 0
0 0 0
0 0 0
0 0 0
0 0 0
0 0 0
0 0 0
0 0 0
0 0 0
0 0 0
0 0 0
0 0 0
0 0 0
0 0 0
0 0 0
0 0 0
0 0 0
0 0 0
0 0 0
0 0 0
0 0 0
0 0 0
0 0 0
0 0 0
0 0 0
0 0 0
0 0 0
0 0 0
0 0 0
0 0 0
0 0 0
0 0 0
0 0 0
0 0 0
0 0 0
0 0 0
0 0 0
0 0 0
0 0 0
0 0 0
0 0 0
0 0 0
0 0 0
0 0 0
0 0 0
0 0 0
0 0 0
0 0 0
0 0 0
0 0 0
0 0 0
0 0 0
0 0 0
0 0 0
0 0 0
0 0 0
0 0 0
0 0 0
0 0 0
0 0 0
0 0 0
0 0 0
0 0 0
0 0 0
0 0 0
0 0 0
0 0 0
0 0 0
0 0 0
0 0 0
0 0 0
0 0 0
0 0 0
0 0 0
0 0 0
0 0 0
0 0 0
0 0 0
0 0 0
0 0 0
0 0 0
0 0 0
0 0 0
0 0 0
0 0 0
0 0 0
0 0 0
0 0 0
0 0 0
0 0 0
0 0 0
0 0 0
0 0 0
0 0 0
0 0 0
0 0 0
0 0 0
0 0 0
0 0 0
0 0 0
0 0 0
0 0 0
0 0 0
0 0 0
0 0 0
0 0 0
0 0 0
0 0 0
0 0 0
0 0 0
0 0 0
0 0 0
0 0 0
0 0 0
0 0 0
0 0 0
0 0 0
0 0 0
0 0 0
0 0 0
0 0 0
0 0 0
0 0 0
0 0 0
0 0 0
0 0 0
0 0 0
0 0 0
0 0 0
0 0 0
0 0 0
0 0 0
0 0 0
0 0 0
0 0 0
0 0 0
0 0 0
0 0 0
0 0 0
0 0 0
0 0 0
0 0 0
0 0 0
0 0 0
0 0 0
0 0 0
0 0 0
0 0 0
0 0 0
0 0 0
0 0 0
0 0 0
0 0 0
0 0 0
0 0 0
0 0 0
0 0 0
0 0 0
0 0 0
0 0 0
0 0 0
0 0 0
0 0 0
0 0 0
0 0 0
0 0 0
0 0 0
0 0 0
0 0 0
0 0 0
0 0 0
0 0 0
0 0 0
0 0 0
0 0 0
0 0 0
0 0 0
0 0 0
0 0 0
0 0 0
0 0 0
0 0 0
0 0 0
0 0 0
0 0 0
0 0 0
0 0 0
0 0 0
0 0 0
0 0 0
0 0 0
0 0 0
0 0 0
0 0 0
0 0 0
0 0 0
0 0 0
0 0 0
0 0 0
0 0 0
0 0 0
