-0.8169394 -0.3747745 -0.8938613
-0.6432731 -0.3124542 -1.234353
-0.6694813 -0.04054594 -1.338392
-0.5968058 -0.1269989 -1.31669
-0.5278801 -0.1605582 -1.26607
-0.4797926 -0.1831827 -1.31729
-0.4423428 -0.07593107 -1.44457
-0.4604223 -0.2918119 -1.207113
-0.6064391 -0.3683329 -0.8303435
-1.063808 -0.5629559 0.2820129
-0.6203735 0.1903381 -1.262088
-0.8658707 -0.9442883 0.2941024
-0.9819925 -0.6530137 0.2685053
-0.3269455 -0.320364 -1.303315
-0.4591334 -0.3667192 -0.9637288
-0.3741691 -0.3464065 -1.118532
-0.5805842 -0.5628285 -0.5000674
-0.5410058 -0.1236334 -0.8654571
-0.3190054 -0.02895546 -1.362671
-0.5138361 0.2212601 -1.191563
-0.808013 -0.5853024 0.1442368
-0.4534328 -0.5350142 -0.5508951
-0.8930969 -0.3939734 0.2336836
-0.8624709 -0.8986111 0.6388409
-0.9239116 -0.4821439 0.385468
-0.5152919 0.1419072 -0.9747511
-0.7835217 -0.9911871 0.6156261
-0.7036872 -1.018586 0.5208316
-0.9031975 -0.4387817 0.4200811
-0.7621038 -0.5372553 0.2310326
-1.332282 -0.3650017 1.222136
-0.2513752 -0.7546711 -0.5694045
-0.428156 0.09625006 -0.9900134
-0.7664657 -0.6635571 0.4345875
-0.5394965 -0.3849034 -0.2681384
-0.8464131 -0.8626771 0.7774453
-0.8010008 -0.5189433 0.3749833
-0.3064215 0.07533312 -1.140513
-0.7349181 -1.004228 0.7466822
-1.277078 -0.03547764 0.9660621
-0.7935205 -0.03283024 0.03599
-0.7991576 -0.9635324 0.9184818
-0.7713089 -0.4103494 0.3655524
-0.6770332 -0.9611864 0.6841748
-0.3076653 -0.6924052 -0.2700441
-1.284459 -0.1250968 1.161163
-1.091342 -0.4887786 1.14324
-0.7787473 -0.8815403 0.8846815
-0.9970376 -0.6590323 1.124759
-1.27302 -0.03406715 1.118934
-0.2838858 -0.1694722 -0.7073725
-1.255461 0.01345158 1.061297
-0.2940607 0.004010201 -0.827921
-0.7260516 -0.2923732 0.3150306
-1.13788 -0.3261237 1.177626
-0.3246613 -0.5203991 -0.2614093
-1.100238 -0.4884143 1.282569
-0.1113781 -0.6522317 -0.5239973
-1.248007 -0.2686954 1.425761
-1.293829 -0.122108 1.388859
0.01498544 -0.8847961 -0.5172163
-0.01698816 -0.6612058 -0.6341947
-0.8869236 -0.7005744 1.132549
-0.00257504 -1.133305 -0.1733682
0.0007722378 -1.096411 -0.2134218
-0.6627848 -0.9273868 0.9670579
-1.108846 0.1406069 0.9658163
-0.1267449 -1.066422 0.1116672
-0.04921031 -0.2099142 -0.7983543
-0.9851575 -0.3455009 1.186819
-1.275116 0.2628393 1.236585
-1.208331 -0.1549315 1.491282
-1.278865 0.1012511 1.405572
-0.1817679 -0.1048899 -0.5564133
-0.2900922 -0.1777687 -0.2458355
-0.1399821 -0.9579234 0.2134941
-0.8895524 -0.6365819 1.420597
0.03719592 -1.174358 0.0742538
-0.5059954 0.08094263 0.01841307
0.003552079 -1.108697 0.1024196
0.005354524 -1.125852 0.1228135
-0.7393403 -0.2274103 0.8160274
0.07994282 -1.224505 0.09431267
0.1409622 -0.8162932 -0.3702689
0.02637339 -1.127017 0.1409504
-0.4670559 0.3600774 -0.2138963
-1.190192 0.190443 1.38554
0.2420988 -0.7438865 -0.592405
-0.3230894 -0.1233597 -0.002156973
-0.2447877 -0.2280149 -0.05176806
0.1034027 -1.186737 0.1436815
-1.066032 0.4436314 0.9981339
-0.2412721 -0.4433961 0.2106032
-0.2780355 0.4721646 -0.5371294
-0.4983705 -0.8467398 1.146385
0.1031307 -1.145549 0.2277203
-0.6605778 0.4078639 0.3415833
-0.7226753 0.3138828 0.5658102
-0.8072484 0.2050667 0.8379824
-1.019956 0.4594712 1.035571
0.3295004 -0.6268578 -0.6446011
-0.7138443 0.464411 0.4517708
0.07282734 -1.189082 0.3965206
-0.1710609 0.4999704 -0.6206026
-0.6562533 0.5541499 0.2964036
0.4173084 -0.8951025 -0.4856511
0.3759609 -0.567224 -0.6842557
0.05026376 -0.300849 -0.2771358
-0.4892863 -0.7182884 1.17679
-0.872648 -0.5681744 1.825356
-0.6416643 0.6126363 0.3031876
0.4161528 -0.6170173 -0.6764008
-0.5691972 -0.4726906 1.159557
-1.048324 0.5317771 1.200917
-0.2005895 -0.9879403 0.9095314
-0.2782563 -0.3391623 0.5104105
-1.031694 0.5786903 1.194902
-0.1814455 0.2424664 -0.1669645
-0.3667016 -0.9398365 1.288955
-0.8116589 -0.5519457 1.834246
-0.3313274 -0.3593879 0.7044122
-0.5475869 0.7674727 0.1114719
0.4577076 -0.582428 -0.6488993
-0.5720007 0.7531652 0.1903684
-0.9631591 -0.3156834 1.947845
-0.6247871 0.7116756 0.3675733
0.4546978 -0.4924984 -0.6818646
-0.1646868 0.05584097 0.05746555
-0.2032427 0.7649868 -0.5060399
-0.1068941 -0.4978352 0.4548128
-0.8862982 0.5967789 1.015265
0.4816388 -0.7353444 -0.4744933
-0.9497781 -0.3320093 2.040227
0.2988703 -0.4734554 -0.3010943
-0.4274119 0.8321662 -0.03408003
-0.6033432 -0.3777432 1.416579
-1.047407 0.5860686 1.427546
-0.6030471 -0.005451679 1.084184
-0.220378 0.2408614 0.1187298
0.1112494 0.4542344 -0.6999865
-0.1148547 -0.753531 0.859992
0.1187176 0.4587698 -0.7026789
0.001776099 -0.9691949 0.8375535
-0.6721935 -0.6428638 1.88108
0.1093512 -0.06616831 -0.1725221
-0.4199561 0.7432206 0.1672082
-0.01086748 -0.9650836 0.9123054
-0.6933527 -0.64536 1.998428
-0.03303313 0.6377919 -0.4804893
-0.7681372 0.8872542 0.7551868
-0.5904611 0.2579098 0.9809554
0.1109729 -0.2298822 0.03327227
0.1989866 0.04940748 -0.386899
-0.9415157 0.1392965 1.809826
-0.08975101 -1.000282 1.165644
-0.01182616 -0.983706 1.002819
-0.8742001 -0.3183947 2.128011
-0.2548347 0.4710381 0.1820614
-0.8942442 -0.04812193 1.936038
-0.6163648 -0.658226 1.939096
0.4861441 -0.04148436 -0.8078034
-0.9012372 -0.244596 2.14976
-0.02543032 0.7414963 -0.4787443
-0.6829515 -0.1080651 1.612215
-0.3099524 -0.8705544 1.57025
-0.9084308 0.6706882 1.361214
-0.8477829 -0.3259363 2.162559
-0.05960274 -1.012393 1.225739
-0.8431671 0.8412342 1.117735
0.5088814 -0.9603939 0.1010993
-0.04243314 0.01848936 0.3127761
0.469759 -0.9238143 0.1919401
0.2443954 -0.3010941 0.08127904
-0.3441664 0.229836 0.8004396
-0.7929513 0.7248843 1.247209
-0.8221748 -0.3153901 2.254268
0.2180829 0.4402397 -0.4984921
0.1142287 -0.9099669 0.9487562
0.01729023 0.5155971 -0.1391454
0.2741499 -0.1414404 -0.01484251
-0.3831317 1.087071 0.1943576
0.3713245 0.4474747 -0.7227979
0.3773178 0.1455789 -0.4391913
-0.3618095 -0.7529759 1.850627
0.06758165 0.03099298 0.2848046
-0.6568274 0.3046947 1.48357
0.4363917 0.3484755 -0.7185893
-0.3597497 0.02510166 1.173377
-0.3955609 0.6874352 0.6430626
-0.1789582 -0.8310843 1.599625
0.6024402 -0.7175193 -0.05696726
-0.6516638 1.146864 0.7500591
0.09203291 -0.9801941 1.217788
-0.5691984 0.3577929 1.340175
0.1003222 0.3202887 0.07653451
-0.8433058 0.3806489 1.922362
-0.3760929 1.218579 0.2505991
0.2615952 0.6784649 -0.516417
0.0695616 0.3631957 0.1524312
0.102242 0.7270408 -0.2154684
0.1224872 0.168684 0.2531259
0.325756 0.5479259 -0.4854143
0.303847 -0.304028 0.3380065
-0.1994051 -0.140214 1.190128
-0.7943182 0.4910543 1.799635
-0.6406822 -0.4318366 2.346925
-0.7750213 0.682363 1.607238
-0.4087019 1.262859 0.3517828
0.3970464 0.1167011 -0.1979761
-0.1073658 -0.2126408 1.123595
0.7805304 -0.8911862 -0.01688743
-0.4234891 1.291353 0.4009767
0.8432345 -1.05464 0.02729344
-0.367905 -0.6724358 2.09754
0.7807195 -0.882689 0.007526159
0.3112561 -0.9212165 0.9984188
-0.672437 -0.03250647 2.15202
-0.06987917 -0.001626968 0.9764595
-0.2563901 -0.2838583 1.611289
-0.779325 0.827405 1.659135
-0.5731419 1.139893 0.9727957
-0.3688738 1.292134 0.428591
0.7989503 -0.8044119 0.02886486
-0.4453896 1.234019 0.6813304
0.5616315 0.2287321 -0.4042673
-0.258973 0.5901194 0.9026918
-0.1033934 -0.371953 1.485658
-0.05444956 -0.8044066 1.78386
-0.2496048 -0.1114144 1.543359
-0.2699945 1.299638 0.3018913
-0.1716808 -0.6846428 1.975567
0.4297694 -0.1298218 0.2754953
-0.07166445 -0.7196507 1.828902
-0.306662 0.004694939 1.686133
-0.6450133 0.915925 1.561279
0.5211143 -0.8410711 0.8658981
-0.315371 1.289681 0.5947566
-0.4573958 0.1786728 1.888242
-0.6178863 0.9617295 1.498149
-0.4137297 1.326664 0.7632911
0.6279613 -0.6360564 0.4866178
0.2596145 -0.5027399 1.109072
0.001810789 -0.02750921 1.211168
0.0872432 1.29754 -0.1629107
-0.3499413 -0.2281094 2.094859
0.1140206 -0.8245769 1.715451
0.115914 1.191626 -0.1025043
-0.5457833 -0.4182267 2.681051
-0.7167609 -0.1479106 2.781573
-0.6418798 -0.34622 2.819431
-0.1406755 0.4166324 1.156604
0.136593 -0.0268898 1.011709
0.05007803 1.235218 0.03625846
-0.3906984 0.4900866 1.594402
0.7100925 0.2215233 -0.3436334
0.9416746 -1.013312 0.319622
0.008657932 0.4454565 0.8531082
-0.2098436 -0.5776439 2.233125
-0.673408 -0.2530499 2.913079
-0.6029282 0.04999256 2.498976
-0.7176104 -0.06080294 2.83998
-0.7383363 -0.05573416 2.880565
0.1493555 -0.5295911 1.553416
0.006294727 1.292922 0.1949687
0.2046188 1.170355 -0.08159018
1.080381 -0.9079247 0.06902885
-0.457126 1.133147 1.285498
-0.08293319 1.308839 0.3851271
-0.6570246 0.6452117 2.166542
0.2595906 0.06126833 0.8756979
0.275269 1.163684 -0.1482384
0.2471873 1.141351 -0.06599736
0.4194156 -0.7083149 1.292095
-0.6453652 0.6586773 2.166062
-0.7206883 -0.1989303 3.102555
0.576844 -0.8856239 1.151085
0.3597913 0.4593444 0.3681746
-0.7151895 -0.2811012 3.190871
-0.6188105 0.5765214 2.228855
-0.6322613 0.7452855 2.107584
0.1839715 1.017503 0.2405033
-0.3135995 0.9062948 1.360343
0.4977635 0.5762792 0.05980396
0.8995594 -0.4239068 0.1719403
-0.02659154 -0.4368386 2.030473
0.004633665 0.7363112 0.914027
0.9894077 -0.9876728 0.5257742
0.6345673 -0.8447657 1.113029
-0.174854 1.418089 0.664942
-0.02305269 0.7959166 0.9306095
0.956463 -0.9922962 0.6284792
-0.2312205 1.244558 0.963732
-0.5712684 0.4458351 2.366627
1.16452 -0.8369489 0.09056163
-0.6023644 0.7017159 2.206927
-0.355284 1.185216 1.277155
-0.3701515 1.268034 1.237501
-0.7339227 0.03489161 3.097525
0.296968 1.216891 -0.02152896
-0.5482824 0.8115132 2.032389
0.9841712 -0.9481201 0.5888193
-0.6795535 0.1144786 2.93553
0.2626681 0.2727652 0.9254992
-0.6373379 0.3744569 2.624488
0.9228077 -0.3899808 0.2245488
-0.6776631 0.1636939 2.918145
-0.3457062 1.253556 1.28512
-0.6054091 0.5903955 2.414127
-0.1100678 0.1838202 1.806936
-0.1522737 1.08381 1.072781
0.3015771 1.128115 0.1377201
0.5219669 0.8885567 -0.07063532
0.4006831 1.043318 0.04584885
0.365965 0.1646633 0.9170015
-0.512059 -0.4809494 3.25081
0.8630635 -0.7008619 0.7193844
-0.5224254 0.7177715 2.199415
0.6049866 -0.8288717 1.377595
-0.232129 -0.2245817 2.507085
-0.6705236 -0.4071202 3.563327
-0.6337848 0.2098241 2.957728
1.250659 -0.9249253 0.2672536
0.7459428 0.09796095 0.3466537
0.6360458 -0.7682233 1.354207
-0.6898751 -0.2953587 3.580003
-0.5015845 0.5629277 2.453072
0.2571299 0.5768256 0.9362156
-0.6523213 -0.2906327 3.548809
-0.7220278 -0.2567854 3.65956
0.7173041 0.1090231 0.468096
1.249442 -0.8208723 0.2658165
-0.2005746 1.251802 1.271761
0.4384866 0.7777865 0.440486
-0.154408 1.188093 1.261865
0.0263654 -0.1099191 2.098854
-0.5802646 -0.4941478 3.656307
0.3592888 0.01280499 1.331151
0.3677357 1.11882 0.3112493
0.6934818 -0.7074108 1.333877
-0.244175 1.011915 1.636531
0.8981997 0.04692793 0.2464402
0.05836594 0.3882344 1.606969
0.5157691 0.6126919 0.4939549
1.18448 -0.922502 0.5878313
-0.3676419 -0.4936109 3.289592
-0.1167521 -0.4408588 2.765923
0.962251 -0.2563729 0.461256
-0.5332549 -0.413331 3.57882
-0.06611156 -0.487525 2.718632
0.548398 -0.6922035 1.683786
-0.06111372 -0.5102129 2.736756
0.08365047 0.6064043 1.436753
-0.6882856 -0.07337332 3.591461
0.852462 -0.5375729 0.9520872
-0.05731475 -0.5231481 2.778492
0.5789025 -0.2831216 1.304727
0.4008827 -0.1012578 1.521631
-1.067896 -0.05632496 4.410992
-0.5705954 -0.4590049 3.794107
1.327981 -0.7517514 0.306155
1.311076 -0.6734753 0.3034055
0.667185 -0.01490784 0.9970479
0.2585222 -0.08480501 1.875494
1.257441 -0.7322054 0.4800181
-1.018998 -0.1734319 4.507792
-1.114735 0.07985306 4.486222
0.842128 0.09600687 0.5815225
-0.4257687 -0.5332012 3.677481
-0.8452826 -0.3164444 4.318014
0.2366949 -0.3928838 2.237909
-0.4634287 -0.6232762 3.840601
-0.8662395 -0.1647325 4.225331
-0.13091 0.3886726 2.274582
-1.112456 0.1728716 4.438761
-0.05765414 0.963192 1.623579
-0.6623225 -0.3924937 4.06147
0.477554 -0.5104232 1.90629
0.5878219 -0.562592 1.739314
1.270632 -0.6448693 0.4617002
0.3112326 0.300725 1.534961
-0.0935359 0.7185833 2.009648
-0.8255157 -0.4273763 4.509589
0.4686559 0.8327599 0.7914569
-0.7718658 -0.03896236 4.053128
0.7152475 0.1459098 0.9353256
0.4840658 -0.4897041 1.977582
0.09281182 -0.4013033 2.709846
0.02407312 1.029502 1.552539
-0.6748168 -0.5103412 4.353078
0.5947859 0.7845988 0.6610918
-0.2094562 -0.2729077 3.222506
0.04374039 0.4395804 2.080314
1.33383 -0.5496974 0.4195039
-1.103076 0.3183622 4.475266
-0.03971386 0.2192445 2.453185
0.5437264 -0.4359055 1.910887
1.122956 -0.5215969 0.8386319
1.095882 -0.6421995 1.009583
-0.8051944 -0.5596385 4.718107
0.1159762 0.9540794 1.510311
-0.8976648 -0.4652739 4.825692
0.09852564 -0.469636 2.851321
-0.939039 -0.2685471 4.734937
1.299523 -0.3292665 0.3541496
-1.057468 -0.1233201 4.854259
0.1559935 0.3677671 1.99526
-0.9408443 0.3652482 4.196743
-0.559236 -0.6546125 4.38194
0.08587027 0.9705727 1.629754
0.9367355 -0.4692249 1.248472
0.9172681 -0.1097164 0.9657714
0.1036984 -0.3615894 2.816101
-1.034829 0.5008874 4.304617
-0.6385889 -0.7328229 4.644843
-1.086877 0.2477474 4.651531
-0.2470973 0.4644182 2.791879
0.4230058 -0.3366785 2.199048
0.4190658 -0.3399248 2.222889
-0.7292151 0.01092386 4.187298
-0.7882123 -0.6934443 4.945509
-0.8136644 0.3051763 4.088336
-0.1668733 0.3325014 2.781184
0.8291072 0.4549434 0.6900096
1.207805 -0.1763039 0.5119753
0.1283201 0.5582824 1.990258
0.5372846 -0.3777757 2.050837
0.9918447 -0.4849033 1.250729
-0.8879778 -0.5499306 5.050191
0.4205967 1.021737 1.020432
-0.5921705 0.2256494 3.75987
-0.6328549 0.4682124 3.635591
-0.8373132 0.5137384 4.007258
0.3025124 0.5259762 1.731169
-0.2913256 0.3762836 3.048466
0.004129767 -0.5162754 3.274547
-1.073331 0.4438567 4.546405
-1.075198 0.1610312 4.833325
0.6772048 0.7518768 0.8301232
-0.6097726 0.4345253 3.681188
-0.4379432 0.5365524 3.252943
-0.569713 0.426688 3.62588
0.3449029 0.1221671 2.09184
0.7720995 -0.4098239 1.731065
-0.5824765 0.5964885 3.509294
0.3524562 0.9373348 1.34825
0.4925854 1.060048 0.9581578
-0.1220793 -0.4377041 3.547769
-0.4052215 -0.9226685 4.552016
0.9722058 -0.3907661 1.331588
0.07224321 0.4601252 2.348731
-0.481666 0.5928478 3.347411
-0.3151892 -0.7265735 4.218262
-0.5477842 -0.8981142 4.843488
0.5530468 0.8322325 1.081558
-0.9408643 0.6327972 4.236511
-0.227757 0.435689 3.006393
-0.2884809 -0.698164 4.161415
-0.3236343 -0.8741398 4.398852
0.1872573 -0.4067707 2.959024
0.6949832 0.6952553 0.961947
0.548044 0.952951 1.02016
1.008379 0.1952715 0.8113759
0.4443177 0.9972706 1.208676
-0.1610384 -0.0125432 3.334528
-0.5610015 0.6181781 3.572121
-0.9244647 -0.3929229 5.249359
-0.7444224 0.6995656 3.90616
0.1899529 -0.4069881 3.066401
0.1865771 -0.4075036 3.075988
-0.02118158 0.2325091 2.915629
0.4244733 0.7044683 1.602307
0.5203699 0.2612467 1.841063
-0.7197182 -0.6939516 5.198232
-0.4357637 -0.9612317 4.883678
0.4661651 0.7790353 1.512529
0.7075664 0.3374963 1.435852
1.123224 0.06991148 0.8644247
-0.1999465 -0.7389092 4.240804
-0.1552683 -0.8592038 4.270048
0.9659472 -0.2704573 1.515388
-0.3409683 -1.006111 4.783161
0.1328923 0.06925297 2.866246
1.10561 0.0519619 0.9575479
-0.985378 0.4350691 4.781737
0.4980276 0.8722639 1.448902
1.139655 0.02403164 0.9450214
-0.2381446 0.6006932 3.21843
-0.6901505 -0.6513972 5.261349
1.151953 0.06030369 0.9523351
-0.822001 0.8179007 4.197139
-0.01716387 -0.4673352 3.780839
-0.0727303 -0.6372876 4.0814
-0.9049678 0.821322 4.416243
1.056958 -0.1779099 1.424539
0.768795 0.7106526 1.19177
1.098363 0.087358 1.105407
0.3048431 0.3500862 2.462095
0.6380031 0.6544883 1.539336
-0.8018997 -0.3945355 5.356958
0.4504946 -0.2005763 2.694457
0.9603372 0.4027317 1.134692
-0.579299 -0.7393632 5.236352
-0.657702 -0.6215835 5.285823
0.7386885 0.851382 1.17559
-0.2977191 0.6749165 3.412098
-0.9283297 0.2920871 5.030691
-0.07688832 0.202455 3.426965
-0.3947061 0.1211119 4.160245
-0.4922366 -0.8080883 5.210621
-0.005634904 -0.6903443 4.149111
0.9709152 0.1542358 1.452939
0.1143607 -0.4998031 3.779371
-0.8306742 -0.1759195 5.38063
-0.8300431 0.9255426 4.386132
0.003255844 -1.041213 4.521038
0.8902671 0.2603536 1.5764
0.8181511 0.1975703 1.782486
-0.8812172 0.5799932 4.816968
-0.4526633 -0.04532862 4.539398
0.8156982 0.1633086 1.832095
-0.8155344 -0.16713 5.377727
-0.8187718 -0.1360512 5.367158
-0.1291624 -1.081994 4.857381
-0.2828842 -0.9825883 5.084764
-0.8092926 -0.1512866 5.380646
-0.4703243 0.7998154 3.843121
0.7886499 -0.04295301 2.11355
-0.871237 0.1745157 5.216572
0.8299484 0.1978922 1.816278
-0.1461968 -0.1828704 4.106368
-0.002452016 0.5762858 3.130647
0.8533709 0.1696272 1.799218
-0.7168646 0.9641016 4.214014
-0.8539522 0.1744709 5.21494
0.1329169 -0.5617213 3.929205
-0.8525872 0.1832042 5.211833
0.2058003 -0.3404183 3.593913
-0.838903 0.1642823 5.22605
-0.7675858 -0.1650105 5.384191
-0.6206622 0.9185381 4.116538
-0.4587809 0.9188187 3.836575
-0.3762705 -0.03501225 4.574409
-0.3397481 -0.7576418 5.212478
-0.4442186 -0.1811852 4.901893
-0.3987657 0.8839524 3.84829
0.77917 0.1556182 2.195049
0.04959023 0.01122808 3.777642
0.155395 -1.121986 4.620402
-0.2315997 0.1534753 4.27199
-0.426936 -0.06096125 4.870125
0.1405348 0.1795282 3.529293
0.4337158 -0.1611409 3.257129
0.5108681 -0.06711483 3.020133
0.168686 -1.177216 4.71682
-0.3489712 0.1093307 4.577216
-0.1148202 -0.5495019 4.736386
0.4447891 -0.1906571 3.304885
-0.06056416 0.3470778 3.825984
-0.657275 1.018773 4.418939
0.09164894 0.1481404 3.727846
0.1602436 -1.162744 4.81717
0.7037033 0.2609715 2.443597
0.6303738 0.3565345 2.534264
0.7422518 0.1907687 2.466186
0.3038572 -0.690753 4.142149
-0.6777005 0.5429802 4.988292
-0.1728295 -0.7952871 5.215273
-0.0867691 -0.9375501 5.178751
0.2640338 -0.9243746 4.469674
-0.03174794 0.7878551 3.503779
-0.1640868 0.296041 4.231998
0.6833326 0.2233901 2.61926
-0.5972972 1.078265 4.414493
-0.4855856 1.09521 4.196943
0.7294533 0.1235566 2.689207
0.4254988 -0.6149831 3.978846
0.2329085 0.6202416 3.249225
-0.3106794 0.4687011 4.473333
0.07217622 -1.05863 5.112186
0.3241385 0.6101758 3.100838
0.200699 -0.5475774 4.40311
0.7375656 0.2788715 2.592345
0.5899658 0.4449379 2.750623
0.5633057 -0.3763933 3.565154
0.546703 -0.4749441 3.688376
0.05895126 0.1401548 4.104405
-0.09799325 0.8402872 3.820777
0.6992956 0.3541121 2.716161
0.7674139 0.2335 2.707261
0.6245522 -0.3283567 3.523915
0.6027378 -0.5072303 3.821644
0.1353216 -0.968832 5.180094
-0.4992634 0.8457215 4.802499
-0.5044044 0.940423 4.731375
0.1847513 -0.2342882 4.457507
0.3661979 0.6479251 3.300946
0.2661496 0.175416 3.956511
-0.4617816 0.8276412 4.819066
0.481166 -0.6433401 4.293632
0.1569829 0.8356419 3.616054
-0.4165969 0.7876847 4.819859
-0.4523896 0.8763599 4.821763
-0.3753033 0.7478702 4.791965
0.4486997 -1.180403 4.91502
0.6300173 -0.06192017 3.551333
0.07350445 -0.6516628 5.19703
0.1028974 0.6402352 3.966488
-0.4194109 0.8334041 4.844054
-0.2170196 0.5269513 4.733503
0.009071708 0.9475412 3.910362
0.6985326 0.008944035 3.40029
0.07065046 0.2507486 4.433466
0.5509785 -1.178137 4.79513
0.558673 -1.191398 4.805161
0.6051472 -0.9118176 4.459829
-0.06115282 0.6644557 4.356454
0.6066377 -1.183897 4.738946
0.3845807 -0.5716438 4.638453
0.4628347 -1.132376 5.003666
-0.1124135 0.07163143 5.059584
0.2243986 0.1489005 4.329243
0.6390316 0.5847905 3.109529
-0.2279817 0.2949524 5.099539
0.4663527 0.2485895 3.762553
0.7465619 -0.4879189 3.876907
-0.167232 1.171883 4.194807
-0.2013106 1.158514 4.276643
0.7388145 0.5066609 3.009599
0.1953844 -0.6607704 5.16026
0.7455677 0.2657661 3.236247
0.7971692 0.3519011 3.059082
0.3897236 0.1101441 4.089417
0.2078178 -0.311203 4.842607
0.3198117 0.8236358 3.605656
-0.181514 0.3138118 5.095009
0.7371622 0.4860981 3.12078
0.7206448 0.1850924 3.448194
0.7636528 0.4380341 3.146234
0.652041 0.5540693 3.268121
-0.1521709 0.3366199 5.105029
-0.09322214 0.2521052 5.120752
0.1744287 -0.4378901 5.223832
0.2461187 0.9534972 3.853216
0.4552156 -0.2197633 4.510927
0.4619017 0.8271794 3.591231
-0.1124327 0.3459225 5.18044
0.5538251 -0.989821 5.092881
0.761547 -0.5121603 4.256905
-0.04030621 1.251931 4.255277
0.06400561 0.02922249 5.169916
0.1551404 0.5149796 4.563805
0.8843601 -0.4587059 4.000443
0.5352149 0.7803707 3.580495
0.3061122 -0.4712825 5.185356
0.941725 -0.3678832 3.877404
0.1149433 0.04480076 5.162055
0.2087852 -0.1148911 5.1322
0.7198763 -1.050607 4.967414
-0.05405092 1.196821 4.494173
0.1109691 0.1032186 5.161738
0.9505609 -0.08927393 3.688604
0.9358104 -0.5625119 4.155327
0.8530779 -1.075294 4.789001
0.8650055 -1.074979 4.767261
0.5677307 0.8221951 3.647809
0.6902446 0.06352139 4.106303
0.5923426 -0.4518852 4.798386
0.5166658 0.1544714 4.411766
0.3966237 -0.3026571 5.079146
0.03264403 1.250518 4.40384
0.3924557 0.6089778 4.292585
0.1154506 0.589648 4.875864
0.9666994 -0.9440646 4.594387
0.9913382 -0.7002816 4.360491
0.6936548 0.6231873 3.769464
0.6683482 0.07378483 4.331889
0.9669587 0.02213001 3.787158
0.1547297 0.7058117 4.785252
0.8805783 -0.9949017 4.894381
0.6641744 -0.7280316 5.096289
0.3818464 1.159637 3.959509
1.039641 -0.2197495 3.909082
1.051943 -0.2609787 3.922154
0.07029819 1.199223 4.589101
0.4959822 0.3727973 4.494691
0.4514762 0.1667542 4.783095
0.6806439 0.6308057 3.931082
0.7429996 -0.2317557 4.597853
0.3027772 0.7454576 4.63646
0.2330189 1.273835 4.343063
1.032702 -0.9377327 4.771392
0.1994519 1.222939 4.470025
0.6797098 -0.4725237 5.057562
0.8878872 -0.135951 4.401266
1.135728 -0.3051171 4.065956
0.7526411 -0.5109825 5.040575
0.2765481 0.9165773 4.745469
1.043684 0.2520947 3.863765
0.9871426 0.5311804 3.88137
0.3133025 1.284226 4.586733
0.9946267 -0.6162572 4.964822
0.6238667 0.7567136 4.47159
0.5220804 0.5361953 4.888663
0.5393281 1.330721 4.147788
1.101741 0.3809271 3.936994
0.5433213 1.319971 4.220823
1.234279 0.1368032 3.947862
0.6592323 0.1692157 5.06334
0.9205382 0.9269283 3.879567
0.8055723 0.002225399 4.951277
0.9584652 0.8790214 3.891497
1.231301 -0.6532116 4.774769
0.6555535 0.6351702 4.769952
0.6622147 0.2715545 5.124695
0.5772429 1.071562 4.568313
1.337647 -0.5278826 4.524936
1.306372 -0.6065769 4.704277
0.861348 0.1274428 4.924945
1.325069 0.09553289 4.080752
0.7278575 0.3883369 5.056212
0.9833143 0.3540964 4.608957
0.9228009 1.143905 4.013416
1.300313 -0.4711876 4.73629
0.9819908 0.9405491 4.131212
0.9934036 0.2340512 4.772
0.8393087 0.4211056 4.911084
1.364932 -0.4633303 4.710749
0.8246616 1.233125 4.242278
1.043597 0.8056543 4.199532
1.370425 -0.3817902 4.633625
0.7608486 1.171237 4.445119
1.355655 -0.4715161 4.761382
1.36796 -0.4694223 4.735421
1.306352 0.4012163 4.096712
0.8870604 0.3118391 5.01303
0.9402254 0.8754826 4.45935
0.9386896 1.138017 4.22816
1.402705 0.2653027 4.247353
1.426111 -0.03621292 4.526721
1.390986 -0.1261611 4.679972
1.205304 0.8428824 4.186625
1.291229 0.4926794 4.351999
1.388653 0.2121558 4.451782
1.441608 0.1299858 4.466181
1.432866 0.2216115 4.407009
0.9835179 1.126801 4.487195
1.34566 0.1850662 4.629047
1.270869 0.5313082 4.464521
1.341386 0.3430319 4.550774
0 0 0
0 0 0
0 0 0
0 0 0
0 0 0
0 0 0
0 0 0
0 0 0
0 0 0
0 0 0
0 0 0
0 0 0
0 0 0
0 0 0
0 0 0
0 0 0
0 0 0
0 0 0
0 0 0
0 0 0
0 0 0
0 0 0
0 0 0
0 0 0
0 0 0
0 0 0
0 0 0
0 0 0
0 0 0
0 0 0
0 0 0
0 0 0
0 0 0
0 0 0
0 0 0
0 0 0
0 0 0
0 0 0
0 0 0
0 0 0
0 0 0
0 0 0
0 0 0
0 0 0
0 0 0
0 0 0
0 0 0
0 0 0
0 0 0
0 0 0
0 0 0
0 0 0
0 0 0
0 0 0
0 0 0
0 0 0
0 0 0
0 0 0
0 0 0
0 0 0
0 0 0
0 0 0
0 0 0
0 0 0
0 0 0
0 0 0
0 0 0
0 0 0
0 0 0
0 0 0
0 0 0
0 0 0
0 0 0
0 0 0
0 0 0
0 0 0
0 0 0
0 0 0
0 0 0
0 0 0
0 0 0
0 0 0
0 0 0
0 0 0
0 0 0
0 0 0
0 0 0
0 0 0
0 0 0
0 0 0
0 0 0
0 0 0
0 0 0
0 0 0
0 0 0
0 0 0
0 0 0
0 0 0
0 0 0
0 0 0
0 0 0
0 0 0
0 0 0
0 0 0
0 0 0
0 0 0
0 0 0
0 0 0
0 0 0
0 0 0
0 0 0
0 0 0
0 0 0
0 0 0
0 0 0
0 0 0
0 0 0
0 0 0
0 0 0
0 0 0
0 0 0
0 0 0
0 0 0
0 0 0
0 0 0
0 0 0
0 0 0
0 0 0
0 0 0
0 0 0
0 0 0
0 0 0
0 0 0
0 0 0
0 0 0
0 0 0
0 0 0
0 0 0
0 0 0
0 0 0
0 0 0
0 0 0
0 0 0
0 0 0
0 0 0
0 0 0
0 0 0
0 0 0
0 0 0
0 0 0
0 0 0
0 0 0
0 0 0
0 0 0
0 0 0
0 0 0
0 0 0
0 0 0
0 0 0
0 0 0
0 0 0
0 0 0
0 0 0
0 0 0
0 0 0
0 0 0
0 0 0
0 0 0
0 0 0
0 0 0
0 0 0
0 0 0
0 0 0
0 0 0
0 0 0
0 0 0
0 0 0
0 0 0
0 0 0
0 0 0
0 0 0
0 0 0
0 0 0
0 0 0
0 0 0
0 0 0
0 0 0
0 0 0
0 0 0
0 0 0
0 0 0
0 0 0
0 0 0
0 0 0
0 0 0
0 0 0
0 0 0
0 0 0
0 0 0
0 0 0
0 0 0
0 0 0
0 0 0
0 0 0
0 0 0
0 0 0
0 0 0
0 0 0
0 0 0
0 0 0
0 0 0
0 0 0
0 0 0
0 0 0
0 0 0
0 0 0
0 0 0
0 0 0
0 0 0
0 0 0
0 0 0
0 0 0
0 0 0
0 0 0
0 0 0
0 0 0
0 0 0
0 0 0
0 0 0
0 0 0
0 0 0
0 0 0
0 0 0
0 0 0
0 0 0
0 0 0
0 0 0
0 0 0
0 0 0
0 0 0
0 0 0
0 0 0
0 0 0
0 0 0
0 0 0
0 0 0
0 0 0
0 0 0
0 0 0
0 0 0
0 0 0
0 0 0
0 0 0
0 0 0
0 0 0
0 0 0
0 0 0
0 0 0
0 0 0
0 0 0
0 0 0
0 0 0
0 0 0
0 0 0
0 0 0
0 0 0
0 0 0
0 0 0
0 0 0
0 0 0
0 0 0
0 0 0
0 0 0
0 0 0
0 0 0
0 0 0
0 0 0
0 0 0
0 0 0
0 0 0
0 0 0
0 0 0
0 0 0
0 0 0
0 0 0
0 0 0
0 0 0
0 0 0
0 0 0
0 0 0
0 0 0
0 0 0
0 0 0
0 0 0
0 0 0
0 0 0
0 0 0
0 0 0
0 0 0
0 0 0
0 0 0
0 0 0
0 0 0
0 0 0
0 0 0
0 0 0
0 0 0
0 0 0
0 0 0
0 0 0
0 0 0
0 0 0
0 0 0
0 0 0
0 0 0
0 0 0
0 0 0
0 0 0
0 0 0
0 0 0
0 0 0
0 0 0
0 0 0
0 0 0
0 0 0
0 0 0
0 0 0
0 0 0
0 0 0
0 0 0
0 0 0
0 0 0
0 0 0
0 0 0
0 0 0
0 0 0
0 0 0
0 0 0
0 0 0
0 0 0
0 0 0
0 0 0
0 0 0
0 0 0
0 0 0
0 0 0
0 0 0
0 0 0
0 0 0
0 0 0
0 0 0
0 0 0
0 0 0
0 0 0
0 0 0
0 0 0
0 0 0
0 0 0
0 0 0
0 0 0
0 0 0
0 0 0
0 0 0
0 0 0
0 0 0
0 0 0
0 0 0
0 0 0
0 0 0
0 0 0
0 0 0
0 0 0
0 0 0
0 0 0
0 0 0
0 0 0
0 0 0
0 0 0
0 0 0
0 0 0
0 0 0
0 0 0
0 0 0
0 0 0
0 0 0
0 0 0
0 0 0
0 0 0
0 0 0
0 0 0
0 0 0
0 0 0
0 0 0
0 0 0
0 0 0
0 0 0
0 0 0
0 0 0
0 0 0
0 0 0
0 0 0
0 0 0
0 0 0
0 0 0
0 0 0
0 0 0
0 0 0
0 0 0
0 0 0
0 0 0
0 0 0
0 0 0
0 0 0
0 0 0
0 0 0
0 0 0
0 0 0
0 0 0
0 0 0
0 0 0
0 0 0
0 0 0
0 0 0
0 0 0
0 0 0
0 0 0
0 0 0
0 0 0
0 0 0
0 0 0
0 0 0
0 0 0
0 0 0
0 0 0
0 0 0
0 0 0
0 0 0
0 0 0
0 0 0
0 0 0
0 0 0
0 0 0
0 0 0
0 0 0
0 0 0
0 0 0
0 0 0
0 0 0
0 0 0
0 0 0
0 0 0
0 0 0
0 0 0
0 0 0
0 0 0
0 0 0
0 0 0
0 0 0
0 0 0
0 0 0
0 0 0
0 0 0
0 0 0
0 0 0
0 0 0
0 0 0
0 0 0
0 0 0
0 0 0
0 0 0
0 0 0
0 0 0
0 0 0
0 0 0
0 0 0
0 0 0
0 0 0
0 0 0
0 0 0
0 0 0
0 0 0
0 0 0
0 0 0
0 0 0
0 0 0
0 0 0
0 0 0
0 0 0
0 0 0
0 0 0
0 0 0
0 0 0
0 0 0
0 0 0
0 0 0
0 0 0
0 0 0
0 0 0
0 0 0
0 0 0
0 0 0
0 0 0
0 0 0
0 0 0
0 0 0
0 0 0
0 0 0
0 0 0
0 0 0
0 0 0
0 0 0
0 0 0
0 0 0
0 0 0
0 0 0
0 0 0
0 0 0
0 0 0
0 0 0
0 0 0
0 0 0
0 0 0
0 0 0
0 0 0
0 0 0
0 0 0
0 0 0
0 0 0
0 0 0
0 0 0
0 0 0
0 0 0
0 0 0
0 0 0
0 0 0
0 0 0
0 0 0
0 0 0
0 0 0
0 0 0
0 0 0
0 0 0
0 0 0
0 0 0
0 0 0
0 0 0
0 0 0
0 0 0
0 0 0
0 0 0
0 0 0
0 0 0
0 0 0
0 0 0
0 0 0
0 0 0
0 0 0
0 0 0
0 0 0
0 0 0
0 0 0
0 0 0
0 0 0
0 0 0
0 0 0
0 0 0
0 0 0
0 0 0
0 0 0
0 0 0
0 0 0
0 0 0
0 0 0
0 0 0
0 0 0
0 0 0
0 0 0
0 0 0
0 0 0
0 0 0
0 0 0
0 0 0
0 0 0
0 0 0
0 0 0
0 0 0
0 0 0
0 0 0
0 0 0
0 0 0
0 0 0
0 0 0
0 0 0
0 0 0
0 0 0
0 0 0
0 0 0
0 0 0
0 0 0
0 0 0
0 0 0
0 0 0
0 0 0
0 0 0
0 0 0
0 0 0
0 0 0
0 0 0
0 0 0
0 0 0
0 0 0
0 0 0
0 0 0
0 0 0
0 0 0
0 0 0
0 0 0
0 0 0
0 0 0
0 0 0
0 0 0
0 0 0
0 0 0
0 0 0
0 0 0
0 0 0
0 0 0
0 0 0
0 0 0
0 0 0
0 0 0
0 0 0
0 0 0
0 0 0
0 0 0
0 0 0
0 0 0
0 0 0
0 0 0
0 0 0
0 0 0
0 0 0
0 0 0
0 0 0
0 0 0
0 0 0
0 0 0
0 0 0
0 0 0
0 0 0
0 0 0
0 0 0
0 0 0
0 0 0
0 0 0
0 0 0
0 0 0
0 0 0
0 0 0
0 0 0
0 0 0
0 0 0
0 0 0
0 0 0
0 0 0
0 0 0
0 0 0
0 0 0
0 0 0
0 0 0
0 0 0
0 0 0
0 0 0
0 0 0
0 0 0
0 0 0
0 0 0
0 0 0
0 0 0
0 0 0
0 0 0
0 0 0
0 0 0
0 0 0
0 0 0
0 0 0
0 0 0
0 0 0
0 0 0
0 0 0
0 0 0
0 0 0
0 0 0
0 0 0
0 0 0
0 0 0
0 0 0
0 0 0
0 0 0
0 0 0
0 0 0
0 0 0
0 0 0
0 0 0
0 0 0
0 0 0
0 0 0
0 0 0
0 0 0
0 0 0
0 0 0
0 0 0
0 0 0
0 0 0
0 0 0
0 0 0
0 0 0
0 0 0
0 0 0
0 0 0
0 0 0
0 0 0
0 0 0
0 0 0
0 0 0
0 0 0
0 0 0
0 0 0
0 0 0
0 0 0
0 0 0
0 0 0
0 0 0
0 0 0
0 0 0
0 0 0
0 0 0
0 0 0
0 0 0
0 0 0
0 0 0
0 0 0
0 0 0
0 0 0
0 0 0
0 0 0
0 0 0
0 0 0
0 0 0
0 0 0
0 0 0
0 0 0
0 0 0
0 0 0
0 0 0
0 0 0
0 0 0
0 0 0
0 0 0
0 0 0
0 0 0
0 0 0
0 0 0
0 0 0
0 0 0
0 0 0
0 0 0
0 0 0
0 0 0
0 0 0
0 0 0
0 0 0
0 0 0
0 0 0
0 0 0
0 0 0
0 0 0
0 0 0
0 0 0
0 0 0
0 0 0
0 0 0
0 0 0
0 0 0
0 0 0
0 0 0
0 0 0
0 0 0
0 0 0
0 0 0
0 0 0
0 0 0
0 0 0
0 0 0
0 0 0
0 0 0
0 0 0
0 0 0
0 0 0
0 0 0
0 0 0
0 0 0
0 0 0
0 0 0
0 0 0
0 0 0
0 0 0
0 0 0
0 0 0
0 0 0
0 0 0
0 0 0
0 0 0
0 0 0
0 0 0
0 0 0
0 0 0
0 0 0
0 0 0
0 0 0
0 0 0
0 0 0
0 0 0
0 0 0
0 0 0
0 0 0
0 0 0
0 0 0
0 0 0
0 0 0
0 0 0
0 0 0
0 0 0
0 0 0
0 0 0
0 0 0
0 0 0
0 0 0
0 0 0
0 0 0
0 0 0
0 0 0
0 0 0
0 0 0
0 0 0
0 0 0
0 0 0
0 0 0
0 0 0
0 0 0
0 0 0
0 0 0
0 0 0
0 0 0
0 0 0
0 0 0
0 0 0
0 0 0
0 0 0
0 0 0
0 0 0
0 0 0
0 0 0
0 0 0
0 0 0
0 0 0
0 0 0
0 0 0
0 0 0
0 0 0
0 0 0
0 0 0
0 0 0
0 0 0
0 0 0
0 0 0
0 0 0
0 0 0
0 0 0
0 0 0
0 0 0
0 0 0
0 0 0
0 0 0
0 0 0
0 0 0
0 0 0
0 0 0
0 0 0
0 0 0
0 0 0
0 0 0
0 0 0
0 0 0
0 0 0
0 0 0
0 0 0
0 0 0
0 0 0
0 0 0
0 0 0
0 0 0
0 0 0
0 0 0
0 0 0
0 0 0
0 0 0
0 0 0
0 0 0
0 0 0
0 0 0
0 0 0
0 0 0
0 0 0
0 0 0
0 0 0
0 0 0
0 0 0
0 0 0
0 0 0
0 0 0
0 0 0
0 0 0
0 0 0
0 0 0
0 0 0
0 0 0
0 0 0
0 0 0
0 0 0
0 0 0
0 0 0
0 0 0
0 0 0
0 0 0
0 0 0
0 0 0
0 0 0
0 0 0
0 0 0
0 0 0
0 0 0
0 0 0
0 0 0
0 0 0
0 0 0
0 0 0
0 0 0
0 0 0
0 0 0
0 0 0
0 0 0
0 0 0
0 0 0
0 0 0
0 0 0
0 0 0
0 0 0
0 0 0
0 0 0
0 0 0
0 0 0
0 0 0
0 0 0
0 0 0
0 0 0
0 0 0
0 0 0
0 0 0
0 0 0
0 0 0
0 0 0
0 0 0
0 0 0
0 0 0
0 0 0
0 0 0
0 0 0
0 0 0
0 0 0
0 0 0
0 0 0
0 0 0
0 0 0
0 0 0
0 0 0
0 0 0
0 0 0
0 0 0
0 0 0
0 0 0
0 0 0
0 0 0
0 0 0
0 0 0
0 0 0
0 0 0
0 0 0
0 0 0
0 0 0
0 0 0
0 0 0
0 0 0
0 0 0
0 0 0
0 0 0
0 0 0
0 0 0
0 0 0
0 0 0
0 0 0
0 0 0
0 0 0
0 0 0
0 0 0
0 0 0
0 0 0
0 0 0
0 0 0
0 0 0
0 0 0
0 0 0
0 0 0
0 0 0
0 0 0
0 0 0
0 0 0
0 0 0
0 0 0
0 0 0
0 0 0
0 0 0
0 0 0
0 0 0
0 0 0
0 0 0
0 0 0
0 0 0
0 0 0
0 0 0
0 0 0
0 0 0
0 0 0
0 0 0
0 0 0
0 0 0
0 0 0
0 0 0
0 0 0
0 0 0
0 0 0
0 0 0
0 0 0
0 0 0
0 0 0
0 0 0
0 0 0
0 0 0
0 0 0
0 0 0
0 0 0
0 0 0
0 0 0
0 0 0
0 0 0
0 0 0
0 0 0
0 0 0
0 0 0
0 0 0
0 0 0
0 0 0
0 0 0
0 0 0
0 0 0
0 0 0
0 0 0
0 0 0
0 0 0
0 0 0
0 0 0
0 0 0
0 0 0
0 0 0
0 0 0
0 0 0
0 0 0
0 0 0
0 0 0
0 0 0
0 0 0
0 0 0
0 0 0
0 0 0
0 0 0
0 0 0
0 0 0
0 0 0
0 0 0
0 0 0
0 0 0
0 0 0
0 0 0
0 0 0
0 0 0
0 0 0
0 0 0
0 0 0
0 0 0
0 0 0
0 0 0
0 0 0
0 0 0
0 0 0
0 0 0
0 0 0
0 0 0
0 0 0
0 0 0
0 0 0
0 0 0
0 0 0
0 0 0
0 0 0
0 0 0
0 0 0
0 0 0
0 0 0
0 0 0
0 0 0
0 0 0
0 0 0
0 0 0
0 0 0
0 0 0
0 0 0
0 0 0
0 0 0
0 0 0
0 0 0
0 0 0
0 0 0
0 0 0
0 0 0
0 0 0
0 0 0
0 0 0
0 0 0
0 0 0
0 0 0
0 0 0
0 0 0
0 0 0
0 0 0
0 0 0
0 0 0
0 0 0
0 0 0
0 0 0
0 0 0
0 0 0
0 0 0
0 0 0
0 0 0
0 0 0
0 0 0
0 0 0
0 0 0
0 0 0
0 0 0
0 0 0
0 0 0
0 0 0
0 0 0
0 0 0
0 0 0
0 0 0
0 0 0
0 0 0
0 0 0
0 0 0
0 0 0
0 0 0
0 0 0
0 0 0
0 0 0
0 0 0
0 0 0
0 0 0
0 0 0
0 0 0
0 0 0
0 0 0
0 0 0
0 0 0
0 0 0
0 0 0
0 0 0
0 0 0
0 0 0
0 0 0
0 0 0
0 0 0
0 0 0
0 0 0
0 0 0
0 0 0
0 0 0
0 0 0
0 0 0
0 0 0
0 0 0
0 0 0
0 0 0
0 0 0
0 0 0
0 0 0
0 0 0
0 0 0
0 0 0
0 0 0
0 0 0
0 0 0
0 0 0
0 0 0
0 0 0
0 0 0
0 0 0
0 0 0
0 0 0
0 0 0
0 0 0
0 0 0
0 0 0
0 0 0
0 0 0
0 0 0
0 0 0
0 0 0
0 0 0
0 0 0
0 0 0
0 0 0
0 0 0
0 0 0
0 0 0
0 0 0
0 0 0
0 0 0
0 0 0
0 0 0
0 0 0
0 0 0
0 0 0
0 0 0
0 0 0
0 0 0
0 0 0
0 0 0
0 0 0
0 0 0
0 0 0
0 0 0
0 0 0
0 0 0
0 0 0
0 0 0
0 0 0
0 0 0
0 0 0
0 0 0
0 0 0
0 0 0
0 0 0
0 0 0
0 0 0
0 0 0
0 0 0
0 0 0
0 0 0
0 0 0
0 0 0
0 0 0
0 0 0
0 0 0
0 0 0
0 0 0
0 0 0
0 0 0
0 0 0
0 0 0
0 0 0
0 0 0
0 0 0
0 0 0
0 0 0
0 0 0
0 0 0
0 0 0
0 0 0
0 0 0
0 0 0
0 0 0
0 0 0
0 0 0
0 0 0
0 0 0
0 0 0
0 0 0
0 0 0
0 0 0
0 0 0
0 0 0
0 0 0
0 0 0
0 0 0
0 0 0
0 0 0
0 0 0
0 0 0
0 0 0
0 0 0
0 0 0
0 0 0
0 0 0
0 0 0
0 0 0
0 0 0
0 0 0
0 0 0
0 0 0
0 0 0
0 0 0
0 0 0
0 0 0
0 0 0
0 0 0
0 0 0
0 0 0
0 0 0
0 0 0
0 0 0
0 0 0
0 0 0
0 0 0
0 0 0
0 0 0
0 0 0
0 0 0
0 0 0
0 0 0
0 0 0
0 0 0
0 0 0
0 0 0
0 0 0
0 0 0
0 0 0
0 0 0
0 0 0
0 0 0
0 0 0
0 0 0
0 0 0
0 0 0
0 0 0
0 0 0
0 0 0
0 0 0
0 0 0
0 0 0
0 0 0
0 0 0
0 0 0
0 0 0
0 0 0
0 0 0
0 0 0
0 0 0
0 0 0
0 0 0
0 0 0
0 0 0
0 0 0
0 0 0
0 0 0
0 0 0
0 0 0
0 0 0
0 0 0
0 0 0
0 0 0
0 0 0
0 0 0
0 0 0
0 0 0
0 0 0
0 0 0
0 0 0
0 0 0
0 0 0
0 0 0
0 0 0
0 0 0
0 0 0
0 0 0
0 0 0
0 0 0
0 0 0
0 0 0
0 0 0
0 0 0
0 0 0
0 0 0
0 0 0
0 0 0
0 0 0
0 0 0
0 0 0
0 0 0
0 0 0
0 0 0
0 0 0
0 0 0
0 0 0
0 0 0
0 0 0
0 0 0
0 0 0
0 0 0
0 0 0
0 0 0
0 0 0
0 0 0
0 0 0
0 0 0
0 0 0
0 0 0
0 0 0
0 0 0
0 0 0
0 0 0
0 0 0
0 0 0
0 0 0
0 0 0
0 0 0
0 0 0
0 0 0
0 0 0
0 0 0
0 0 0
0 0 0
0 0 0
0 0 0
0 0 0
0 0 0
0 0 0
0 0 0
0 0 0
0 0 0
0 0 0
0 0 0
0 0 0
0 0 0
0 0 0
0 0 0
0 0 0
0 0 0
0 0 0
0 0 0
0 0 0
0 0 0
0 0 0
0 0 0
0 0 0
0 0 0
0 0 0
0 0 0
0 0 0
0 0 0
0 0 0
0 0 0
0 0 0
0 0 0
0 0 0
0 0 0
0 0 0
0 0 0
0 0 0
0 0 0
0 0 0
0 0 0
0 0 0
0 0 0
0 0 0
0 0 0
0 0 0
0 0 0
0 0 0
0 0 0
0 0 0
0 0 0
0 0 0
0 0 0
0 0 0
0 0 0
0 0 0
0 0 0
0 0 0
0 0 0
0 0 0
0 0 0
0 0 0
0 0 0
0 0 0
0 0 0
0 0 0
0 0 0
0 0 0
0 0 0
0 0 0
0 0 0
0 0 0
0 0 0
0 0 0
0 0 0
0 0 0
0 0 0
0 0 0
0 0 0
0 0 0
0 0 0
0 0 0
0 0 0
0 0 0
0 0 0
0 0 0
0 0 0
0 0 0
0 0 0
0 0 0
0 0 0
0 0 0
0 0 0
0 0 0
0 0 0
0 0 0
0 0 0
0 0 0
0 0 0
0 0 0
0 0 0
0 0 0
0 0 0
0 0 0
0 0 0
0 0 0
0 0 0
0 0 0
0 0 0
0 0 0
0 0 0
0 0 0
0 0 0
0 0 0
0 0 0
0 0 0
0 0 0
0 0 0
0 0 0
0 0 0
0 0 0
0 0 0
0 0 0
0 0 0
0 0 0
0 0 0
0 0 0
0 0 0
0 0 0
0 0 0
0 0 0
0 0 0
0 0 0
0 0 0
0 0 0
0 0 0
0 0 0
0 0 0
0 0 0
0 0 0
0 0 0
0 0 0
0 0 0
0 0 0
0 0 0
0 0 0
0 0 0
0 0 0
0 0 0
0 0 0
0 0 0
0 0 0
0 0 0
0 0 0
0 0 0
0 0 0
0 0 0
0 0 0
0 0 0
0 0 0
0 0 0
0 0 0
0 0 0
0 0 0
0 0 0
0 0 0
0 0 0
0 0 0
0 0 0
0 0 0
0 0 0
0 0 0
0 0 0
0 0 0
0 0 0
0 0 0
0 0 0
0 0 0
0 0 0
0 0 0
0 0 0
0 0 0
0 0 0
0 0 0
0 0 0
0 0 0
0 0 0
0 0 0
0 0 0
0 0 0
0 0 0
0 0 0
0 0 0
0 0 0
0 0 0
0 0 0
0 0 0
0 0 0
0 0 0
0 0 0
0 0 0
0 0 0
0 0 0
0 0 0
0 0 0
0 0 0
0 0 0
0 0 0
0 0 0
0 0 0
0 0 0
0 0 0
0 0 0
0 0 0
0 0 0
0 0 0
0 0 0
0 0 0
0 0 0
0 0 0
0 0 0
0 0 0
0 0 0
0 0 0
0 0 0
0 0 0
0 0 0
0 0 0
0 0 0
0 0 0
0 0 0
0 0 0
0 0 0
0 0 0
0 0 0
0 0 0
0 0 0
0 0 0
0 0 0
0 0 0
0 0 0
0 0 0
0 0 0
0 0 0
0 0 0
0 0 0
0 0 0
0 0 0
0 0 0
0 0 0
0 0 0
0 0 0
0 0 0
0 0 0
0 0 0
0 0 0
0 0 0
0 0 0
0 0 0
0 0 0
0 0 0
0 0 0
0 0 0
0 0 0
0 0 0
0 0 0
0 0 0
0 0 0
0 0 0
0 0 0
0 0 0
0 0 0
0 0 0
0 0 0
0 0 0
0 0 0
0 0 0
0 0 0
0 0 0
0 0 0
0 0 0
0 0 0
0 0 0
0 0 0
0 0 0
0 0 0
0 0 0
0 0 0
0 0 0
0 0 0
0 0 0
0 0 0
0 0 0
0 0 0
0 0 0
0 0 0
0 0 0
0 0 0
0 0 0
0 0 0
0 0 0
0 0 0
0 0 0
0 0 0
0 0 0
0 0 0
0 0 0
0 0 0
0 0 0
0 0 0
0 0 0
0 0 0
0 0 0
0 0 0
0 0 0
0 0 0
0 0 0
0 0 0
0 0 0
0 0 0
0 0 0
0 0 0
0 0 0
0 0 0
0 0 0
0 0 0
0 0 0
0 0 0
0 0 0
0 0 0
0 0 0
0 0 0
0 0 0
0 0 0
0 0 0
0 0 0
0 0 0
0 0 0
0 0 0
0 0 0
0 0 0
0 0 0
0 0 0
0 0 0
0 0 0
0 0 0
0 0 0
0 0 0
0 0 0
0 0 0
0 0 0
0 0 0
0 0 0
0 0 0
0 0 0
0 0 0
0 0 0
0 0 0
0 0 0
0 0 0
0 0 0
0 0 0
0 0 0
0 0 0
0 0 0
0 0 0
0 0 0
0 0 0
0 0 0
0 0 0
0 0 0
0 0 0
0 0 0
0 0 0
0 0 0
0 0 0
0 0 0
0 0 0
0 0 0
0 0 0
0 0 0
0 0 0
0 0 0
0 0 0
0 0 0
0 0 0
0 0 0
0 0 0
0 0 0
0 0 0
0 0 0
0 0 0
0 0 0
0 0 0
0 0 0
0 0 0
0 0 0
0 0 0
0 0 0
0 0 0
0 0 0
0 0 0
0 0 0
0 0 0
0 0 0
0 0 0
0 0 0
0 0 0
0 0 0
0 0 0
0 0 0
0 0 0
0 0 0
0 0 0
0 0 0
0 0 0
0 0 0
0 0 0
0 0 0
0 0 0
0 0 0
0 0 0
0 0 0
0 0 0
0 0 0
0 0 0
0 0 0
0 0 0
0 0 0
0 0 0
0 0 0
0 0 0
0 0 0
0 0 0
0 0 0
0 0 0
0 0 0
0 0 0
0 0 0
0 0 0
0 0 0
0 0 0
0 0 0
0 0 0
0 0 0
0 0 0
0 0 0
0 0 0
0 0 0
0 0 0
0 0 0
0 0 0
0 0 0
0 0 0
0 0 0
0 0 0
0 0 0
0 0 0
0 0 0
0 0 0
0 0 0
0 0 0
0 0 0
0 0 0
0 0 0
0 0 0
0 0 0
0 0 0
0 0 0
0 0 0
0 0 0
0 0 0
0 0 0
0 0 0
0 0 0
0 0 0
0 0 0
0 0 0
0 0 0
0 0 0
0 0 0
0 0 0
0 0 0
0 0 0
0 0 0
0 0 0
0 0 0
0 0 0
0 0 0
0 0 0
0 0 0
0 0 0
0 0 0
0 0 0
0 0 0
0 0 0
0 0 0
0 0 0
0 0 0
0 0 0
0 0 0
0 0 0
0 0 0
0 0 0
0 0 0
0 0 0
0 0 0
0 0 0
0 0 0
0 0 0
0 0 0
0 0 0
0 0 0
0 0 0
0 0 0
0 0 0
0 0 0
0 0 0
0 0 0
0 0 0
0 0 0
0 0 0
0 0 0
0 0 0
0 0 0
0 0 0
0 0 0
0 0 0
0 0 0
0 0 0
0 0 0
0 0 0
0 0 0
0 0 0
0 0 0
0 0 0
0 0 0
0 0 0
0 0 0
0 0 0
0 0 0
0 0 0
0 0 0
0 0 0
0 0 0
0 0 0
0 0 0
0 0 0
0 0 0
0 0 0
0 0 0
0 0 0
0 0 0
0 0 0
0 0 0
0 0 0
0 0 0
0 0 0
0 0 0
0 0 0
0 0 0
0 0 0
0 0 0
0 0 0
0 0 0
0 0 0
0 0 0
0 0 0
0 0 0
0 0 0
0 0 0
0 0 0
0 0 0
0 0 0
0 0 0
0 0 0
0 0 0
0 0 0
0 0 0
0 0 0
0 0 0
0 0 0
0 0 0
0 0 0
0 0 0
0 0 0
0 0 0
0 0 0
0 0 0
0 0 0
0 0 0
0 0 0
0 0 0
0 0 0
0 0 0
0 0 0
0 0 0
0 0 0
0 0 0
0 0 0
0 0 0
0 0 0
0 0 0
0 0 0
0 0 0
0 0 0
0 0 0
0 0 0
0 0 0
0 0 0
0 0 0
0 0 0
0 0 0
0 0 0
0 0 0
0 0 0
0 0 0
0 0 0
0 0 0
0 0 0
0 0 0
0 0 0
0 0 0
0 0 0
0 0 0
0 0 0
0 0 0
0 0 0
0 0 0
0 0 0
0 0 0
0 0 0
0 0 0
0 0 0
0 0 0
0 0 0
0 0 0
0 0 0
0 0 0
0 0 0
0 0 0
0 0 0
0 0 0
0 0 0
0 0 0
0 0 0
0 0 0
0 0 0
0 0 0
0 0 0
0 0 0
0 0 0
0 0 0
0 0 0
0 0 0
0 0 0
0 0 0
0 0 0
0 0 0
0 0 0
0 0 0
0 0 0
0 0 0
0 0 0
0 0 0
0 0 0
0 0 0
0 0 0
0 0 0
0 0 0
0 0 0
0 0 0
0 0 0
0 0 0
0 0 0
0 0 0
0 0 0
0 0 0
0 0 0
0 0 0
0 0 0
0 0 0
0 0 0
0 0 0
0 0 0
0 0 0
0 0 0
0 0 0
0 0 0
0 0 0
0 0 0
0 0 0
0 0 0
0 0 0
0 0 0
0 0 0
0 0 0
0 0 0
0 0 0
0 0 0
0 0 0
0 0 0
0 0 0
0 0 0
0 0 0
0 0 0
0 0 0
0 0 0
0 0 0
0 0 0
0 0 0
0 0 0
0 0 0
0 0 0
0 0 0
0 0 0
0 0 0
0 0 0
0 0 0
0 0 0
0 0 0
0 0 0
0 0 0
0 0 0
0 0 0
0 0 0
0 0 0
0 0 0
0 0 0
0 0 0
0 0 0
0 0 0
0 0 0
0 0 0
0 0 0
0 0 0
0 0 0
0 0 0
0 0 0
0 0 0
0 0 0
0 0 0
0 0 0
0 0 0
0 0 0
0 0 0
0 0 0
0 0 0
0 0 0
0 0 0
0 0 0
0 0 0
0 0 0
0 0 0
0 0 0
0 0 0
0 0 0
0 0 0
0 0 0
0 0 0
0 0 0
0 0 0
0 0 0
0 0 0
0 0 0
0 0 0
0 0 0
0 0 0
0 0 0
0 0 0
0 0 0
0 0 0
0 0 0
0 0 0
0 0 0
0 0 0
0 0 0
0 0 0
0 0 0
0 0 0
0 0 0
0 0 0
0 0 0
0 0 0
0 0 0
0 0 0
0 0 0
0 0 0
0 0 0
0 0 0
0 0 0
0 0 0
0 0 0
0 0 0
0 0 0
0 0 0
0 0 0
0 0 0
0 0 0
