-1.101926 -0.8925142 0.2807019
-0.9593687 -0.7189918 -0.1190906
-1.179136 -0.6727486 0.4095516
-1.235443 -0.4801455 0.3506331
-1.257114 -0.6635385 0.5688548
-1.181406 -0.6416788 0.4438756
-1.009972 -0.8531265 0.311111
-1.215451 -0.8941183 0.7629333
-1.138552 -0.2456007 0.02202559
-1.094683 -0.8066678 0.4544137
-1.266456 -0.7770391 0.8011417
-0.939014 -0.4790411 -0.1147397
-0.8981259 -0.4929466 -0.1816976
-0.9003 -0.520062 -0.1266003
-0.7529328 -0.1494007 -0.7455446
-1.036565 -0.2837176 -0.05682063
-0.9295797 -0.3672419 -0.1874495
-0.8849118 -0.4989223 -0.1484807
-0.9310188 -0.3623762 -0.174402
-1.06382 -1.04441 0.7253466
-0.9384406 -1.012908 0.5615008
-0.8133469 -0.373364 -0.2363091
-0.9488094 -1.071493 0.6892183
-1.324895 -0.1661415 0.6202567
-1.107751 0.1045189 -0.03973055
-1.045841 -1.030307 0.8925569
-1.312039 -0.1391606 0.616168
-1.155777 -0.9077597 1.031868
-0.5798781 -0.3567185 -0.5298244
-0.8483369 0.7815127 -1.002583
-1.291569 0.1759381 0.4499741
-1.359102 0.01521254 0.7810731
-1.173554 -0.6258712 1.007175
-0.7036319 -1.168407 0.5685067
-1.299293 0.212709 0.5072711
-1.299901 -0.08682442 0.791012
-0.3432441 -0.1592698 -1.023856
-0.8849783 -0.08763552 0.07121372
-1.378339 0.1301732 0.872133
-1.265733 -0.3793821 1.131194
-0.2667879 -0.3846874 -0.7694837
-0.6988692 -0.2383718 -0.03614521
-0.7124674 0.5764081 -0.7389721
-1.000763 -0.8985424 1.181428
-0.132001 -0.519052 -0.8683071
-0.1841023 -0.3958726 -0.8435681
-0.540524 0.3648636 -0.8172084
-0.9192817 -0.050035 0.3226323
-1.038749 0.4279599 0.128264
-1.15055 0.7192037 0.0858376
-0.8030024 0.6951005 -0.5723336
-1.000792 -0.8926601 1.270411
-1.262493 0.4516177 0.5870614
-0.07101285 -0.6064196 -0.8183612
-0.7512794 -0.3750319 0.3270228
-0.81738 -0.5100822 0.5982242
-0.8034921 0.8659923 -0.653316
-0.5498176 -1.276456 0.8017027
-1.269098 -0.1536055 1.212373
-1.249786 -0.130785 1.154404
-0.6216061 0.6197994 -0.7617829
-0.05207574 -0.5299191 -0.8383663
-0.3251095 -0.3662968 -0.4430568
-1.112917 0.522151 0.3295498
-0.537196 -0.9139252 0.5080569
-1.112775 0.5118628 0.3830419
-0.5212717 -1.134152 0.7193146
-1.223121 0.4486642 0.6828308
-1.228054 -0.2553859 1.345602
-0.978266 0.684521 0.01025128
-0.02706695 -0.4271178 -0.8462398
-1.184382 0.4729662 0.6611857
-1.010678 -0.6771016 1.375366
-0.2867751 -1.353406 0.5592229
-0.7616878 0.7512558 -0.398528
-0.6682167 0.7470236 -0.5772569
-0.4361563 0.6281569 -0.9281894
-0.9487846 0.6785173 0.04597759
-0.347373 -1.226394 0.5996294
0.002763152 -0.3950639 -0.8402455
-1.082217 -0.5312824 1.461976
-0.6310966 0.8315115 -0.6715101
-0.8147864 0.806139 -0.2665653
-1.070299 -0.397934 1.341939
-0.01516008 -0.2650051 -0.8722723
-0.4980664 -0.8242121 0.6013653
-0.5205462 0.707957 -0.7437282
-0.9989281 0.2228222 0.6671453
0.006413579 -0.3618488 -0.7934103
-0.2642071 -1.333319 0.6599896
-0.2709434 -1.353375 0.6919596
-0.8013735 0.7753694 -0.1766527
0.04630268 -0.1604142 -1.002415
-0.2190715 -1.335596 0.6120784
-1.070306 0.1193647 0.9855273
-1.137657 -0.01060534 1.240016
-1.083517 -0.5493798 1.628131
-0.217467 0.3892319 -0.922309
-0.5700469 -1.066267 1.105418
-0.3497335 -1.246244 0.8387809
-0.2844508 0.1669188 -0.5575267
-0.5306636 0.1173272 -0.01352811
-0.7956934 0.3103795 0.3449574
-1.008426 -0.6198587 1.630882
-1.017713 -0.623878 1.657722
-0.503991 0.2308302 -0.1032827
-0.794126 0.4067104 0.3303418
0.06400323 -0.096385 -0.9026462
-1.100598 0.06699705 1.267862
-1.132881 0.6972768 0.765506
-0.7436068 -0.3274913 0.9315307
-0.5507818 1.031356 -0.6780384
-0.2990147 -0.1881237 -0.05904603
0.1343467 -0.06821585 -1.005246
-0.2312664 -1.320412 0.8719482
-0.4479451 0.7879746 -0.6075162
-0.5231016 -1.028512 1.225864
0.1672004 -0.9266663 -0.2299795
-0.4134198 0.6190035 -0.4652642
0.04459894 0.1315427 -0.9132376
-0.8892136 1.106561 0.06082439
0.0286001 0.1469936 -0.8704938
-0.4625413 -1.073536 1.239949
-0.6045434 -0.6649899 1.168154
-0.3524301 -0.1618452 0.2101083
0.2855992 -0.4893198 -0.7555965
-0.5860314 1.074979 -0.4031965
-0.06777394 -1.001272 0.4751012
-1.018184 0.5122705 1.010931
-0.61718 1.127344 -0.3230883
-0.1180608 -0.07965565 -0.2165852
0.2012322 -1.488604 0.4648013
-0.1690279 -0.3124366 0.1427312
-0.7939801 1.090425 0.1175675
0.1721869 -1.14174 0.2298048
-0.6289226 -0.454608 1.228439
0.1162132 -0.2810688 -0.4061463
0.1945353 -1.306153 0.3745682
-0.1843712 -0.8414111 0.70807
-0.9359145 0.03310585 1.429504
-0.8647926 -0.6274958 1.888959
-0.3706416 -0.7282877 1.011286
0.1076729 -0.9717188 0.2909105
-0.9059448 0.4519689 1.022107
-0.03781581 -0.05982447 -0.2102103
-0.264653 -0.01030827 0.2019322
-0.9525189 -0.3510332 1.88392
-0.1501671 -0.4978442 0.4332752
-0.6517913 1.162999 -0.05290413
-0.6310759 -0.8542647 1.740623
-0.2801505 -1.08086 1.255351
-0.9390407 0.6320157 1.015003
-0.4645979 -0.199646 0.841661
-0.5275347 -0.08133602 0.8677137
-0.8932781 1.035045 0.6049149
0.01994479 0.006517887 -0.2694869
-0.2290727 -0.05172729 0.2939115
-0.3809999 0.9634392 -0.3229095
-0.4712465 -0.1789865 0.9122908
0.3281893 -1.313231 0.3704615
0.314329 -1.038286 0.164073
0.5124384 -1.434916 0.1481061
-0.5613793 -0.844018 1.748255
-0.5441378 -0.8612967 1.730762
0.440804 -1.191637 0.07304692
-0.7668369 -0.7024856 2.033442
-0.4052052 -0.231092 0.8930218
-0.5124335 0.6712902 0.2979207
0.4733832 -0.9931846 -0.1353495
-0.909188 0.8416531 0.9561684
-0.8762848 1.246644 0.5227041
-0.8197999 1.046192 0.6071391
0.02746904 -0.1083813 -0.02329803
-0.946399 1.046458 0.8807683
-0.9301915 -0.02157211 1.825202
0.3057792 -0.3113251 -0.3536667
-0.1422516 -0.5557737 0.782625
-0.8820963 0.9632573 0.8877351
-0.5985043 0.2561502 0.9864163
-0.779438 1.261384 0.4419806
0.6160014 -1.442521 0.1282277
0.07571769 -1.173134 0.9674873
-0.5581994 -0.3996286 1.545668
0.5345238 -0.9813662 -0.07863283
0.1610649 -1.229147 0.9513645
-0.4326949 1.201076 -0.06588173
0.4898713 -0.1661553 -0.6546346
-0.8019378 1.298692 0.5841448
-0.5964844 0.4669766 0.9324696
-0.7174096 1.322151 0.401969
-0.5006258 -0.7757812 1.88538
-0.1500314 0.3171186 0.2062621
-0.02958024 -0.5073986 0.7303593
0.1014141 -0.2450089 0.2364638
0.5540572 -1.255445 0.25611
-0.06614006 0.3648992 0.03776598
0.2613593 -0.1188111 -0.1362803
-0.8305454 0.1339779 1.813626
-0.1642147 -0.5125294 1.100428
-0.8081694 0.2478471 1.699846
-0.103855 -0.9754419 1.441226
0.598956 -0.1532903 -0.6875612
-0.6919165 0.6000805 1.202575
0.3968939 -0.9603577 0.4777057
-0.7843213 -0.430933 2.348036
-0.6062194 1.282645 0.4462471
-0.627043 -0.7098045 2.304075
-0.684304 0.3531909 1.457551
0.3584867 0.1539798 -0.4222311
-0.301211 -0.5379262 1.521423
0.2710053 -0.05377579 -0.02833676
0.1019684 0.2209706 0.07129574
-0.6073706 -0.6964154 2.32192
-0.7621546 -0.3681655 2.342542
-0.3568089 0.3537946 0.8803039
0.2114117 -1.011988 1.004669
0.6606402 -0.7710776 -0.1059642
-0.5073559 -0.8221536 2.267902
-0.3284307 0.4086769 0.8080022
-0.7910287 0.2481055 1.901063
-0.4796853 -0.2205992 1.711423
0.2860276 -0.1175981 0.1052747
0.773419 -1.162689 0.09604311
-0.03048277 -0.6319132 1.212185
-0.03862405 -1.0284 1.59772
-0.2529258 0.6515467 0.5018392
-0.6962619 0.1421437 1.855766
-0.5968798 -0.686554 2.419955
0.3712207 -0.07982063 -0.0438633
0.07293677 0.1550698 0.3387284
0.7214599 -0.7638292 -0.1081586
-0.8320971 -0.321794 2.582386
0.7182167 -1.214038 0.3408329
-0.6727009 1.156211 0.9647803
-0.7329998 0.2442818 1.921278
-0.1641569 0.03905487 0.9816434
-0.1916299 -0.01218128 1.091862
-0.7021415 0.3387866 1.794464
-0.80619 -0.3998652 2.674031
0.5021529 -0.06083012 -0.2270045
0.7494026 -0.7460017 -0.05977249
0.6568075 -0.5398655 -0.05040979
-0.6076843 1.317426 0.7747934
-0.2185473 1.254074 0.05948925
0.07359982 0.527972 0.1607783
-0.3811725 -0.3830428 1.893698
-0.6003499 1.323126 0.7800045
-0.05933654 -0.2971296 1.177939
0.1143768 -0.1126761 0.6678352
-0.3467773 -0.8467989 2.291406
-0.8633084 -0.1704869 2.728056
-0.5128438 -0.117475 2.000233
-0.2822522 -0.2503181 1.674733
0.7907351 -1.093985 0.3185546
-0.5254574 0.8737276 1.171545
-0.738158 -0.424726 2.78655
0.7674012 -0.8759627 0.2110126
-0.7872984 -0.2435341 2.745089
-0.2513499 0.9449461 0.6232519
-0.1458268 0.6343896 0.6962304
0.05155253 -0.1503487 1.026379
-1.075095 -0.386055 3.498909
-0.8247666 -0.1164484 2.767568
-0.5299513 0.696569 1.463003
-0.6117578 0.3465066 1.950976
-0.607457 0.5785213 1.731558
-1.159664 -0.2866774 3.61889
-0.753041 -0.1843615 2.729614
-0.7188425 -0.4088745 2.870996
0.8509278 -0.8108869 0.1163437
-0.9841034 -0.5560665 3.535483
0.5932932 0.2145319 -0.2958434
-1.139339 -0.3000655 3.624177
-0.3786404 1.248094 0.70628
0.4788251 -1.07294 1.12273
-0.5006809 0.9070942 1.27596
0.04448593 -0.5092053 1.501501
-0.9168146 -0.2015667 3.139134
0.6836385 0.2195005 -0.4249878
-1.116124 -0.06281614 3.426534
0.5121445 -1.084907 1.125406
0.4721276 -0.0673213 0.2806313
-0.8686423 -0.003213406 2.910815
0.497556 -1.089077 1.183605
-1.118242 -0.3733249 3.759888
-1.168397 -0.240931 3.755493
0.469258 -1.084297 1.269211
0.5290706 -1.091006 1.159128
0.09560513 0.4223022 0.647584
0.0741353 -0.8562984 1.87834
-0.259016 -0.7892847 2.483672
-0.8610935 -0.6923552 3.594571
0.4433055 -0.9750276 1.263384
-0.07207513 0.4704216 0.9750946
-0.3201549 -0.6907444 2.528301
-0.2230287 0.6772897 1.102228
0.3144071 -0.3811097 0.9992878
0.2405032 -0.9418006 1.671283
-0.4130716 1.154535 1.068096
-1.188352 -0.05974054 3.719688
-0.1650131 0.2208643 1.437783
0.131182 -0.8692241 1.843862
0.7412832 0.2194238 -0.3548467
-0.4153289 -0.6507874 2.743769
-0.627171 0.1468644 2.449567
0.1401546 -0.8507795 1.847646
0.1279175 -0.8146801 1.840153
-0.005963326 1.323777 0.1646659
0.07545328 1.199805 0.1168568
-1.137514 0.01918221 3.614442
0.5346288 -1.019191 1.235853
-0.04171443 1.238055 0.3355014
-0.04281282 1.384876 0.2066658
0.03896141 0.9903967 0.413583
0.9166989 -0.7163453 0.2236249
-0.1523992 -0.7265072 2.39661
0.7456096 -0.4930658 0.4063978
0.7294613 -0.6718431 0.6101713
-0.09833694 0.1537251 1.515857
0.1751286 -0.8126874 1.861336
0.02034259 1.336891 0.2189336
0.6651557 0.5119665 -0.3051498
0.02656496 1.241044 0.3015118
-1.132942 -0.3735003 4.076134
-0.3866384 0.7312894 1.599442
0.0447247 1.138156 0.3836894
0.4061468 0.4955599 0.2542317
0.6011705 -0.3207817 0.6102276
0.1764956 0.2278481 0.9574697
-0.4854684 0.4260502 2.094609
-0.1796886 0.0756526 1.855356
-1.085244 0.2343278 3.513506
0.8114587 0.250062 -0.2591143
0.5156264 -0.3793044 0.9101596
-0.07498789 1.367818 0.5024049
-0.09065545 -0.6878419 2.414648
0.6832534 -0.8975997 1.07357
0.7434119 -0.3478279 0.4658642
0.160861 1.218631 0.2091749
-0.5846051 -0.6891217 3.427794
0.8325759 0.3190622 -0.3057685
-0.5537522 -0.6729765 3.355255
-0.6630259 0.2599525 2.739907
-0.5401682 -0.6517978 3.325968
-0.8236988 -0.5878625 3.845169
-0.5672185 -0.3747129 3.141769
-0.7879944 -0.1769853 3.404111
0.1968853 -0.3937411 1.643718
-0.5369902 -0.6322937 3.325551
-0.2954987 -0.2530336 2.513244
0.3470592 0.6914589 0.3792148
-0.2144365 -0.05693436 2.178196
-0.4353079 0.5202034 2.092607
-0.4799089 -0.667695 3.266505
-1.086272 -0.1883054 4.036623
-0.1300457 1.150792 0.9303939
-1.143252 -0.03066444 4.02247
-0.2345856 0.8499262 1.423337
0.2881305 0.07901764 1.09445
0.08930933 -0.694962 2.200763
-0.7573009 0.1214132 3.157323
0.8231577 0.3981006 -0.2254629
-0.863524 0.07206535 3.426848
0.9635788 -0.1508398 0.007732391
-0.5624394 -0.8520188 3.684068
-1.099937 0.09604406 3.917635
0.7197119 -0.9400358 1.244599
0.3261433 -0.7647943 1.873748
-0.2169206 0.7507329 1.581043
-0.4272108 0.4432478 2.310169
-0.2917317 -0.6711588 3.059427
-0.03020203 1.060062 0.9733675
-0.289837 0.1534591 2.321165
-0.9124277 -0.4654403 4.122762
1.020806 -0.04606438 -0.08640575
0.02737534 -0.4343872 2.245262
-0.4266677 -0.6470938 3.359255
-0.1755166 0.7691958 1.581142
0.862549 0.4067426 -0.1464319
0.5684633 0.1364369 0.6878529
0.1752558 0.6092834 1.056248
0.5986017 -0.6239805 1.358455
-0.6520238 -0.9348788 4.13233
-0.5027428 -1.163412 4.046642
0.03344452 0.3936868 1.576339
0.8644945 -0.8702531 1.076191
-0.2031708 0.7101002 1.78299
-0.8663747 -0.4587116 4.166976
-0.0948509 0.1357102 2.135614
0.4577426 -0.158618 1.333548
0.6558802 0.4957619 0.3512859
0.7483041 0.2879186 0.3637166
-0.3712773 -1.106816 3.873733
0.1267204 1.260714 0.7312081
0.5136489 -0.005903721 1.125941
-1.022059 0.4119821 3.826945
0.5490109 0.07820892 1.012401
0.6001287 -0.7493353 1.664397
-0.06171215 0.8414328 1.53559
-1.053762 0.4737093 3.848628
0.3251554 1.22832 0.4311755
0.9425282 -0.2383208 0.5397816
-0.9568169 0.4669144 3.691668
0.5549754 -0.4958706 1.562916
0.2684648 -0.005017281 1.686809
-0.4462184 -1.156365 4.157406
-0.5060465 -1.14718 4.270741
0.6590129 0.1384716 0.7950597
-0.4474064 -1.127865 4.150269
-0.5310929 0.4091213 2.952708
-0.4270791 0.4576614 2.72242
0.2289431 0.05350018 1.807789
0.02157044 0.2623067 2.040245
1.050636 -0.6713905 0.8567996
1.265851 -0.5757508 0.3425682
0.7574154 -0.5304966 1.317624
0.6741503 0.1811776 0.8387825
0.9014407 0.04356098 0.5120623
-0.7851515 -0.3160062 4.1926
-0.7333159 -0.5168347 4.282028
-0.3364611 -1.169569 4.086793
1.141597 0.196568 -0.088099
-0.3738081 0.460367 2.698703
0.1976049 -0.3064642 2.262548
1.15671 0.2228732 -0.1252344
-0.9142385 0.6233542 3.629568
-0.2084947 -0.893394 3.612147
-0.3071252 -1.201091 4.093392
0.1020128 0.904372 1.36807
-0.3894143 -1.204978 4.264513
0.4635859 0.1369834 1.349083
1.08504 0.3868573 -0.08478332
1.162903 0.135859 -0.0111258
-0.3775741 0.5325837 2.693511
-0.957967 0.5305471 3.852432
0.4330608 1.173807 0.5144558
1.092098 -0.5869412 0.8085473
-0.1308274 0.2020278 2.524698
1.117146 0.06612444 0.1865501
-0.5285022 0.4117439 3.146181
1.119139 -0.5604634 0.7640131
0.5179539 -0.4463367 1.873432
-0.2412517 -0.04207706 3.038013
1.208363 -0.3910899 0.4905577
0.01992953 -0.7170973 3.150259
0.04928744 -0.6963687 3.075873
-0.6465442 -0.502274 4.29909
0.3608167 1.168248 0.8048558
1.120368 -0.5176659 0.8408315
1.203277 0.1466317 0.07556677
-0.933249 0.5700188 3.956587
0.7512787 0.6427345 0.5486341
-0.3675896 -1.118052 4.392981
0.4986679 1.110643 0.6568727
0.4496366 1.161615 0.711705
1.215707 0.2621493 0.02487826
0.5570832 1.053644 0.6155663
-0.8842883 0.5170035 3.971901
1.147865 -0.5225258 0.8784959
-0.7673821 -0.1417332 4.340707
0.3209773 0.3441467 1.750186
-0.7259891 0.6410563 3.565543
-0.4295462 0.241643 3.340198
0.1656166 -0.5514379 2.882204
0.03035653 -0.900672 3.481333
0.3497167 1.111046 1.017074
-0.8970118 0.4812071 4.069321
-0.4121389 0.6515529 2.955752
0.1568154 -0.5797796 2.968922
0.08187807 0.6517875 2.000591
-0.8298652 0.3082161 4.141164
-0.5786666 0.2333665 3.715694
0.2579542 -0.5102835 2.729109
-0.08910954 -0.1719894 3.132832
0.1725752 -0.5613275 2.99454
0.1060212 -0.222847 2.822417
-0.309414 0.7032607 2.822185
-0.1470127 -1.141601 4.178246
0.2001117 0.09838629 2.363138
-0.1953404 -0.7768106 3.963423
1.211628 -0.4106231 0.8435178
-0.4513857 0.6879764 3.157748
0.7103136 0.8259726 0.7261462
0.1697239 -0.6917176 3.186739
0.5587103 -0.3540859 2.109758
0.4537637 -0.3521461 2.319747
0.291083 0.654521 1.735497
1.195769 -0.4097147 0.913738
-0.349054 -0.8549242 4.394
-0.1593652 0.6278262 2.68135
-0.6774135 0.1108842 4.195357
-0.4576187 0.6350794 3.296732
0.300251 -0.5714936 2.899129
-0.461925 -0.06731176 3.956955
1.033421 -0.3909497 1.286966
-0.06944847 0.1673827 2.975818
0.5266154 0.1555572 1.812691
0.1764065 -1.005287 3.565658
0.03322291 0.4676659 2.518968
0.8754475 -0.3459649 1.594199
-0.2248207 -0.03865147 3.508557
-0.2815434 -0.249454 3.813968
0.1306283 -1.084681 3.755249
-0.3737528 -0.3759065 4.132812
-0.02100754 0.6318619 2.515169
0.9853395 -0.3842149 1.456738
-0.7204058 0.8499 3.731778
0.5698316 -0.2215858 2.144434
-0.1074151 -0.5033402 3.753207
0.5849164 0.669647 1.3311
1.166685 0.3147745 0.5059252
0.3462276 0.8316312 1.694408
1.344803 0.07840681 0.3982081
0.5105974 0.9733527 1.243282
0.7279798 0.3603644 1.374834
0.5333211 -0.246882 2.322872
1.313906 -0.2402735 0.7945213
0.495477 0.9860783 1.309287
0.8955652 -0.2540803 1.675294
0.8297832 -0.2367744 1.794624
0.8382704 0.8999159 0.7465303
0.4996029 0.8987172 1.43136
0.5611362 0.9948709 1.223804
-0.09151292 0.1686573 3.285506
-0.4882464 -0.356535 4.568519
0.9741204 -0.2484503 1.5827
1.071142 0.6098182 0.6283474
-0.71418 0.7641578 4.055298
0.2020291 0.1338587 2.807884
1.251591 0.1920023 0.6712816
0.4024041 0.7318304 1.873998
-0.4367809 0.6499066 3.621323
0.9345256 0.7910337 0.7801816
0.9909278 0.04290771 1.360897
0.8661626 0.125495 1.538236
0.7962796 0.9719787 0.9476969
1.275102 -0.03970528 0.9248855
0.6060361 0.9006035 1.400224
0.2901505 -1.159191 3.93756
0.9578492 0.6978469 0.925534
0.1134121 -0.3049254 3.524758
0.07697368 -0.5772295 3.845484
0.358376 -1.090525 3.755984
0.5204867 -0.329813 2.75577
1.035868 0.7070465 0.8034968
0.5113665 -0.4008026 2.853985
-0.1406807 0.1643271 3.644441
-0.2059801 -0.7172723 4.607718
-0.3699297 0.05731106 4.244925
-0.4169037 -0.03339195 4.427219
0.002946496 -0.1538072 3.736037
-0.436915 0.2485228 4.244918
0.3909408 -0.7278829 3.487721
0.5091115 0.8127089 1.855936
0.3528346 -1.131213 3.940709
0.7992337 -0.08923721 2.117955
0.1824455 -0.04977036 3.311757
0.4355906 -1.115922 3.816376
1.241227 0.0989399 1.122961
0.3141239 0.5776877 2.538594
0.9035847 0.05992651 1.841637
0.3999184 -1.09002 3.901425
1.305989 0.1519918 0.9761741
-0.2777859 -0.2634573 4.525014
0.3481576 0.5921607 2.514824
1.208496 0.1365986 1.232266
1.03042 0.4468393 1.305698
1.286688 0.1110315 1.104801
-0.5084589 0.9981704 3.875197
0.7466691 0.777566 1.599314
1.139039 0.7720048 0.8388226
-0.1147914 -0.689445 4.673738
1.260046 0.1665697 1.163797
0.8112773 0.7767894 1.50494
0.7314039 0.3127875 2.087143
0.08166373 0.2621393 3.425302
0.5979125 -0.1202049 2.750558
-0.01375949 0.1080861 3.761014
1.262736 0.5474758 0.8248553
-0.002514362 0.828927 3.090915
0.3993006 0.6375194 2.477447
1.288259 0.3892076 0.9533477
0.4933673 -0.6908798 3.516324
-0.2645187 0.5130188 3.945555
0.2450521 -1.063555 4.37374
-0.1929142 -0.3854442 4.628764
0.2462291 -1.118444 4.429029
1.183711 0.608983 0.9959619
0.8328171 0.7688491 1.54971
0.3693065 0.6012447 2.627317
1.156451 0.7458272 0.9344528
0.386963 0.564332 2.637348
0.269953 -1.11871 4.406607
0.08374858 -0.5220876 4.246855
0.7086669 -0.1512222 2.671756
-0.4153011 1.043209 3.823767
0.734781 -0.05775976 2.539459
1.088151 0.7723787 1.090071
0.5216571 -1.009545 3.837779
0.4952161 -0.5033059 3.436026
-0.4735483 0.9045305 4.083605
-0.1045164 0.8113096 3.438079
0.2095619 -0.3918724 3.922931
0.586139 0.4505146 2.426946
0.7372383 -0.08173275 2.616034
-0.4805348 0.9689233 4.083539
0.02539563 0.7378757 3.295799
-0.1779234 0.923471 3.535372
0.9030239 0.3225093 1.947096
-0.3758705 1.045289 3.83276
-0.4632524 1.001406 4.052132
0.5536182 -1.011633 3.879697
0.3358487 -1.081609 4.378546
0.721022 0.04555893 2.591323
0.745819 0.5796449 2.064542
-0.4224085 0.9626725 4.058461
0.3024185 0.65939 2.894323
-0.2056012 -0.2117548 4.710733
0.1252309 -0.8956466 4.685125
-0.009388208 0.3682849 3.811513
0.6018499 -1.010335 3.859633
0.950848 0.485498 1.814683
0.737738 -0.03443766 2.711796
0.7763067 0.5340214 2.126328
0.1218253 -0.8673487 4.70467
0.8227883 0.6088665 1.974466
0.2139002 0.6702564 3.141155
0.2643075 -0.9898057 4.56414
0.06736588 -0.7420135 4.750324
0.2414824 0.7157788 3.08971
0.506451 0.5425332 2.730831
0.217086 0.7543981 3.143526
-0.07302904 -0.3331237 4.713493
0.7162647 0.08411551 2.766127
0.7573596 0.5787594 2.235596
0.7897734 0.4820197 2.268662
0.01851475 0.04620457 4.2194
0.09685779 -0.7068172 4.759385
0.6272538 -0.4640651 3.487925
0.3844442 -0.5855813 4.107361
0.551242 0.1104546 3.148305
-0.3659782 0.9516599 4.248306
0.120388 0.8562076 3.401231
0.4446957 0.4501398 3.154167
0.1931664 -0.7514615 4.75471
0.004979968 0.3644638 4.119996
0.1529258 -0.5184727 4.632647
0.1455892 0.08327436 4.115621
-0.1525933 0.02724504 4.75973
0.681474 -0.4949622 3.593471
-0.2570357 0.6675498 4.439226
0.1785508 -0.1732459 4.349437
-0.1308125 0.1146889 4.735979
0.7383721 -0.1437292 3.25709
0.7133669 -0.7412004 3.857088
-0.03072631 0.9888833 3.77669
0.3053349 0.1694646 3.896554
0.7506326 -0.03379822 3.216343
0.4781165 -0.8899651 4.568115
0.7671896 -0.1018972 3.282975
0.5940635 -0.9316058 4.442724
0.4356604 -0.07171392 3.990509
-0.1975442 0.6886983 4.583859
0.5055535 0.4727354 3.402221
0.2179034 0.5497415 3.918158
0.2406256 0.2789421 4.125248
-0.09327066 0.4856701 4.680264
0.7792366 0.1271534 3.296489
0.2038978 0.4653733 4.13435
0.05765641 0.4497774 4.443337
0.3969232 0.6945579 3.547738
0.04722393 0.1774168 4.7494
-0.04222119 0.2449102 4.867006
0.4768715 0.5762386 3.585214
0.3366481 -0.3420377 4.738487
0.859666 -0.1010637 3.509169
-0.0286361 1.150542 4.150634
0.8825234 -0.2882504 3.694215
0.8890828 0.00463438 3.461243
0.02521992 1.141122 4.161128
0.01494038 1.150673 4.175111
0.7014307 0.4389489 3.51127
0.8063158 -0.6513948 4.329775
0.9258282 -0.1396084 3.642214
0.8480526 0.1685781 3.520173
0.9880852 -0.8012753 4.141114
0.3926042 -0.1195116 4.734727
0.6351131 0.535948 3.665757
0.06215382 1.091253 4.303109
0.163343 1.182586 4.018907
0.239289 0.1319222 4.831248
0.1655128 0.3209419 4.829978
0.959744 -0.3439655 3.864582
0.515544 -0.2136803 4.676298
0.5683012 -0.3284445 4.679232
0.5124081 0.8619695 3.735241
1.074595 -0.6719246 4.018375
0.2759845 1.119468 3.97812
1.022627 -0.7146325 4.16691
0.9997728 -0.7430897 4.294311
0.105284 0.6465955 4.818069
0.8270971 0.1932549 3.816431
0.1643455 0.5938561 4.860988
0.5363088 0.01556778 4.71588
0.5179566 0.9946544 3.87002
0.2838569 0.4555266 4.86326
1.03466 -0.6545873 4.381596
0.9074633 0.4082079 3.671038
0.3437114 1.154093 4.121767
1.057497 -0.5892062 4.289843
1.074838 -0.6532679 4.317815
0.2624316 0.7463896 4.668859
0.5800639 0.04906082 4.701385
0.5351766 0.2622199 4.690238
1.095784 -0.5058265 4.31305
1.108223 -0.4565549 4.247637
1.110012 -0.5193944 4.320285
1.031348 -0.02390623 4.026396
0.5033353 1.128032 4.038022
1.149863 -0.1629262 3.964069
0.4013526 0.7555768 4.61735
1.143918 -0.4811535 4.272565
1.145416 -0.1551847 3.975021
0.3748425 0.8152502 4.640538
0.4143338 0.7397702 4.646346
0.5727024 0.2922516 4.742397
0.7445508 0.906708 3.876267
1.015822 0.1288252 4.124812
0.4126163 0.894038 4.665314
0.9523669 0.2331238 4.235205
0.6824601 0.6526587 4.393959
0.5964103 1.158453 4.218131
0.5753247 1.154639 4.26586
0.572301 1.029129 4.464433
0.7971991 1.05157 4.071832
0.6373167 1.129018 4.319624
1.123247 0.5971611 3.858582
1.176396 0.5772705 3.852633
0.9147134 1.001258 4.016649
1.153244 0.1700897 4.316535
0.9549826 0.6157591 4.326893
1.038397 0.830873 4.016038
1.247431 0.5485303 3.929813
1.234383 0.2769194 4.20962
1.303597 0.3920848 4.158068
1.227395 0.460566 4.285653
1.115172 0.6121578 4.437533
1.188043 0.6445608 4.265196
1.142142 0.5491776 4.457319
1.199983 0.687608 4.270683
0 0 0
0 0 0
0 0 0
0 0 0
0 0 0
0 0 0
0 0 0
0 0 0
0 0 0
0 0 0
0 0 0
0 0 0
0 0 0
0 0 0
0 0 0
0 0 0
0 0 0
0 0 0
0 0 0
0 0 0
0 0 0
0 0 0
0 0 0
0 0 0
0 0 0
0 0 0
0 0 0
0 0 0
0 0 0
0 0 0
0 0 0
0 0 0
0 0 0
0 0 0
0 0 0
0 0 0
0 0 0
0 0 0
0 0 0
0 0 0
0 0 0
0 0 0
0 0 0
0 0 0
0 0 0
0 0 0
0 0 0
0 0 0
0 0 0
0 0 0
0 0 0
0 0 0
0 0 0
0 0 0
0 0 0
0 0 0
0 0 0
0 0 0
0 0 0
0 0 0
0 0 0
0 0 0
0 0 0
0 0 0
0 0 0
0 0 0
0 0 0
0 0 0
0 0 0
0 0 0
0 0 0
0 0 0
0 0 0
0 0 0
0 0 0
0 0 0
0 0 0
0 0 0
0 0 0
0 0 0
0 0 0
0 0 0
0 0 0
0 0 0
0 0 0
0 0 0
0 0 0
0 0 0
0 0 0
0 0 0
0 0 0
0 0 0
0 0 0
0 0 0
0 0 0
0 0 0
0 0 0
0 0 0
0 0 0
0 0 0
0 0 0
0 0 0
0 0 0
0 0 0
0 0 0
0 0 0
0 0 0
0 0 0
0 0 0
0 0 0
0 0 0
0 0 0
0 0 0
0 0 0
0 0 0
0 0 0
0 0 0
0 0 0
0 0 0
0 0 0
0 0 0
0 0 0
0 0 0
0 0 0
0 0 0
0 0 0
0 0 0
0 0 0
0 0 0
0 0 0
0 0 0
0 0 0
0 0 0
0 0 0
0 0 0
0 0 0
0 0 0
0 0 0
0 0 0
0 0 0
0 0 0
0 0 0
0 0 0
0 0 0
0 0 0
0 0 0
0 0 0
0 0 0
0 0 0
0 0 0
0 0 0
0 0 0
0 0 0
0 0 0
0 0 0
0 0 0
0 0 0
0 0 0
0 0 0
0 0 0
0 0 0
0 0 0
0 0 0
0 0 0
0 0 0
0 0 0
0 0 0
0 0 0
0 0 0
0 0 0
0 0 0
0 0 0
0 0 0
0 0 0
0 0 0
0 0 0
0 0 0
0 0 0
0 0 0
0 0 0
0 0 0
0 0 0
0 0 0
0 0 0
0 0 0
0 0 0
0 0 0
0 0 0
0 0 0
0 0 0
0 0 0
0 0 0
0 0 0
0 0 0
0 0 0
0 0 0
0 0 0
0 0 0
0 0 0
0 0 0
0 0 0
0 0 0
0 0 0
0 0 0
0 0 0
0 0 0
0 0 0
0 0 0
0 0 0
0 0 0
0 0 0
0 0 0
0 0 0
0 0 0
0 0 0
0 0 0
0 0 0
0 0 0
0 0 0
0 0 0
0 0 0
0 0 0
0 0 0
0 0 0
0 0 0
0 0 0
0 0 0
0 0 0
0 0 0
0 0 0
0 0 0
0 0 0
0 0 0
0 0 0
0 0 0
0 0 0
0 0 0
0 0 0
0 0 0
0 0 0
0 0 0
0 0 0
0 0 0
0 0 0
0 0 0
0 0 0
0 0 0
0 0 0
0 0 0
0 0 0
0 0 0
0 0 0
0 0 0
0 0 0
0 0 0
0 0 0
0 0 0
0 0 0
0 0 0
0 0 0
0 0 0
0 0 0
0 0 0
0 0 0
0 0 0
0 0 0
0 0 0
0 0 0
0 0 0
0 0 0
0 0 0
0 0 0
0 0 0
0 0 0
0 0 0
0 0 0
0 0 0
0 0 0
0 0 0
0 0 0
0 0 0
0 0 0
0 0 0
0 0 0
0 0 0
0 0 0
0 0 0
0 0 0
0 0 0
0 0 0
0 0 0
0 0 0
0 0 0
0 0 0
0 0 0
0 0 0
0 0 0
0 0 0
0 0 0
0 0 0
0 0 0
0 0 0
0 0 0
0 0 0
0 0 0
0 0 0
0 0 0
0 0 0
0 0 0
0 0 0
0 0 0
0 0 0
0 0 0
0 0 0
0 0 0
0 0 0
0 0 0
0 0 0
0 0 0
0 0 0
0 0 0
0 0 0
0 0 0
0 0 0
0 0 0
0 0 0
0 0 0
0 0 0
0 0 0
0 0 0
0 0 0
0 0 0
0 0 0
0 0 0
0 0 0
0 0 0
0 0 0
0 0 0
0 0 0
0 0 0
0 0 0
0 0 0
0 0 0
0 0 0
0 0 0
0 0 0
0 0 0
0 0 0
0 0 0
0 0 0
0 0 0
0 0 0
0 0 0
0 0 0
0 0 0
0 0 0
0 0 0
0 0 0
0 0 0
0 0 0
0 0 0
0 0 0
0 0 0
0 0 0
0 0 0
0 0 0
0 0 0
0 0 0
0 0 0
0 0 0
0 0 0
0 0 0
0 0 0
0 0 0
0 0 0
0 0 0
0 0 0
0 0 0
0 0 0
0 0 0
0 0 0
0 0 0
0 0 0
0 0 0
0 0 0
0 0 0
0 0 0
0 0 0
0 0 0
0 0 0
0 0 0
0 0 0
0 0 0
0 0 0
0 0 0
0 0 0
0 0 0
0 0 0
0 0 0
0 0 0
0 0 0
0 0 0
0 0 0
0 0 0
0 0 0
0 0 0
0 0 0
0 0 0
0 0 0
0 0 0
0 0 0
0 0 0
0 0 0
0 0 0
0 0 0
0 0 0
0 0 0
0 0 0
0 0 0
0 0 0
0 0 0
0 0 0
0 0 0
0 0 0
0 0 0
0 0 0
0 0 0
0 0 0
0 0 0
0 0 0
0 0 0
0 0 0
0 0 0
0 0 0
0 0 0
0 0 0
0 0 0
0 0 0
0 0 0
0 0 0
0 0 0
0 0 0
0 0 0
0 0 0
0 0 0
0 0 0
0 0 0
0 0 0
0 0 0
0 0 0
0 0 0
0 0 0
0 0 0
0 0 0
0 0 0
0 0 0
0 0 0
0 0 0
0 0 0
0 0 0
0 0 0
0 0 0
0 0 0
0 0 0
0 0 0
0 0 0
0 0 0
0 0 0
0 0 0
0 0 0
0 0 0
0 0 0
0 0 0
0 0 0
0 0 0
0 0 0
0 0 0
0 0 0
0 0 0
0 0 0
0 0 0
0 0 0
0 0 0
0 0 0
0 0 0
0 0 0
0 0 0
0 0 0
0 0 0
0 0 0
0 0 0
0 0 0
0 0 0
0 0 0
0 0 0
0 0 0
0 0 0
0 0 0
0 0 0
0 0 0
0 0 0
0 0 0
0 0 0
0 0 0
0 0 0
0 0 0
0 0 0
0 0 0
0 0 0
0 0 0
0 0 0
0 0 0
0 0 0
0 0 0
0 0 0
0 0 0
0 0 0
0 0 0
0 0 0
0 0 0
0 0 0
0 0 0
0 0 0
0 0 0
0 0 0
0 0 0
0 0 0
0 0 0
0 0 0
0 0 0
0 0 0
0 0 0
0 0 0
0 0 0
0 0 0
0 0 0
0 0 0
0 0 0
0 0 0
0 0 0
0 0 0
0 0 0
0 0 0
0 0 0
0 0 0
0 0 0
0 0 0
0 0 0
0 0 0
0 0 0
0 0 0
0 0 0
0 0 0
0 0 0
0 0 0
0 0 0
0 0 0
0 0 0
0 0 0
0 0 0
0 0 0
0 0 0
0 0 0
0 0 0
0 0 0
0 0 0
0 0 0
0 0 0
0 0 0
0 0 0
0 0 0
0 0 0
0 0 0
0 0 0
0 0 0
0 0 0
0 0 0
0 0 0
0 0 0
0 0 0
0 0 0
0 0 0
0 0 0
0 0 0
0 0 0
0 0 0
0 0 0
0 0 0
0 0 0
0 0 0
0 0 0
0 0 0
0 0 0
0 0 0
0 0 0
0 0 0
0 0 0
0 0 0
0 0 0
0 0 0
0 0 0
0 0 0
0 0 0
0 0 0
0 0 0
0 0 0
0 0 0
0 0 0
0 0 0
0 0 0
0 0 0
0 0 0
0 0 0
0 0 0
0 0 0
0 0 0
0 0 0
0 0 0
0 0 0
0 0 0
0 0 0
0 0 0
0 0 0
0 0 0
0 0 0
0 0 0
0 0 0
0 0 0
0 0 0
0 0 0
0 0 0
0 0 0
0 0 0
0 0 0
0 0 0
0 0 0
0 0 0
0 0 0
0 0 0
0 0 0
0 0 0
0 0 0
0 0 0
0 0 0
0 0 0
0 0 0
0 0 0
0 0 0
0 0 0
0 0 0
0 0 0
0 0 0
0 0 0
0 0 0
0 0 0
0 0 0
0 0 0
0 0 0
0 0 0
0 0 0
0 0 0
0 0 0
0 0 0
0 0 0
0 0 0
0 0 0
0 0 0
0 0 0
0 0 0
0 0 0
0 0 0
0 0 0
0 0 0
0 0 0
0 0 0
0 0 0
0 0 0
0 0 0
0 0 0
0 0 0
0 0 0
0 0 0
0 0 0
0 0 0
0 0 0
0 0 0
0 0 0
0 0 0
0 0 0
0 0 0
0 0 0
0 0 0
0 0 0
0 0 0
0 0 0
0 0 0
0 0 0
0 0 0
0 0 0
0 0 0
0 0 0
0 0 0
0 0 0
0 0 0
0 0 0
0 0 0
0 0 0
0 0 0
0 0 0
0 0 0
0 0 0
0 0 0
0 0 0
0 0 0
0 0 0
0 0 0
0 0 0
0 0 0
0 0 0
0 0 0
0 0 0
0 0 0
0 0 0
0 0 0
0 0 0
0 0 0
0 0 0
0 0 0
0 0 0
0 0 0
0 0 0
0 0 0
0 0 0
0 0 0
0 0 0
0 0 0
0 0 0
0 0 0
0 0 0
0 0 0
0 0 0
0 0 0
0 0 0
0 0 0
0 0 0
0 0 0
0 0 0
0 0 0
0 0 0
0 0 0
0 0 0
0 0 0
0 0 0
0 0 0
0 0 0
0 0 0
0 0 0
0 0 0
0 0 0
0 0 0
0 0 0
0 0 0
0 0 0
0 0 0
0 0 0
0 0 0
0 0 0
0 0 0
0 0 0
0 0 0
0 0 0
0 0 0
0 0 0
0 0 0
0 0 0
0 0 0
0 0 0
0 0 0
0 0 0
0 0 0
0 0 0
0 0 0
0 0 0
0 0 0
0 0 0
0 0 0
0 0 0
0 0 0
0 0 0
0 0 0
0 0 0
0 0 0
0 0 0
0 0 0
0 0 0
0 0 0
0 0 0
0 0 0
0 0 0
0 0 0
0 0 0
0 0 0
0 0 0
0 0 0
0 0 0
0 0 0
0 0 0
0 0 0
0 0 0
0 0 0
0 0 0
0 0 0
0 0 0
0 0 0
0 0 0
0 0 0
0 0 0
0 0 0
0 0 0
0 0 0
0 0 0
0 0 0
0 0 0
0 0 0
0 0 0
0 0 0
0 0 0
0 0 0
0 0 0
0 0 0
0 0 0
0 0 0
0 0 0
0 0 0
0 0 0
0 0 0
0 0 0
0 0 0
0 0 0
0 0 0
0 0 0
0 0 0
0 0 0
0 0 0
0 0 0
0 0 0
0 0 0
0 0 0
0 0 0
0 0 0
0 0 0
0 0 0
0 0 0
0 0 0
0 0 0
0 0 0
0 0 0
0 0 0
0 0 0
0 0 0
0 0 0
0 0 0
0 0 0
0 0 0
0 0 0
0 0 0
0 0 0
0 0 0
0 0 0
0 0 0
0 0 0
0 0 0
0 0 0
0 0 0
0 0 0
0 0 0
0 0 0
0 0 0
0 0 0
0 0 0
0 0 0
0 0 0
0 0 0
0 0 0
0 0 0
0 0 0
0 0 0
0 0 0
0 0 0
0 0 0
0 0 0
0 0 0
0 0 0
0 0 0
0 0 0
0 0 0
0 0 0
0 0 0
0 0 0
0 0 0
0 0 0
0 0 0
0 0 0
0 0 0
0 0 0
0 0 0
0 0 0
0 0 0
0 0 0
0 0 0
0 0 0
0 0 0
0 0 0
0 0 0
0 0 0
0 0 0
0 0 0
0 0 0
0 0 0
0 0 0
0 0 0
0 0 0
0 0 0
0 0 0
0 0 0
0 0 0
0 0 0
0 0 0
0 0 0
0 0 0
0 0 0
0 0 0
0 0 0
0 0 0
0 0 0
0 0 0
0 0 0
0 0 0
0 0 0
0 0 0
0 0 0
0 0 0
0 0 0
0 0 0
0 0 0
0 0 0
0 0 0
0 0 0
0 0 0
0 0 0
0 0 0
0 0 0
0 0 0
0 0 0
0 0 0
0 0 0
0 0 0
0 0 0
0 0 0
0 0 0
0 0 0
0 0 0
0 0 0
0 0 0
0 0 0
0 0 0
0 0 0
0 0 0
0 0 0
0 0 0
0 0 0
0 0 0
0 0 0
0 0 0
0 0 0
0 0 0
0 0 0
0 0 0
0 0 0
0 0 0
0 0 0
0 0 0
0 0 0
0 0 0
0 0 0
0 0 0
0 0 0
0 0 0
0 0 0
0 0 0
0 0 0
0 0 0
0 0 0
0 0 0
0 0 0
0 0 0
0 0 0
0 0 0
0 0 0
0 0 0
0 0 0
0 0 0
0 0 0
0 0 0
0 0 0
0 0 0
0 0 0
0 0 0
0 0 0
0 0 0
0 0 0
0 0 0
0 0 0
0 0 0
0 0 0
0 0 0
0 0 0
0 0 0
0 0 0
0 0 0
0 0 0
0 0 0
0 0 0
0 0 0
0 0 0
0 0 0
0 0 0
0 0 0
0 0 0
0 0 0
0 0 0
0 0 0
0 0 0
0 0 0
0 0 0
0 0 0
0 0 0
0 0 0
0 0 0
0 0 0
0 0 0
0 0 0
0 0 0
0 0 0
0 0 0
0 0 0
0 0 0
0 0 0
0 0 0
0 0 0
0 0 0
0 0 0
0 0 0
0 0 0
0 0 0
0 0 0
0 0 0
0 0 0
0 0 0
0 0 0
0 0 0
0 0 0
0 0 0
0 0 0
0 0 0
0 0 0
0 0 0
0 0 0
0 0 0
0 0 0
0 0 0
0 0 0
0 0 0
0 0 0
0 0 0
0 0 0
0 0 0
0 0 0
0 0 0
0 0 0
0 0 0
0 0 0
0 0 0
0 0 0
0 0 0
0 0 0
0 0 0
0 0 0
0 0 0
0 0 0
0 0 0
0 0 0
0 0 0
0 0 0
0 0 0
0 0 0
0 0 0
0 0 0
0 0 0
0 0 0
0 0 0
0 0 0
0 0 0
0 0 0
0 0 0
0 0 0
0 0 0
0 0 0
0 0 0
0 0 0
0 0 0
0 0 0
0 0 0
0 0 0
0 0 0
0 0 0
0 0 0
0 0 0
0 0 0
0 0 0
0 0 0
0 0 0
0 0 0
0 0 0
0 0 0
0 0 0
0 0 0
0 0 0
0 0 0
0 0 0
0 0 0
0 0 0
0 0 0
0 0 0
0 0 0
0 0 0
0 0 0
0 0 0
0 0 0
0 0 0
0 0 0
0 0 0
0 0 0
0 0 0
0 0 0
0 0 0
0 0 0
0 0 0
0 0 0
0 0 0
0 0 0
0 0 0
0 0 0
0 0 0
0 0 0
0 0 0
0 0 0
0 0 0
0 0 0
0 0 0
0 0 0
0 0 0
0 0 0
0 0 0
0 0 0
0 0 0
0 0 0
0 0 0
0 0 0
0 0 0
0 0 0
0 0 0
0 0 0
0 0 0
0 0 0
0 0 0
0 0 0
0 0 0
0 0 0
0 0 0
0 0 0
0 0 0
0 0 0
0 0 0
0 0 0
0 0 0
0 0 0
0 0 0
0 0 0
0 0 0
0 0 0
0 0 0
0 0 0
0 0 0
0 0 0
0 0 0
0 0 0
0 0 0
0 0 0
0 0 0
0 0 0
0 0 0
0 0 0
0 0 0
0 0 0
0 0 0
0 0 0
0 0 0
0 0 0
0 0 0
0 0 0
0 0 0
0 0 0
0 0 0
0 0 0
0 0 0
0 0 0
0 0 0
0 0 0
0 0 0
0 0 0
0 0 0
0 0 0
0 0 0
0 0 0
0 0 0
0 0 0
0 0 0
0 0 0
0 0 0
0 0 0
0 0 0
0 0 0
0 0 0
0 0 0
0 0 0
0 0 0
0 0 0
0 0 0
0 0 0
0 0 0
0 0 0
0 0 0
0 0 0
0 0 0
0 0 0
0 0 0
0 0 0
0 0 0
0 0 0
0 0 0
0 0 0
0 0 0
0 0 0
0 0 0
0 0 0
0 0 0
0 0 0
0 0 0
0 0 0
0 0 0
0 0 0
0 0 0
0 0 0
0 0 0
0 0 0
0 0 0
0 0 0
0 0 0
0 0 0
0 0 0
0 0 0
0 0 0
0 0 0
0 0 0
0 0 0
0 0 0
0 0 0
0 0 0
0 0 0
0 0 0
0 0 0
0 0 0
0 0 0
0 0 0
0 0 0
0 0 0
0 0 0
0 0 0
0 0 0
0 0 0
0 0 0
0 0 0
0 0 0
0 0 0
0 0 0
0 0 0
0 0 0
0 0 0
0 0 0
0 0 0
0 0 0
0 0 0
0 0 0
0 0 0
0 0 0
0 0 0
0 0 0
0 0 0
0 0 0
0 0 0
0 0 0
0 0 0
0 0 0
0 0 0
0 0 0
0 0 0
0 0 0
0 0 0
0 0 0
0 0 0
0 0 0
0 0 0
0 0 0
0 0 0
0 0 0
0 0 0
0 0 0
0 0 0
0 0 0
0 0 0
0 0 0
0 0 0
0 0 0
0 0 0
0 0 0
0 0 0
0 0 0
0 0 0
0 0 0
0 0 0
0 0 0
0 0 0
0 0 0
0 0 0
0 0 0
0 0 0
0 0 0
0 0 0
0 0 0
0 0 0
0 0 0
0 0 0
0 0 0
0 0 0
0 0 0
0 0 0
0 0 0
0 0 0
0 0 0
0 0 0
0 0 0
0 0 0
0 0 0
0 0 0
0 0 0
0 0 0
0 0 0
0 0 0
0 0 0
0 0 0
0 0 0
0 0 0
0 0 0
0 0 0
0 0 0
0 0 0
0 0 0
0 0 0
0 0 0
0 0 0
0 0 0
0 0 0
0 0 0
0 0 0
0 0 0
0 0 0
0 0 0
0 0 0
0 0 0
0 0 0
0 0 0
0 0 0
0 0 0
0 0 0
0 0 0
0 0 0
0 0 0
0 0 0
0 0 0
0 0 0
0 0 0
0 0 0
0 0 0
0 0 0
0 0 0
0 0 0
0 0 0
0 0 0
0 0 0
0 0 0
0 0 0
0 0 0
0 0 0
0 0 0
0 0 0
0 0 0
0 0 0
0 0 0
0 0 0
0 0 0
0 0 0
0 0 0
0 0 0
0 0 0
0 0 0
0 0 0
0 0 0
0 0 0
0 0 0
0 0 0
0 0 0
0 0 0
0 0 0
0 0 0
0 0 0
0 0 0
0 0 0
0 0 0
0 0 0
0 0 0
0 0 0
0 0 0
0 0 0
0 0 0
0 0 0
0 0 0
0 0 0
0 0 0
0 0 0
0 0 0
0 0 0
0 0 0
0 0 0
0 0 0
0 0 0
0 0 0
0 0 0
0 0 0
0 0 0
0 0 0
0 0 0
0 0 0
0 0 0
0 0 0
0 0 0
0 0 0
0 0 0
0 0 0
0 0 0
0 0 0
0 0 0
0 0 0
0 0 0
0 0 0
0 0 0
0 0 0
0 0 0
0 0 0
0 0 0
0 0 0
0 0 0
0 0 0
0 0 0
0 0 0
0 0 0
0 0 0
0 0 0
0 0 0
0 0 0
0 0 0
0 0 0
0 0 0
0 0 0
0 0 0
0 0 0
0 0 0
0 0 0
0 0 0
0 0 0
0 0 0
0 0 0
0 0 0
0 0 0
0 0 0
0 0 0
0 0 0
0 0 0
0 0 0
0 0 0
0 0 0
0 0 0
0 0 0
0 0 0
0 0 0
0 0 0
0 0 0
0 0 0
0 0 0
0 0 0
0 0 0
0 0 0
0 0 0
0 0 0
0 0 0
0 0 0
0 0 0
0 0 0
0 0 0
0 0 0
0 0 0
0 0 0
0 0 0
0 0 0
0 0 0
0 0 0
0 0 0
0 0 0
0 0 0
0 0 0
0 0 0
0 0 0
0 0 0
0 0 0
0 0 0
0 0 0
0 0 0
0 0 0
0 0 0
0 0 0
0 0 0
0 0 0
0 0 0
0 0 0
0 0 0
0 0 0
0 0 0
0 0 0
0 0 0
0 0 0
0 0 0
0 0 0
0 0 0
0 0 0
0 0 0
0 0 0
0 0 0
0 0 0
0 0 0
0 0 0
0 0 0
0 0 0
0 0 0
0 0 0
0 0 0
0 0 0
0 0 0
0 0 0
0 0 0
0 0 0
0 0 0
0 0 0
0 0 0
0 0 0
0 0 0
0 0 0
0 0 0
0 0 0
0 0 0
0 0 0
0 0 0
0 0 0
0 0 0
0 0 0
0 0 0
0 0 0
0 0 0
0 0 0
0 0 0
0 0 0
0 0 0
0 0 0
0 0 0
0 0 0
0 0 0
0 0 0
0 0 0
0 0 0
0 0 0
0 0 0
0 0 0
0 0 0
0 0 0
0 0 0
0 0 0
0 0 0
0 0 0
0 0 0
0 0 0
0 0 0
0 0 0
0 0 0
0 0 0
0 0 0
0 0 0
0 0 0
0 0 0
0 0 0
0 0 0
0 0 0
0 0 0
0 0 0
0 0 0
0 0 0
0 0 0
0 0 0
0 0 0
0 0 0
0 0 0
0 0 0
0 0 0
0 0 0
0 0 0
0 0 0
0 0 0
0 0 0
0 0 0
0 0 0
0 0 0
0 0 0
0 0 0
0 0 0
0 0 0
0 0 0
0 0 0
0 0 0
0 0 0
0 0 0
0 0 0
0 0 0
0 0 0
0 0 0
0 0 0
0 0 0
0 0 0
0 0 0
0 0 0
0 0 0
0 0 0
0 0 0
0 0 0
0 0 0
0 0 0
0 0 0
0 0 0
0 0 0
0 0 0
0 0 0
0 0 0
0 0 0
0 0 0
0 0 0
0 0 0
0 0 0
0 0 0
0 0 0
0 0 0
0 0 0
0 0 0
0 0 0
0 0 0
0 0 0
0 0 0
0 0 0
0 0 0
0 0 0
0 0 0
0 0 0
0 0 0
0 0 0
0 0 0
0 0 0
0 0 0
0 0 0
0 0 0
0 0 0
0 0 0
0 0 0
0 0 0
0 0 0
0 0 0
0 0 0
0 0 0
0 0 0
0 0 0
0 0 0
0 0 0
0 0 0
0 0 0
0 0 0
0 0 0
0 0 0
0 0 0
0 0 0
0 0 0
0 0 0
0 0 0
0 0 0
0 0 0
0 0 0
0 0 0
0 0 0
0 0 0
0 0 0
0 0 0
0 0 0
0 0 0
0 0 0
0 0 0
0 0 0
0 0 0
0 0 0
0 0 0
0 0 0
0 0 0
0 0 0
0 0 0
0 0 0
0 0 0
0 0 0
0 0 0
0 0 0
0 0 0
0 0 0
0 0 0
0 0 0
0 0 0
0 0 0
0 0 0
0 0 0
0 0 0
0 0 0
0 0 0
0 0 0
0 0 0
0 0 0
0 0 0
0 0 0
0 0 0
0 0 0
0 0 0
0 0 0
0 0 0
0 0 0
0 0 0
0 0 0
0 0 0
0 0 0
0 0 0
0 0 0
0 0 0
0 0 0
0 0 0
0 0 0
0 0 0
0 0 0
0 0 0
0 0 0
0 0 0
0 0 0
0 0 0
0 0 0
0 0 0
0 0 0
0 0 0
0 0 0
0 0 0
0 0 0
0 0 0
0 0 0
0 0 0
0 0 0
0 0 0
0 0 0
0 0 0
0 0 0
0 0 0
0 0 0
0 0 0
0 0 0
0 0 0
0 0 0
0 0 0
0 0 0
0 0 0
0 0 0
0 0 0
0 0 0
0 0 0
0 0 0
0 0 0
0 0 0
0 0 0
0 0 0
0 0 0
0 0 0
0 0 0
0 0 0
0 0 0
0 0 0
0 0 0
0 0 0
0 0 0
0 0 0
0 0 0
0 0 0
0 0 0
0 0 0
0 0 0
0 0 0
0 0 0
0 0 0
0 0 0
0 0 0
0 0 0
0 0 0
0 0 0
0 0 0
0 0 0
0 0 0
0 0 0
0 0 0
0 0 0
0 0 0
0 0 0
0 0 0
0 0 0
0 0 0
0 0 0
0 0 0
0 0 0
0 0 0
0 0 0
0 0 0
0 0 0
0 0 0
0 0 0
0 0 0
0 0 0
0 0 0
0 0 0
0 0 0
0 0 0
0 0 0
0 0 0
0 0 0
0 0 0
0 0 0
0 0 0
0 0 0
0 0 0
0 0 0
0 0 0
0 0 0
0 0 0
0 0 0
0 0 0
0 0 0
0 0 0
0 0 0
0 0 0
0 0 0
0 0 0
0 0 0
0 0 0
0 0 0
0 0 0
0 0 0
0 0 0
0 0 0
0 0 0
0 0 0
0 0 0
0 0 0
0 0 0
0 0 0
0 0 0
0 0 0
0 0 0
0 0 0
0 0 0
0 0 0
0 0 0
0 0 0
0 0 0
0 0 0
0 0 0
0 0 0
0 0 0
0 0 0
0 0 0
0 0 0
0 0 0
0 0 0
0 0 0
0 0 0
0 0 0
0 0 0
0 0 0
0 0 0
0 0 0
0 0 0
0 0 0
0 0 0
0 0 0
0 0 0
0 0 0
0 0 0
0 0 0
0 0 0
0 0 0
0 0 0
0 0 0
0 0 0
0 0 0
0 0 0
0 0 0
0 0 0
0 0 0
0 0 0
0 0 0
0 0 0
0 0 0
0 0 0
0 0 0
0 0 0
0 0 0
0 0 0
0 0 0
0 0 0
0 0 0
0 0 0
0 0 0
0 0 0
0 0 0
0 0 0
0 0 0
0 0 0
0 0 0
0 0 0
0 0 0
0 0 0
0 0 0
0 0 0
0 0 0
0 0 0
0 0 0
0 0 0
0 0 0
0 0 0
0 0 0
0 0 0
0 0 0
0 0 0
0 0 0
0 0 0
0 0 0
0 0 0
0 0 0
0 0 0
0 0 0
0 0 0
0 0 0
0 0 0
0 0 0
0 0 0
0 0 0
0 0 0
0 0 0
0 0 0
0 0 0
0 0 0
0 0 0
0 0 0
0 0 0
0 0 0
0 0 0
0 0 0
0 0 0
0 0 0
0 0 0
0 0 0
0 0 0
0 0 0
0 0 0
0 0 0
0 0 0
0 0 0
0 0 0
0 0 0
0 0 0
0 0 0
0 0 0
0 0 0
0 0 0
0 0 0
0 0 0
0 0 0
0 0 0
0 0 0
0 0 0
0 0 0
0 0 0
0 0 0
0 0 0
0 0 0
0 0 0
0 0 0
0 0 0
0 0 0
0 0 0
0 0 0
0 0 0
0 0 0
0 0 0
0 0 0
0 0 0
0 0 0
0 0 0
0 0 0
0 0 0
0 0 0
0 0 0
0 0 0
0 0 0
0 0 0
0 0 0
0 0 0
0 0 0
0 0 0
0 0 0
0 0 0
0 0 0
0 0 0
0 0 0
0 0 0
0 0 0
0 0 0
0 0 0
0 0 0
0 0 0
0 0 0
0 0 0
0 0 0
0 0 0
0 0 0
0 0 0
0 0 0
0 0 0
0 0 0
0 0 0
0 0 0
0 0 0
0 0 0
0 0 0
0 0 0
0 0 0
0 0 0
0 0 0
0 0 0
0 0 0
0 0 0
0 0 0
0 0 0
0 0 0
0 0 0
0 0 0
0 0 0
0 0 0
0 0 0
0 0 0
0 0 0
0 0 0
0 0 0
0 0 0
0 0 0
0 0 0
0 0 0
0 0 0
0 0 0
0 0 0
0 0 0
0 0 0
0 0 0
0 0 0
0 0 0
0 0 0
0 0 0
0 0 0
0 0 0
0 0 0
0 0 0
0 0 0
0 0 0
0 0 0
0 0 0
0 0 0
0 0 0
0 0 0
0 0 0
0 0 0
0 0 0
0 0 0
0 0 0
0 0 0
0 0 0
0 0 0
0 0 0
0 0 0
0 0 0
0 0 0
0 0 0
0 0 0
0 0 0
0 0 0
0 0 0
0 0 0
0 0 0
0 0 0
0 0 0
0 0 0
0 0 0
0 0 0
0 0 0
0 0 0
0 0 0
0 0 0
0 0 0
0 0 0
0 0 0
0 0 0
0 0 0
0 0 0
0 0 0
0 0 0
0 0 0
0 0 0
0 0 0
0 0 0
0 0 0
0 0 0
0 0 0
0 0 0
0 0 0
0 0 0
0 0 0
0 0 0
0 0 0
0 0 0
0 0 0
0 0 0
0 0 0
0 0 0
0 0 0
0 0 0
0 0 0
0 0 0
0 0 0
0 0 0
0 0 0
0 0 0
0 0 0
0 0 0
0 0 0
0 0 0
0 0 0
0 0 0
0 0 0
0 0 0
0 0 0
0 0 0
0 0 0
0 0 0
0 0 0
0 0 0
0 0 0
0 0 0
0 0 0
0 0 0
0 0 0
0 0 0
0 0 0
0 0 0
0 0 0
0 0 0
0 0 0
0 0 0
0 0 0
0 0 0
0 0 0
0 0 0
0 0 0
0 0 0
0 0 0
0 0 0
0 0 0
0 0 0
0 0 0
0 0 0
0 0 0
0 0 0
0 0 0
0 0 0
0 0 0
0 0 0
0 0 0
0 0 0
0 0 0
0 0 0
0 0 0
0 0 0
0 0 0
0 0 0
0 0 0
0 0 0
0 0 0
0 0 0
0 0 0
0 0 0
0 0 0
