-0.7241042 -0.2314172 -1.302087
-0.7611051 -0.3767138 -1.090433
-0.7213347 -0.2009478 -1.297641
-0.73385 -0.09580183 -1.264387
-0.7058442 -0.04408264 -1.244344
-0.5117927 -0.4677701 -1.218121
-0.6253427 -0.4719801 -0.96243
-0.5750951 -0.5965047 -0.8990687
-0.6619034 -0.6232834 -0.6878918
-1.137826 -0.6608076 0.2978837
-0.4507166 -0.3747206 -1.238996
-1.09322 -0.8875556 0.5275543
-1.056333 -0.848702 0.4774313
-1.063395 -0.5449734 0.2497547
-0.5184331 -0.07784033 -1.232194
-0.906034 -0.6522369 0.09466982
-0.3888412 -0.4519658 -1.105293
-0.4196734 -0.3084469 -1.141999
-0.5397742 0.01049614 -1.13658
-0.6450751 -0.2177973 -0.7009095
-0.5684977 -0.5200276 -0.5706685
-1.058062 -0.2378464 0.2086663
-0.4785937 0.04143906 -1.175736
-0.9226096 -0.9478703 0.6302359
-1.034628 -0.3648486 0.3388252
-1.018025 -0.3033462 0.250463
-0.3302106 -0.1127415 -1.263879
-1.038377 -0.8616734 0.8267784
-0.8918953 -0.4310288 0.1462231
-0.8446558 -0.9885807 0.5765054
-0.5200155 -0.6685548 -0.3543421
-0.9970088 -0.3460541 0.344703
-0.8021827 -1.01764 0.5946925
-0.8423495 -1.008802 0.7581532
-0.4823029 -0.7510695 -0.1862507
-0.3373554 0.04508448 -1.174428
-0.4484048 -0.6396551 -0.2767081
-0.4797831 0.1743755 -0.9531444
-0.7695999 -0.5702057 0.3328071
-0.8784528 -0.9684987 0.9466109
-0.701035 -1.031164 0.6623635
-0.9078517 0.05295801 0.1002092
-0.3881453 0.06366205 -0.9262563
-0.322867 -0.6165309 -0.4319284
-0.5526271 -0.2489753 -0.3044534
-1.291538 -0.1719012 1.114915
-1.073417 -0.6864762 1.197683
-1.142062 -0.4474621 1.146957
-1.263047 -0.03112221 1.027199
-1.316566 -0.03717566 1.16449
-0.7074924 -0.7641912 0.6232946
-0.3069636 -0.2676339 -0.5905427
-1.255005 -0.2908936 1.33603
-0.9658489 -0.6675615 1.135308
-0.157022 -0.693583 -0.4457518
-1.246466 -0.02501822 1.115341
-0.2463267 -0.07917595 -0.8151067
-0.05199206 -0.8367362 -0.508947
-0.6397324 -0.2175717 0.09778666
-1.076419 -0.5501881 1.280624
-1.241179 0.1385231 0.9850273
-0.7480187 -0.2184091 0.3326676
-1.246645 -0.3342352 1.446402
-1.138425 -0.3115263 1.23817
-0.2991905 0.1004992 -0.7883853
-0.8039989 -0.8116646 1.05646
-1.276027 -0.2099028 1.455167
-0.1010103 -1.186181 0.009111881
-0.1046554 -1.012193 -0.002573967
-0.0833782 -1.206695 0.1474166
-0.01989055 -0.7068863 -0.3428597
0.005664587 -1.224922 0.08799481
-0.03004062 -1.08267 0.03502274
-1.167316 -0.2622976 1.589548
-1.242052 0.2579627 1.269754
-0.3145392 -0.3351636 -0.02969551
-0.0005452633 -1.305407 0.2351935
-1.220244 0.05429363 1.430444
-0.9078796 -0.6823835 1.479632
0.2327499 -0.7131052 -0.7401807
-0.09612894 -1.128744 0.3344824
-0.005831003 -1.190666 0.2250187
-0.8890982 -0.3953357 1.259691
-0.7536464 -0.1717343 0.8201642
-0.3304996 -0.6351957 0.4201207
-0.4009478 0.3395 -0.3251469
-0.5124969 -0.9608545 1.087207
0.07913065 -0.0877471 -0.849089
-0.5659659 -0.8636622 1.145145
-0.8736048 0.1859107 0.8488305
-0.4736423 0.4392891 -0.1573372
-0.04431534 -0.9929366 0.3121362
0.01858771 -1.117287 0.3093185
-1.070304 0.4339118 1.068307
0.1079217 -0.4896617 -0.4148132
0.2562735 -0.9149404 -0.3164182
0.06398666 -1.081411 0.2215912
-0.2119999 0.6504881 -0.8010833
0.3141855 -0.5922079 -0.7018752
0.3145003 -0.6139059 -0.6523596
-0.7154157 0.3908944 0.5058708
-0.7385838 0.3397846 0.6040957
-1.146451 0.2561131 1.495149
-0.7306225 0.4993532 0.4505837
-0.9723489 0.4454587 0.9824026
-0.2363114 -0.1572633 0.09671426
-0.3303093 -0.001458645 0.1483855
-0.7067103 0.5497222 0.4179399
-0.3622329 -0.5331521 0.7236001
0.1312858 -1.134082 0.298996
-1.107096 0.5014372 1.318154
0.3879072 -0.6721659 -0.5838598
-0.1088351 0.5531275 -0.7100699
-0.5813175 -0.4662185 1.15751
-0.4102499 -0.4380541 0.7926815
-0.2305864 -0.6631341 0.6661975
-0.4487839 0.2941017 0.2410002
-0.6986036 0.670011 0.4217005
0.39654 -0.5977392 -0.5946257
-1.059503 0.5993755 1.217261
-0.6261587 0.7479866 0.2350748
-0.2016664 -0.9831648 0.970288
0.4331383 -0.7093291 -0.5379332
0.00046134 -0.3916583 0.03750992
-0.2475522 0.2616739 -0.06113005
0.4047726 -0.567872 -0.6008672
-0.6281991 0.6284413 0.3891428
-0.5788608 0.7643306 0.1887939
-0.878612 -0.541636 1.983333
-0.1597848 0.1229711 -0.04531336
-0.508606 0.7756748 0.06532478
-0.3607233 -0.9257154 1.322795
-0.7110999 -0.02779198 1.207696
0.4671388 -0.5733523 -0.6267291
-0.8471239 -0.5272117 1.975264
-0.4789885 -0.6220908 1.339562
-0.9634628 -0.3337321 2.072969
-0.6394496 -0.3772879 1.479349
-0.5532198 0.8841817 0.1689398
-0.06617725 0.6695125 -0.5966035
-0.8602266 0.5813396 1.068478
0.2185501 0.3182254 -0.8272091
-0.6357908 0.2629995 0.9296081
-0.08800781 0.6573398 -0.5152812
0.2056326 0.280345 -0.7393831
-0.1241175 0.2856479 -0.08567023
-0.1469303 -0.6995673 0.8666456
0.542448 -0.6908026 -0.5057896
-0.04013407 -0.2463708 0.2576118
-1.032705 0.5754998 1.501236
0.09709179 0.1353383 -0.3158598
-0.699075 -0.6523728 2.003735
-0.9847736 0.5866315 1.455863
-0.02951741 -0.9417791 0.9481969
-0.9601235 -0.212553 2.135373
0.04752254 0.614702 -0.5982959
0.26634 -0.1248002 -0.34568
-0.4667754 0.7155344 0.3576915
-0.05711961 -0.8891172 1.020103
-0.03155577 -0.9657745 1.053096
0.1520503 -0.3436675 0.1348245
-0.4573851 0.9588051 0.1766791
-0.7312818 -0.5748205 2.128878
-0.7661247 0.9072998 0.871839
0.1250827 0.08104467 -0.1432421
-0.8580747 0.7606411 1.218209
0.3152136 0.3913541 -0.7747419
-0.0820806 -0.9738197 1.264361
-0.8904107 -0.3277426 2.287698
0.1113646 -0.1860342 0.1817267
-0.08300829 -0.9384999 1.259423
0.4382964 0.08884621 -0.6902552
-0.4004053 0.1851358 0.9068522
-0.6525156 -0.5763602 2.107607
-0.06427133 -0.007506371 0.4317064
0.02363038 0.2428718 0.05347347
-0.846133 -0.1031871 2.113259
0.5218794 -0.9491072 0.1628447
0.1260183 0.3180399 -0.1859345
-0.03464723 0.3337345 0.1338992
-0.6462913 -0.09036636 1.738745
-0.874927 -0.2130241 2.31377
0.09729528 -0.89464 1.009604
-0.81651 -0.3119297 2.318852
-0.8689814 0.1343498 2.019302
-0.7498214 0.7016211 1.267401
-0.7750447 -0.4637175 2.396001
-0.2740728 -0.781538 1.694981
0.0140599 -0.9419785 1.273374
0.06293035 0.1365218 0.1960597
-0.3722079 -0.004074574 1.200863
0.5077704 0.1435308 -0.6349492
0.02021396 0.4345415 0.08149076
-0.6822207 0.2651129 1.648754
0.6643388 -1.008903 0.1372294
-0.4760878 0.7557871 0.8073063
0.2955339 0.4363713 -0.3930041
-0.229267 -0.1789327 1.20992
-0.3648723 -0.6911879 1.961522
-0.6395261 1.10692 0.8767748
0.04336452 0.8496041 -0.2458961
0.5138224 0.2219076 -0.6075331
0.5013096 0.34025 -0.6835124
-0.1719331 -0.8041549 1.708737
0.7194092 -0.9010191 0.03654122
0.5663249 -0.881515 0.3346579
-0.1156805 -0.245676 1.114002
0.7847658 -0.9471345 -0.03453994
-0.5722857 0.3856678 1.468307
0.5312872 0.3408947 -0.6828129
-0.3718805 1.240115 0.2966058
0.4654689 -0.5379338 0.2756469
-0.8671076 0.3799176 2.09478
0.1535745 -0.08430767 0.4909039
-0.4610535 1.283649 0.4815576
0.2597477 -0.9313397 1.077203
-0.8352575 0.4743059 1.997464
-0.7592816 0.6643965 1.720775
-0.06236136 -0.01618481 0.9587228
-0.3692162 -0.6630487 2.165532
-0.6361041 -0.486455 2.542468
0.4269108 0.5842001 -0.540102
-0.5249474 1.14733 0.8491056
-0.4377731 1.274814 0.5599115
0.3387868 0.2051229 0.009536743
0.1734948 0.8221922 -0.2202854
-0.5568645 1.056813 1.031692
-0.3094198 1.286122 0.339922
-0.2695048 -0.3202624 1.734426
-0.2831088 0.5621521 0.9662483
-0.7120304 0.0364151 2.322061
0.7662238 -0.8156419 0.160665
-0.1352212 -0.7193313 1.869471
-0.4166323 1.307885 0.5984669
-0.1330526 -0.3474946 1.543362
-0.2662723 -0.08974171 1.639419
0.4995803 0.6200354 -0.5270792
0.4561398 -0.3659525 0.4650409
0.1725087 -0.4640055 1.125829
0.4746469 0.6896229 -0.5041425
-0.4458212 1.206232 0.857419
0.8212658 -1.06061 0.4041281
0.5922259 -0.2156978 0.09290528
-0.1744956 -0.6977634 2.065844
0.05189621 -0.03892326 1.02984
0.4328688 -0.9061284 1.084112
-0.7062099 0.8242979 1.786496
-0.6676507 0.8438027 1.712892
-0.6466136 0.9115257 1.612055
0.5771482 -0.6018977 0.5729704
0.9799112 -1.010662 0.1483014
0.2995675 0.4700546 0.1559153
0.1764824 0.5431354 0.3363376
-0.3014622 0.01725388 1.771599
-0.5683042 1.006487 1.411903
-0.1865147 0.3910124 1.225171
-0.015172 -0.004623413 1.259589
0.9804987 -0.8505387 0.06693721
-0.4642597 0.1865506 2.017351
-0.01770699 1.324794 0.09792686
-0.05536914 -0.6451116 1.967577
-0.2674599 -0.587214 2.350679
0.778711 -0.985877 0.6624677
-0.5644783 -0.4472609 2.854057
0.7486998 0.2653651 -0.379845
-0.6509459 -0.3688745 2.981732
-0.318718 1.311961 0.7962456
0.3159126 0.2047582 0.5549269
0.09212732 -0.7243285 1.864878
-0.6888907 -0.3019986 3.034124
0.187784 0.08237648 0.9435532
0.1833243 1.149221 -0.01759028
0.117511 -0.5120697 1.62544
-0.3392272 -0.2179408 2.267893
1.033419 -0.8582501 0.1410935
-0.7958593 -0.342351 3.333516
-0.7307434 -0.1209865 3.009055
-0.6736016 -0.1571832 2.930553
-0.7873325 -0.2394767 3.242761
-0.7615595 -0.09183836 3.086175
-0.5936558 0.07339716 2.623377
-0.2894619 0.6352847 1.509135
0.5615073 -0.8873596 1.222519
-0.662293 0.6142251 2.306312
0.179522 0.8382313 0.4294772
-0.3187793 0.4956741 1.737591
0.5815683 -0.8918381 1.210743
0.000208497 0.5289764 1.083835
-0.6685171 0.6076477 2.346237
0.1791085 1.19435 0.1295929
-0.8113215 -0.4780989 3.628376
0.2720929 1.212459 -0.04745173
0.8723971 -1.035803 0.8101954
-0.6263566 0.6625659 2.247092
-0.0284009 0.7992916 0.9361408
-0.3921416 1.207029 1.289309
-0.02268207 1.361687 0.415103
-0.2108268 1.278644 0.8764718
-0.05903208 1.321204 0.5413144
-0.6441395 0.6407785 2.333182
0.8516047 -0.4335122 0.3604214
-0.5527086 -0.5826025 3.288342
0.9874509 -0.9644451 0.5785742
0.08274162 0.6227968 0.9410186
0.8616486 -0.3375311 0.2728539
0.2397881 0.2702322 0.9571929
-0.3651423 1.122452 1.394486
0.2687845 1.24079 0.04182267
0.4489875 -0.6401463 1.39838
-0.5734811 0.4783323 2.418191
0.7229597 -0.1861448 0.4578915
-0.0121727 -0.4966378 2.203238
-0.839798 -0.2821927 3.669699
-0.1187227 0.1222148 1.872819
-0.7767153 0.0604167 3.2537
-0.7230213 0.1654716 3.063096
0.2199357 1.213593 0.2501991
0.2002561 0.02003908 1.404016
-0.5513967 0.4035764 2.556299
1.154066 -0.8266416 0.2844932
-0.1880751 1.301866 1.023278
-0.6830239 0.1288557 3.075509
0.3392678 1.204351 0.06628633
0.5705173 -0.7704282 1.425996
-0.2910066 1.179084 1.382252
-0.6689582 -0.6397414 3.789335
-0.7396793 -0.2285089 3.561365
-0.5491343 0.7148032 2.340643
0.5959848 -0.7717047 1.416385
1.046462 -0.9694734 0.704783
0.876613 -0.79283 0.8867011
0.004992247 0.9918871 1.002349
0.474978 1.017983 0.04818082
-0.8622036 -0.2157087 3.8442
0.3090655 1.193651 0.2383242
0.3986117 1.134867 0.1597137
0.6270589 -0.7561955 1.43467
-0.4856186 0.7033038 2.327094
-0.2096324 1.199165 1.331106
-0.2114327 -0.1999574 2.610381
-0.5294013 0.6419802 2.486829
0.4771617 1.183245 0.003815651
0.06833136 0.4022381 1.529108
0.7811221 0.1526237 0.3591888
-0.5890503 0.4365847 2.829486
-0.5322965 0.5393434 2.63933
-0.3873477 -0.5907106 3.386491
1.264019 -0.8752279 0.364424
0.3231664 0.5222969 0.9748261
0.8968817 -0.1779714 0.4871974
-0.03124869 -0.1308351 2.300048
-0.6431952 0.2793322 3.148044
-0.9839327 -0.181879 4.24932
0.005767941 0.4290462 1.731424
1.248231 -0.7931576 0.3764548
0.2882655 -0.06261921 1.628877
-0.1790277 -0.4808478 2.942346
-1.135596 -0.01734972 4.433645
-0.9285836 -0.3491311 4.329881
-0.7805607 0.01123953 3.707956
0.4428686 0.1762509 1.128255
-0.665534 -0.5474176 3.996198
-0.500026 -0.4879036 3.624204
0.8450332 -0.605299 1.057638
-1.093397 -0.1435132 4.4952
0.5073654 -0.2296634 1.392802
-0.5170906 -0.750689 3.904972
-0.7570903 -0.4518228 4.118848
0.1830803 -0.1066432 1.975675
-0.2048483 0.9728854 1.772487
0.5132964 -0.6219602 1.804664
0.8755 0.1342525 0.426367
-0.8635354 -0.04829788 4.055821
-0.05484736 1.112932 1.393785
0.7261411 0.8470225 0.08582234
-1.166387 0.1209741 4.511426
0.5869697 0.7388937 0.4642029
1.249556 -0.6482186 0.4114251
1.183297 -0.7424164 0.6365478
-1.163497 0.1941824 4.468902
-0.01151061 -0.5022769 2.821516
-0.8737144 -0.4515276 4.501445
-0.03515136 -0.5372286 2.92029
0.8497692 0.05912066 0.6415563
0.3935758 0.9049554 0.7900362
-0.008419394 -0.5694017 2.930979
0.8152145 -0.2476215 1.003801
-0.728358 -0.5543551 4.353135
-0.3658906 -0.7040191 3.789577
0.6162249 0.8230994 0.4486625
0.6464725 0.6605332 0.5476131
0.4077091 -0.5147762 2.094509
1.237191 -0.604228 0.5297976
-0.07723653 0.9197972 1.778545
-1.075048 0.4097829 4.237618
0.2818676 0.2984624 1.648785
-1.028343 -0.2609191 4.7691
1.00608 -0.6609364 1.09505
-0.8311687 -0.6121063 4.721612
0.2418985 -0.4049716 2.400659
-0.9511023 -0.495821 4.867241
0.5717514 -0.5562577 1.894681
1.233866 -0.5607705 0.5902622
-0.5982845 -0.71591 4.380223
-0.102541 0.6294096 2.176352
-1.137215 0.3282595 4.507686
0.8450637 -0.4800944 1.309084
0.9884473 0.04054785 0.5804138
1.074063 -0.5443034 0.9437897
-0.6706574 -0.8084855 4.65388
0.4484199 -0.4766722 2.129347
0.5725269 0.8301625 0.7188873
-1.117603 -0.08481503 4.911902
-0.1292918 0.4594347 2.459739
-0.8815274 0.3179526 4.085652
0.09249318 -0.4310932 2.843361
0.806944 0.3775301 0.688308
0.7389495 -0.01537943 1.184795
0.7260731 0.2389154 0.9814854
-0.01122642 1.04543 1.716848
0.09199572 -0.5396852 2.955078
-1.090435 0.5404029 4.34278
-1.130063 0.2716804 4.678615
1.135047 -0.1794376 0.5892062
-0.229847 -0.2600894 3.378379
0.8950952 -0.4991374 1.362962
0.04640913 0.9063888 1.77242
-0.411546 -0.8109651 4.251681
-0.7356243 0.5055518 3.702188
-0.9343731 0.5849731 4.037151
-0.3700509 -0.7602906 4.158943
1.292268 -0.4259553 0.5555861
0.4971893 -0.4000793 2.114176
0.07853496 0.4102869 2.212198
-0.6321375 0.1040258 3.919562
-0.7835901 -0.7255325 4.975177
0.01221299 0.5081553 2.280904
0.1737359 0.9380982 1.581818
0.6632692 -0.4115067 1.846239
-0.007213354 -0.6105428 3.364422
0.08811927 -0.3639345 2.952798
-1.10425 0.4697342 4.574307
0.9121397 -0.4492464 1.401713
-0.7376313 0.04154587 4.242291
-0.03137958 0.2245111 2.67467
-0.8901896 -0.5439925 5.112738
0.4275968 -0.3416371 2.313599
-0.5902913 0.3585253 3.701734
0.971087 0.165122 0.7784736
-1.013972 0.6821516 4.263964
0.1057818 0.5419402 2.174508
0.4336555 -0.3510923 2.339245
-0.2496685 0.4770653 2.949599
-0.3374493 -0.9573045 4.428972
-0.6765366 0.4298794 3.845071
-0.1776193 0.3866692 2.89672
-0.3931615 -0.9798999 4.575156
-0.3051357 0.3817213 3.17005
0.5101407 -0.3727074 2.238208
-0.1115991 -0.5141425 3.606849
-1.069284 0.1956782 4.866825
0.5589272 0.7228372 1.151712
-0.6014781 0.655612 3.549076
0.3031783 0.4725862 1.923169
-0.5219648 -0.9223943 4.851246
-0.4682686 0.5892632 3.376934
-0.5214201 0.6202531 3.458642
0.5584606 1.01825 0.951278
0.5260348 1.018545 1.02291
0.1776791 -0.4801235 3.081781
-0.8251429 0.7652771 3.94711
0.3520051 0.9540429 1.440189
0.0539695 0.4624794 2.498873
0.2849102 0.1545978 2.326856
1.038677 -0.003987789 0.9848859
-0.2455868 0.4448035 3.13063
0.4341786 1.094113 1.200929
0.5448689 1.047347 1.030558
-0.5952493 0.6946394 3.62596
-0.1736572 -0.9469686 4.295387
0.993931 0.0114007 1.107794
0.1666616 -0.4709334 3.235684
0.1874354 -0.4680533 3.192047
1.04098 0.1037469 0.9826419
-0.4109204 -0.9749041 4.854537
0.9024285 -0.265842 1.612259
1.064741 0.0521493 1.003117
-0.1862632 -0.8255997 4.30821
-0.9096239 -0.3024402 5.270635
1.051869 0.02658606 1.076817
0.4513321 0.6546471 1.716637
0.7917244 0.7107046 0.9959705
0.6900406 0.902601 1.024408
0.08751714 0.04561758 3.00478
-0.9836719 0.4276083 4.791484
0.9041301 -0.2503333 1.656318
-0.3080605 -1.024498 4.774763
0.710673 0.3114266 1.538628
0.4621744 0.7673917 1.621415
-0.9109983 0.8828003 4.266158
-0.1011742 -0.6456847 4.055015
0.8430678 0.4133689 1.215975
-0.01234758 0.2254519 3.091861
-0.6830838 -0.6405797 5.216576
-0.1208805 0.01411057 3.504347
0.1773802 0.36886 2.606599
-0.05406773 -0.5075593 3.867394
0.7318074 0.7314131 1.190066
0.5045339 0.3232737 2.019836
0.4783742 0.9189708 1.553232
0.8250886 0.1258683 1.590094
0.5810484 0.6256981 1.633023
-0.8418422 -0.1868958 5.226863
-0.6703138 -0.5742283 5.2409
-0.6632791 -0.5847235 5.241818
-0.9097261 0.8547666 4.427925
-0.8091531 -0.3167734 5.303708
-0.9038234 0.05031013 5.167521
0.6632553 0.8798668 1.302118
-0.2357553 0.6360872 3.322991
0.7870464 0.1350141 1.760247
0.421747 -0.235352 2.853374
-0.01214683 -1.130497 4.531265
0.7119977 0.1316457 1.970194
-0.5130101 -0.04934359 4.570799
-0.4888825 -0.7726374 5.180866
0.7645826 0.1210713 1.909714
-0.8789299 0.2414632 5.071493
-0.8442707 0.02822399 5.211889
-0.3256961 0.7474115 3.529821
0.7677813 0.1305046 1.918436
0.7687728 0.1242132 1.924525
-0.8516541 0.9409635 4.412217
-0.4459841 -0.06916237 4.531487
0.05470335 -0.7746148 4.188734
-0.407581 0.1477122 4.269372
-0.112437 -1.083511 4.823294
-0.2649179 -0.9811339 5.041314
-0.06192887 0.1907754 3.576019
0.1471438 -0.5593672 3.845947
-0.7612219 -0.1178699 5.260548
-0.7813675 1.025281 4.271275
-0.2012388 -0.1415272 4.195728
-0.5333751 0.8763287 3.949227
0.7063643 0.03181171 2.254172
-0.04096842 0.5704923 3.262601
0.1784871 -0.3874378 3.705896
-0.7299247 -0.08767796 5.24489
-0.3341862 0.1229959 4.270989
-0.6434975 1.002653 4.092064
-0.7588334 0.1258273 5.134843
0.1641409 -0.5965304 3.991477
-0.5079155 0.9940002 3.884799
-0.6700826 -0.08082676 5.2396
-0.01106071 -0.01595592 3.880346
-0.3394625 -0.7171121 5.198951
-0.4549994 -0.07439184 4.853785
0.696493 0.1520534 2.377469
-0.3871751 0.06445217 4.612726
0.1531893 -1.163867 4.695212
-0.4045815 -0.186882 4.92743
-0.4285769 0.4570704 4.407686
0.4170531 -0.1502314 3.304627
-0.1209658 0.3787825 3.896652
-0.4152267 0.9974637 3.927049
0.2667942 -1.034153 4.437678
0.1278276 0.1754265 3.627077
0.05212331 0.1455617 3.819134
-0.6778693 0.503561 4.945261
-0.1344336 -0.4732461 4.755784
0.1911023 -1.173401 4.752418
-0.678514 1.069593 4.441745
0.5956649 0.2439241 2.664889
-0.2531573 0.306529 4.296329
0.3118231 -0.7496758 4.148154
0.6156164 0.222724 2.675208
0.4520843 -0.2324929 3.420804
0.553924 -0.09507751 3.113465
-0.05453324 0.1186881 4.131026
-0.06413245 -0.9342341 5.135942
-0.1563407 -0.7765546 5.18477
0.199937 -1.128079 4.799432
-0.62992 1.081533 4.455508
0.1574829 -0.5564198 4.429113
0.170765 0.6220794 3.349887
0.7101141 0.2500072 2.619417
0.68616 0.1414428 2.76764
0.6605999 0.1780992 2.785612
0.4362921 -0.6516433 4.015555
0.08635998 -1.024895 5.052548
-0.5139682 1.16829 4.263605
0.6718449 0.1400776 2.84146
-0.01904213 0.840054 3.593444
0.2868071 0.5845652 3.245842
0.1171038 -0.3172717 4.420771
0.5539314 -0.5140243 3.756556
0.7335979 0.164772 2.789686
0.5866886 -0.4172292 3.62765
0.5600327 0.4701784 2.90123
0.1436708 -0.9582343 5.123669
0.5958982 -0.5677381 3.89474
-0.100035 0.9361875 3.921397
-0.4712023 0.8291273 4.761122
0.2382648 0.1870174 3.949812
0.6580412 -0.358736 3.619148
-0.4626791 0.8327513 4.766431
-0.02012682 0.2139711 4.467317
0.7090949 0.3783574 2.875569
-0.4050083 0.7554078 4.758437
-0.4575011 0.8560233 4.779799
0.5155395 -0.7165322 4.284584
0.3296666 0.6822529 3.421429
-0.4214019 0.8436773 4.781938
0.4692328 -1.16221 4.837643
-0.09567952 0.6667194 4.300225
0.1685668 0.1058865 4.376098
0.1040999 -0.5976701 5.154694
0.3563921 -0.5827508 4.654366
0.4714261 -1.127736 4.928475
0.6591932 -0.9956889 4.439274
-0.136429 0.09270477 5.031969
0.1708895 -0.3692389 4.841283
0.1496215 0.9109988 3.726349
0.6445924 -0.06582642 3.662241
0.1028363 0.6952379 4.061756
0.5658201 -1.143765 4.814397
0.6036413 -1.117847 4.733851
0.4135042 0.08368778 4.09736
-0.173933 0.2585664 5.111797
-0.1312417 0.2367272 5.046884
0.6316369 0.5789032 3.235614
-0.117632 0.2384486 5.035318
0.7747245 -0.003392696 3.484001
0.03287697 1.079259 3.975599
0.2373763 -0.6295314 5.131734
0.7846256 -0.5293117 3.954657
0.7367159 0.484766 3.136252
-0.1502633 0.3107557 5.058705
0.4871839 0.2820306 3.825498
-0.1191688 0.2279391 5.086626
0.6312105 -1.152109 4.870494
0.8279908 0.3242974 3.1573
-0.1635894 1.231648 4.305123
0.4189041 -0.2608871 4.511644
0.7937952 0.1761627 3.403713
0.2139844 -0.460494 5.147338
0.3215485 0.905792 3.716677
-0.1256132 1.259812 4.290234
0.7404894 0.5280554 3.238288
0.03284657 0.07300472 5.109383
0.2839276 -0.4518881 5.095488
0.7887165 0.4452245 3.283011
0.5649245 -0.9719157 5.027843
0.6440657 0.6229115 3.425184
0.7838745 0.2050176 3.5711
0.813665 -0.585835 4.300351
0.16027 0.6073229 4.543897
0.4518564 0.9164662 3.712763
0.2332022 -0.1234574 5.096446
0.1580428 0.1314564 5.020486
0.07905495 0.4930956 4.854067
0.9444076 -0.4693775 4.045015
0.2861969 1.083049 3.951961
0.3827256 -0.3111024 5.045654
0.828824 -0.9928856 4.785129
0.5326981 0.8780024 3.684043
0.8338998 -1.002974 4.823418
0.02222133 1.274804 4.370965
0.01635492 1.230812 4.441269
0.9820968 -0.1147728 3.74895
0.9912045 -0.3548484 3.95878
0.8753266 -0.9892697 4.808043
1.00567 -0.5691071 4.167521
0.6163664 -0.4348135 4.841311
0.6691323 -0.6936836 5.014074
0.1068194 1.241391 4.382561
0.8061541 0.07382154 4.082001
0.424349 0.7215276 4.264634
0.6332088 0.6052916 3.956251
0.5845326 0.9372218 3.775951
0.1319958 1.215196 4.455756
0.6846726 -0.5577359 4.976776
1.067163 -0.7231364 4.374019
0.9416648 -0.8664737 4.774223
0.979338 -0.9221172 4.768326
1.082223 -0.2895155 4.01481
1.080023 -0.2091274 3.974286
1.03469 0.05259037 3.82832
0.4899268 0.1368966 4.835537
0.1741332 1.267923 4.441576
0.2215571 1.295859 4.339951
0.7559904 0.07507133 4.390187
0.2579423 0.9643381 4.604682
0.2554634 1.177556 4.426555
0.7958335 -0.2476621 4.693357
0.8818258 -0.1754541 4.457253
0.7859517 0.6837933 3.870292
1.150124 -0.2960734 4.098657
0.4414337 1.279231 4.084125
1.008431 -0.6063833 4.877478
1.112671 0.2847872 3.91497
0.6366783 0.3011909 4.916062
0.7807012 -0.04395533 4.952944
0.6558419 0.2697649 4.940168
0.6189923 0.4648383 4.858249
0.6942678 0.7461777 4.481519
0.6504867 0.3845212 4.901855
0.6247612 1.297107 4.165908
0.6230386 1.203293 4.307304
0.6991485 0.3110571 4.971998
1.067172 0.6283329 3.952379
1.268915 -0.5101533 4.641586
0.7309224 0.3499393 4.946727
0.8249948 0.1604829 4.940062
1.284145 -0.5429845 4.701634
1.178642 0.4614084 4.010785
1.294108 0.1701303 4.071668
0.7204998 0.5945427 4.827257
1.25122 -0.419363 4.700567
0.6361375 1.156282 4.512475
1.289492 -0.5031228 4.741078
1.331198 -0.5154939 4.713639
0.9685088 1.074375 4.027357
0.8502753 1.075041 4.276648
0.9955568 1.02793 4.03416
1.372354 -0.4968519 4.678673
1.32189 -0.4105568 4.72173
0.8139251 1.123422 4.378354
1.334967 -0.4679995 4.807855
1.3745 0.147553 4.175657
0.8944781 1.160905 4.242037
1.084785 0.2459035 4.733736
0.8841964 1.202726 4.320221
1.377081 -0.1952143 4.658387
0.881164 1.230095 4.351435
1.104531 0.9182327 4.229522
1.008375 1.158684 4.219609
0.9966067 1.056439 4.402511
1.44596 -0.05215979 4.519525
1.363702 0.4588954 4.223902
1.134652 0.9360611 4.283854
1.453465 0.1370101 4.471799
1.43402 0.308229 4.358745
1.389643 0.2681346 4.513403
1.439751 0.2331624 4.447919
1.377369 0.2111773 4.60655
1.356554 0.5280395 4.391003
1.344561 0.5312419 4.421643
1.39389 0.3103628 4.542868
0 0 0
0 0 0
0 0 0
0 0 0
0 0 0
0 0 0
0 0 0
0 0 0
0 0 0
0 0 0
0 0 0
0 0 0
0 0 0
0 0 0
0 0 0
0 0 0
0 0 0
0 0 0
0 0 0
0 0 0
0 0 0
0 0 0
0 0 0
0 0 0
0 0 0
0 0 0
0 0 0
0 0 0
0 0 0
0 0 0
0 0 0
0 0 0
0 0 0
0 0 0
0 0 0
0 0 0
0 0 0
0 0 0
0 0 0
0 0 0
0 0 0
0 0 0
0 0 0
0 0 0
0 0 0
0 0 0
0 0 0
0 0 0
0 0 0
0 0 0
0 0 0
0 0 0
0 0 0
0 0 0
0 0 0
0 0 0
0 0 0
0 0 0
0 0 0
0 0 0
0 0 0
0 0 0
0 0 0
0 0 0
0 0 0
0 0 0
0 0 0
0 0 0
0 0 0
0 0 0
0 0 0
0 0 0
0 0 0
0 0 0
0 0 0
0 0 0
0 0 0
0 0 0
0 0 0
0 0 0
0 0 0
0 0 0
0 0 0
0 0 0
0 0 0
0 0 0
0 0 0
0 0 0
0 0 0
0 0 0
0 0 0
0 0 0
0 0 0
0 0 0
0 0 0
0 0 0
0 0 0
0 0 0
0 0 0
0 0 0
0 0 0
0 0 0
0 0 0
0 0 0
0 0 0
0 0 0
0 0 0
0 0 0
0 0 0
0 0 0
0 0 0
0 0 0
0 0 0
0 0 0
0 0 0
0 0 0
0 0 0
0 0 0
0 0 0
0 0 0
0 0 0
0 0 0
0 0 0
0 0 0
0 0 0
0 0 0
0 0 0
0 0 0
0 0 0
0 0 0
0 0 0
0 0 0
0 0 0
0 0 0
0 0 0
0 0 0
0 0 0
0 0 0
0 0 0
0 0 0
0 0 0
0 0 0
0 0 0
0 0 0
0 0 0
0 0 0
0 0 0
0 0 0
0 0 0
0 0 0
0 0 0
0 0 0
0 0 0
0 0 0
0 0 0
0 0 0
0 0 0
0 0 0
0 0 0
0 0 0
0 0 0
0 0 0
0 0 0
0 0 0
0 0 0
0 0 0
0 0 0
0 0 0
0 0 0
0 0 0
0 0 0
0 0 0
0 0 0
0 0 0
0 0 0
0 0 0
0 0 0
0 0 0
0 0 0
0 0 0
0 0 0
0 0 0
0 0 0
0 0 0
0 0 0
0 0 0
0 0 0
0 0 0
0 0 0
0 0 0
0 0 0
0 0 0
0 0 0
0 0 0
0 0 0
0 0 0
0 0 0
0 0 0
0 0 0
0 0 0
0 0 0
0 0 0
0 0 0
0 0 0
0 0 0
0 0 0
0 0 0
0 0 0
0 0 0
0 0 0
0 0 0
0 0 0
0 0 0
0 0 0
0 0 0
0 0 0
0 0 0
0 0 0
0 0 0
0 0 0
0 0 0
0 0 0
0 0 0
0 0 0
0 0 0
0 0 0
0 0 0
0 0 0
0 0 0
0 0 0
0 0 0
0 0 0
0 0 0
0 0 0
0 0 0
0 0 0
0 0 0
0 0 0
0 0 0
0 0 0
0 0 0
0 0 0
0 0 0
0 0 0
0 0 0
0 0 0
0 0 0
0 0 0
0 0 0
0 0 0
0 0 0
0 0 0
0 0 0
0 0 0
0 0 0
0 0 0
0 0 0
0 0 0
0 0 0
0 0 0
0 0 0
0 0 0
0 0 0
0 0 0
0 0 0
0 0 0
0 0 0
0 0 0
0 0 0
0 0 0
0 0 0
0 0 0
0 0 0
0 0 0
0 0 0
0 0 0
0 0 0
0 0 0
0 0 0
0 0 0
0 0 0
0 0 0
0 0 0
0 0 0
0 0 0
0 0 0
0 0 0
0 0 0
0 0 0
0 0 0
0 0 0
0 0 0
0 0 0
0 0 0
0 0 0
0 0 0
0 0 0
0 0 0
0 0 0
0 0 0
0 0 0
0 0 0
0 0 0
0 0 0
0 0 0
0 0 0
0 0 0
0 0 0
0 0 0
0 0 0
0 0 0
0 0 0
0 0 0
0 0 0
0 0 0
0 0 0
0 0 0
0 0 0
0 0 0
0 0 0
0 0 0
0 0 0
0 0 0
0 0 0
0 0 0
0 0 0
0 0 0
0 0 0
0 0 0
0 0 0
0 0 0
0 0 0
0 0 0
0 0 0
0 0 0
0 0 0
0 0 0
0 0 0
0 0 0
0 0 0
0 0 0
0 0 0
0 0 0
0 0 0
0 0 0
0 0 0
0 0 0
0 0 0
0 0 0
0 0 0
0 0 0
0 0 0
0 0 0
0 0 0
0 0 0
0 0 0
0 0 0
0 0 0
0 0 0
0 0 0
0 0 0
0 0 0
0 0 0
0 0 0
0 0 0
0 0 0
0 0 0
0 0 0
0 0 0
0 0 0
0 0 0
0 0 0
0 0 0
0 0 0
0 0 0
0 0 0
0 0 0
0 0 0
0 0 0
0 0 0
0 0 0
0 0 0
0 0 0
0 0 0
0 0 0
0 0 0
0 0 0
0 0 0
0 0 0
0 0 0
0 0 0
0 0 0
0 0 0
0 0 0
0 0 0
0 0 0
0 0 0
0 0 0
0 0 0
0 0 0
0 0 0
0 0 0
0 0 0
0 0 0
0 0 0
0 0 0
0 0 0
0 0 0
0 0 0
0 0 0
0 0 0
0 0 0
0 0 0
0 0 0
0 0 0
0 0 0
0 0 0
0 0 0
0 0 0
0 0 0
0 0 0
0 0 0
0 0 0
0 0 0
0 0 0
0 0 0
0 0 0
0 0 0
0 0 0
0 0 0
0 0 0
0 0 0
0 0 0
0 0 0
0 0 0
0 0 0
0 0 0
0 0 0
0 0 0
0 0 0
0 0 0
0 0 0
0 0 0
0 0 0
0 0 0
0 0 0
0 0 0
0 0 0
0 0 0
0 0 0
0 0 0
0 0 0
0 0 0
0 0 0
0 0 0
0 0 0
0 0 0
0 0 0
0 0 0
0 0 0
0 0 0
0 0 0
0 0 0
0 0 0
0 0 0
0 0 0
0 0 0
0 0 0
0 0 0
0 0 0
0 0 0
0 0 0
0 0 0
0 0 0
0 0 0
0 0 0
0 0 0
0 0 0
0 0 0
0 0 0
0 0 0
0 0 0
0 0 0
0 0 0
0 0 0
0 0 0
0 0 0
0 0 0
0 0 0
0 0 0
0 0 0
0 0 0
0 0 0
0 0 0
0 0 0
0 0 0
0 0 0
0 0 0
0 0 0
0 0 0
0 0 0
0 0 0
0 0 0
0 0 0
0 0 0
0 0 0
0 0 0
0 0 0
0 0 0
0 0 0
0 0 0
0 0 0
0 0 0
0 0 0
0 0 0
0 0 0
0 0 0
0 0 0
0 0 0
0 0 0
0 0 0
0 0 0
0 0 0
0 0 0
0 0 0
0 0 0
0 0 0
0 0 0
0 0 0
0 0 0
0 0 0
0 0 0
0 0 0
0 0 0
0 0 0
0 0 0
0 0 0
0 0 0
0 0 0
0 0 0
0 0 0
0 0 0
0 0 0
0 0 0
0 0 0
0 0 0
0 0 0
0 0 0
0 0 0
0 0 0
0 0 0
0 0 0
0 0 0
0 0 0
0 0 0
0 0 0
0 0 0
0 0 0
0 0 0
0 0 0
0 0 0
0 0 0
0 0 0
0 0 0
0 0 0
0 0 0
0 0 0
0 0 0
0 0 0
0 0 0
0 0 0
0 0 0
0 0 0
0 0 0
0 0 0
0 0 0
0 0 0
0 0 0
0 0 0
0 0 0
0 0 0
0 0 0
0 0 0
0 0 0
0 0 0
0 0 0
0 0 0
0 0 0
0 0 0
0 0 0
0 0 0
0 0 0
0 0 0
0 0 0
0 0 0
0 0 0
0 0 0
0 0 0
0 0 0
0 0 0
0 0 0
0 0 0
0 0 0
0 0 0
0 0 0
0 0 0
0 0 0
0 0 0
0 0 0
0 0 0
0 0 0
0 0 0
0 0 0
0 0 0
0 0 0
0 0 0
0 0 0
0 0 0
0 0 0
0 0 0
0 0 0
0 0 0
0 0 0
0 0 0
0 0 0
0 0 0
0 0 0
0 0 0
0 0 0
0 0 0
0 0 0
0 0 0
0 0 0
0 0 0
0 0 0
0 0 0
0 0 0
0 0 0
0 0 0
0 0 0
0 0 0
0 0 0
0 0 0
0 0 0
0 0 0
0 0 0
0 0 0
0 0 0
0 0 0
0 0 0
0 0 0
0 0 0
0 0 0
0 0 0
0 0 0
0 0 0
0 0 0
0 0 0
0 0 0
0 0 0
0 0 0
0 0 0
0 0 0
0 0 0
0 0 0
0 0 0
0 0 0
0 0 0
0 0 0
0 0 0
0 0 0
0 0 0
0 0 0
0 0 0
0 0 0
0 0 0
0 0 0
0 0 0
0 0 0
0 0 0
0 0 0
0 0 0
0 0 0
0 0 0
0 0 0
0 0 0
0 0 0
0 0 0
0 0 0
0 0 0
0 0 0
0 0 0
0 0 0
0 0 0
0 0 0
0 0 0
0 0 0
0 0 0
0 0 0
0 0 0
0 0 0
0 0 0
0 0 0
0 0 0
0 0 0
0 0 0
0 0 0
0 0 0
0 0 0
0 0 0
0 0 0
0 0 0
0 0 0
0 0 0
0 0 0
0 0 0
0 0 0
0 0 0
0 0 0
0 0 0
0 0 0
0 0 0
0 0 0
0 0 0
0 0 0
0 0 0
0 0 0
0 0 0
0 0 0
0 0 0
0 0 0
0 0 0
0 0 0
0 0 0
0 0 0
0 0 0
0 0 0
0 0 0
0 0 0
0 0 0
0 0 0
0 0 0
0 0 0
0 0 0
0 0 0
0 0 0
0 0 0
0 0 0
0 0 0
0 0 0
0 0 0
0 0 0
0 0 0
0 0 0
0 0 0
0 0 0
0 0 0
0 0 0
0 0 0
0 0 0
0 0 0
0 0 0
0 0 0
0 0 0
0 0 0
0 0 0
0 0 0
0 0 0
0 0 0
0 0 0
0 0 0
0 0 0
0 0 0
0 0 0
0 0 0
0 0 0
0 0 0
0 0 0
0 0 0
0 0 0
0 0 0
0 0 0
0 0 0
0 0 0
0 0 0
0 0 0
0 0 0
0 0 0
0 0 0
0 0 0
0 0 0
0 0 0
0 0 0
0 0 0
0 0 0
0 0 0
0 0 0
0 0 0
0 0 0
0 0 0
0 0 0
0 0 0
0 0 0
0 0 0
0 0 0
0 0 0
0 0 0
0 0 0
0 0 0
0 0 0
0 0 0
0 0 0
0 0 0
0 0 0
0 0 0
0 0 0
0 0 0
0 0 0
0 0 0
0 0 0
0 0 0
0 0 0
0 0 0
0 0 0
0 0 0
0 0 0
0 0 0
0 0 0
0 0 0
0 0 0
0 0 0
0 0 0
0 0 0
0 0 0
0 0 0
0 0 0
0 0 0
0 0 0
0 0 0
0 0 0
0 0 0
0 0 0
0 0 0
0 0 0
0 0 0
0 0 0
0 0 0
0 0 0
0 0 0
0 0 0
0 0 0
0 0 0
0 0 0
0 0 0
0 0 0
0 0 0
0 0 0
0 0 0
0 0 0
0 0 0
0 0 0
0 0 0
0 0 0
0 0 0
0 0 0
0 0 0
0 0 0
0 0 0
0 0 0
0 0 0
0 0 0
0 0 0
0 0 0
0 0 0
0 0 0
0 0 0
0 0 0
0 0 0
0 0 0
0 0 0
0 0 0
0 0 0
0 0 0
0 0 0
0 0 0
0 0 0
0 0 0
0 0 0
0 0 0
0 0 0
0 0 0
0 0 0
0 0 0
0 0 0
0 0 0
0 0 0
0 0 0
0 0 0
0 0 0
0 0 0
0 0 0
0 0 0
0 0 0
0 0 0
0 0 0
0 0 0
0 0 0
0 0 0
0 0 0
0 0 0
0 0 0
0 0 0
0 0 0
0 0 0
0 0 0
0 0 0
0 0 0
0 0 0
0 0 0
0 0 0
0 0 0
0 0 0
0 0 0
0 0 0
0 0 0
0 0 0
0 0 0
0 0 0
0 0 0
0 0 0
0 0 0
0 0 0
0 0 0
0 0 0
0 0 0
0 0 0
0 0 0
0 0 0
0 0 0
0 0 0
0 0 0
0 0 0
0 0 0
0 0 0
0 0 0
0 0 0
0 0 0
0 0 0
0 0 0
0 0 0
0 0 0
0 0 0
0 0 0
0 0 0
0 0 0
0 0 0
0 0 0
0 0 0
0 0 0
0 0 0
0 0 0
0 0 0
0 0 0
0 0 0
0 0 0
0 0 0
0 0 0
0 0 0
0 0 0
0 0 0
0 0 0
0 0 0
0 0 0
0 0 0
0 0 0
0 0 0
0 0 0
0 0 0
0 0 0
0 0 0
0 0 0
0 0 0
0 0 0
0 0 0
0 0 0
0 0 0
0 0 0
0 0 0
0 0 0
0 0 0
0 0 0
0 0 0
0 0 0
0 0 0
0 0 0
0 0 0
0 0 0
0 0 0
0 0 0
0 0 0
0 0 0
0 0 0
0 0 0
0 0 0
0 0 0
0 0 0
0 0 0
0 0 0
0 0 0
0 0 0
0 0 0
0 0 0
0 0 0
0 0 0
0 0 0
0 0 0
0 0 0
0 0 0
0 0 0
0 0 0
0 0 0
0 0 0
0 0 0
0 0 0
0 0 0
0 0 0
0 0 0
0 0 0
0 0 0
0 0 0
0 0 0
0 0 0
0 0 0
0 0 0
0 0 0
0 0 0
0 0 0
0 0 0
0 0 0
0 0 0
0 0 0
0 0 0
0 0 0
0 0 0
0 0 0
0 0 0
0 0 0
0 0 0
0 0 0
0 0 0
0 0 0
0 0 0
0 0 0
0 0 0
0 0 0
0 0 0
0 0 0
0 0 0
0 0 0
0 0 0
0 0 0
0 0 0
0 0 0
0 0 0
0 0 0
0 0 0
0 0 0
0 0 0
0 0 0
0 0 0
0 0 0
0 0 0
0 0 0
0 0 0
0 0 0
0 0 0
0 0 0
0 0 0
0 0 0
0 0 0
0 0 0
0 0 0
0 0 0
0 0 0
0 0 0
0 0 0
0 0 0
0 0 0
0 0 0
0 0 0
0 0 0
0 0 0
0 0 0
0 0 0
0 0 0
0 0 0
0 0 0
0 0 0
0 0 0
0 0 0
0 0 0
0 0 0
0 0 0
0 0 0
0 0 0
0 0 0
0 0 0
0 0 0
0 0 0
0 0 0
0 0 0
0 0 0
0 0 0
0 0 0
0 0 0
0 0 0
0 0 0
0 0 0
0 0 0
0 0 0
0 0 0
0 0 0
0 0 0
0 0 0
0 0 0
0 0 0
0 0 0
0 0 0
0 0 0
0 0 0
0 0 0
0 0 0
0 0 0
0 0 0
0 0 0
0 0 0
0 0 0
0 0 0
0 0 0
0 0 0
0 0 0
0 0 0
0 0 0
0 0 0
0 0 0
0 0 0
0 0 0
0 0 0
0 0 0
0 0 0
0 0 0
0 0 0
0 0 0
0 0 0
0 0 0
0 0 0
0 0 0
0 0 0
0 0 0
0 0 0
0 0 0
0 0 0
0 0 0
0 0 0
0 0 0
0 0 0
0 0 0
0 0 0
0 0 0
0 0 0
0 0 0
0 0 0
0 0 0
0 0 0
0 0 0
0 0 0
0 0 0
0 0 0
0 0 0
0 0 0
0 0 0
0 0 0
0 0 0
0 0 0
0 0 0
0 0 0
0 0 0
0 0 0
0 0 0
0 0 0
0 0 0
0 0 0
0 0 0
0 0 0
0 0 0
0 0 0
0 0 0
0 0 0
0 0 0
0 0 0
0 0 0
0 0 0
0 0 0
0 0 0
0 0 0
0 0 0
0 0 0
0 0 0
0 0 0
0 0 0
0 0 0
0 0 0
0 0 0
0 0 0
0 0 0
0 0 0
0 0 0
0 0 0
0 0 0
0 0 0
0 0 0
0 0 0
0 0 0
0 0 0
0 0 0
0 0 0
0 0 0
0 0 0
0 0 0
0 0 0
0 0 0
0 0 0
0 0 0
0 0 0
0 0 0
0 0 0
0 0 0
0 0 0
0 0 0
0 0 0
0 0 0
0 0 0
0 0 0
0 0 0
0 0 0
0 0 0
0 0 0
0 0 0
0 0 0
0 0 0
0 0 0
0 0 0
0 0 0
0 0 0
0 0 0
0 0 0
0 0 0
0 0 0
0 0 0
0 0 0
0 0 0
0 0 0
0 0 0
0 0 0
0 0 0
0 0 0
0 0 0
0 0 0
0 0 0
0 0 0
0 0 0
0 0 0
0 0 0
0 0 0
0 0 0
0 0 0
0 0 0
0 0 0
0 0 0
0 0 0
0 0 0
0 0 0
0 0 0
0 0 0
0 0 0
0 0 0
0 0 0
0 0 0
0 0 0
0 0 0
0 0 0
0 0 0
0 0 0
0 0 0
0 0 0
0 0 0
0 0 0
0 0 0
0 0 0
0 0 0
0 0 0
0 0 0
0 0 0
0 0 0
0 0 0
0 0 0
0 0 0
0 0 0
0 0 0
0 0 0
0 0 0
0 0 0
0 0 0
0 0 0
0 0 0
0 0 0
0 0 0
0 0 0
0 0 0
0 0 0
0 0 0
0 0 0
0 0 0
0 0 0
0 0 0
0 0 0
0 0 0
0 0 0
0 0 0
0 0 0
0 0 0
0 0 0
0 0 0
0 0 0
0 0 0
0 0 0
0 0 0
0 0 0
0 0 0
0 0 0
0 0 0
0 0 0
0 0 0
0 0 0
0 0 0
0 0 0
0 0 0
0 0 0
0 0 0
0 0 0
0 0 0
0 0 0
0 0 0
0 0 0
0 0 0
0 0 0
0 0 0
0 0 0
0 0 0
0 0 0
0 0 0
0 0 0
0 0 0
0 0 0
0 0 0
0 0 0
0 0 0
0 0 0
0 0 0
0 0 0
0 0 0
0 0 0
0 0 0
0 0 0
0 0 0
0 0 0
0 0 0
0 0 0
0 0 0
0 0 0
0 0 0
0 0 0
0 0 0
0 0 0
0 0 0
0 0 0
0 0 0
0 0 0
0 0 0
0 0 0
0 0 0
0 0 0
0 0 0
0 0 0
0 0 0
0 0 0
0 0 0
0 0 0
0 0 0
0 0 0
0 0 0
0 0 0
0 0 0
0 0 0
0 0 0
0 0 0
0 0 0
0 0 0
0 0 0
0 0 0
0 0 0
0 0 0
0 0 0
0 0 0
0 0 0
0 0 0
0 0 0
0 0 0
0 0 0
0 0 0
0 0 0
0 0 0
0 0 0
0 0 0
0 0 0
0 0 0
0 0 0
0 0 0
0 0 0
0 0 0
0 0 0
0 0 0
0 0 0
0 0 0
0 0 0
0 0 0
0 0 0
0 0 0
0 0 0
0 0 0
0 0 0
0 0 0
0 0 0
0 0 0
0 0 0
0 0 0
0 0 0
0 0 0
0 0 0
0 0 0
0 0 0
0 0 0
0 0 0
0 0 0
0 0 0
0 0 0
0 0 0
0 0 0
0 0 0
0 0 0
0 0 0
0 0 0
0 0 0
0 0 0
0 0 0
0 0 0
0 0 0
0 0 0
0 0 0
0 0 0
0 0 0
0 0 0
0 0 0
0 0 0
0 0 0
0 0 0
0 0 0
0 0 0
0 0 0
0 0 0
0 0 0
0 0 0
0 0 0
0 0 0
0 0 0
0 0 0
0 0 0
0 0 0
0 0 0
0 0 0
0 0 0
0 0 0
0 0 0
0 0 0
0 0 0
0 0 0
0 0 0
0 0 0
0 0 0
0 0 0
0 0 0
0 0 0
0 0 0
0 0 0
0 0 0
0 0 0
0 0 0
0 0 0
0 0 0
0 0 0
0 0 0
0 0 0
0 0 0
0 0 0
0 0 0
0 0 0
0 0 0
0 0 0
0 0 0
0 0 0
0 0 0
0 0 0
0 0 0
0 0 0
0 0 0
0 0 0
0 0 0
0 0 0
0 0 0
0 0 0
0 0 0
0 0 0
0 0 0
0 0 0
0 0 0
0 0 0
0 0 0
0 0 0
0 0 0
0 0 0
0 0 0
0 0 0
0 0 0
0 0 0
0 0 0
0 0 0
0 0 0
0 0 0
0 0 0
0 0 0
0 0 0
0 0 0
0 0 0
0 0 0
0 0 0
0 0 0
0 0 0
0 0 0
0 0 0
0 0 0
0 0 0
0 0 0
0 0 0
0 0 0
0 0 0
0 0 0
0 0 0
0 0 0
0 0 0
0 0 0
0 0 0
0 0 0
0 0 0
0 0 0
0 0 0
0 0 0
0 0 0
0 0 0
0 0 0
0 0 0
0 0 0
0 0 0
0 0 0
0 0 0
0 0 0
0 0 0
0 0 0
0 0 0
0 0 0
0 0 0
0 0 0
0 0 0
0 0 0
0 0 0
0 0 0
0 0 0
0 0 0
0 0 0
0 0 0
0 0 0
0 0 0
0 0 0
0 0 0
0 0 0
0 0 0
0 0 0
0 0 0
0 0 0
0 0 0
0 0 0
0 0 0
0 0 0
0 0 0
0 0 0
0 0 0
0 0 0
0 0 0
0 0 0
0 0 0
0 0 0
0 0 0
0 0 0
0 0 0
0 0 0
0 0 0
0 0 0
0 0 0
0 0 0
0 0 0
0 0 0
0 0 0
0 0 0
0 0 0
0 0 0
0 0 0
0 0 0
0 0 0
0 0 0
0 0 0
0 0 0
0 0 0
0 0 0
0 0 0
0 0 0
0 0 0
0 0 0
0 0 0
0 0 0
0 0 0
0 0 0
0 0 0
0 0 0
0 0 0
0 0 0
0 0 0
0 0 0
0 0 0
0 0 0
0 0 0
0 0 0
0 0 0
0 0 0
0 0 0
0 0 0
0 0 0
0 0 0
0 0 0
0 0 0
0 0 0
0 0 0
0 0 0
0 0 0
0 0 0
0 0 0
0 0 0
0 0 0
0 0 0
0 0 0
0 0 0
0 0 0
0 0 0
0 0 0
0 0 0
0 0 0
0 0 0
0 0 0
0 0 0
0 0 0
0 0 0
0 0 0
0 0 0
0 0 0
0 0 0
0 0 0
0 0 0
0 0 0
0 0 0
0 0 0
0 0 0
0 0 0
0 0 0
0 0 0
0 0 0
0 0 0
0 0 0
0 0 0
0 0 0
0 0 0
0 0 0
0 0 0
0 0 0
0 0 0
0 0 0
0 0 0
0 0 0
0 0 0
0 0 0
0 0 0
0 0 0
0 0 0
0 0 0
0 0 0
0 0 0
0 0 0
0 0 0
0 0 0
0 0 0
0 0 0
0 0 0
0 0 0
0 0 0
0 0 0
0 0 0
0 0 0
0 0 0
0 0 0
0 0 0
0 0 0
0 0 0
0 0 0
0 0 0
0 0 0
0 0 0
0 0 0
0 0 0
0 0 0
0 0 0
0 0 0
0 0 0
0 0 0
0 0 0
0 0 0
0 0 0
0 0 0
0 0 0
0 0 0
0 0 0
0 0 0
0 0 0
0 0 0
0 0 0
0 0 0
0 0 0
0 0 0
0 0 0
0 0 0
0 0 0
0 0 0
0 0 0
0 0 0
0 0 0
0 0 0
0 0 0
0 0 0
0 0 0
0 0 0
0 0 0
0 0 0
0 0 0
0 0 0
0 0 0
0 0 0
0 0 0
0 0 0
0 0 0
0 0 0
0 0 0
0 0 0
0 0 0
0 0 0
0 0 0
0 0 0
0 0 0
0 0 0
0 0 0
0 0 0
0 0 0
0 0 0
0 0 0
0 0 0
0 0 0
0 0 0
0 0 0
0 0 0
0 0 0
0 0 0
0 0 0
0 0 0
0 0 0
0 0 0
0 0 0
0 0 0
0 0 0
0 0 0
0 0 0
0 0 0
0 0 0
0 0 0
0 0 0
0 0 0
0 0 0
0 0 0
0 0 0
0 0 0
0 0 0
0 0 0
0 0 0
0 0 0
0 0 0
0 0 0
0 0 0
0 0 0
0 0 0
0 0 0
0 0 0
0 0 0
0 0 0
0 0 0
0 0 0
0 0 0
0 0 0
0 0 0
0 0 0
0 0 0
0 0 0
0 0 0
0 0 0
0 0 0
0 0 0
0 0 0
0 0 0
0 0 0
0 0 0
0 0 0
0 0 0
0 0 0
0 0 0
0 0 0
0 0 0
0 0 0
0 0 0
0 0 0
0 0 0
0 0 0
0 0 0
0 0 0
0 0 0
0 0 0
0 0 0
0 0 0
0 0 0
0 0 0
0 0 0
0 0 0
0 0 0
0 0 0
0 0 0
0 0 0
0 0 0
0 0 0
0 0 0
0 0 0
0 0 0
0 0 0
0 0 0
0 0 0
0 0 0
0 0 0
0 0 0
0 0 0
0 0 0
0 0 0
0 0 0
0 0 0
0 0 0
0 0 0
0 0 0
0 0 0
0 0 0
0 0 0
0 0 0
0 0 0
0 0 0
0 0 0
0 0 0
0 0 0
0 0 0
0 0 0
0 0 0
0 0 0
0 0 0
0 0 0
0 0 0
0 0 0
0 0 0
0 0 0
0 0 0
0 0 0
0 0 0
0 0 0
0 0 0
0 0 0
0 0 0
0 0 0
0 0 0
0 0 0
0 0 0
0 0 0
0 0 0
0 0 0
0 0 0
0 0 0
0 0 0
0 0 0
0 0 0
0 0 0
0 0 0
0 0 0
0 0 0
0 0 0
0 0 0
0 0 0
0 0 0
0 0 0
0 0 0
0 0 0
0 0 0
0 0 0
0 0 0
0 0 0
0 0 0
0 0 0
0 0 0
0 0 0
0 0 0
0 0 0
0 0 0
0 0 0
0 0 0
0 0 0
0 0 0
0 0 0
0 0 0
0 0 0
0 0 0
0 0 0
0 0 0
0 0 0
0 0 0
0 0 0
0 0 0
0 0 0
0 0 0
0 0 0
0 0 0
0 0 0
0 0 0
0 0 0
0 0 0
0 0 0
0 0 0
0 0 0
0 0 0
0 0 0
0 0 0
0 0 0
0 0 0
0 0 0
0 0 0
0 0 0
0 0 0
0 0 0
0 0 0
0 0 0
0 0 0
0 0 0
0 0 0
0 0 0
0 0 0
0 0 0
0 0 0
0 0 0
0 0 0
0 0 0
0 0 0
0 0 0
0 0 0
0 0 0
0 0 0
0 0 0
0 0 0
0 0 0
0 0 0
0 0 0
0 0 0
0 0 0
0 0 0
0 0 0
0 0 0
0 0 0
0 0 0
0 0 0
0 0 0
0 0 0
0 0 0
0 0 0
0 0 0
0 0 0
0 0 0
0 0 0
0 0 0
0 0 0
0 0 0
0 0 0
0 0 0
0 0 0
0 0 0
0 0 0
0 0 0
0 0 0
0 0 0
0 0 0
0 0 0
0 0 0
0 0 0
0 0 0
0 0 0
0 0 0
0 0 0
0 0 0
0 0 0
0 0 0
0 0 0
0 0 0
0 0 0
0 0 0
0 0 0
0 0 0
0 0 0
0 0 0
0 0 0
0 0 0
0 0 0
0 0 0
0 0 0
0 0 0
0 0 0
0 0 0
0 0 0
0 0 0
0 0 0
0 0 0
0 0 0
0 0 0
0 0 0
0 0 0
0 0 0
0 0 0
0 0 0
0 0 0
0 0 0
0 0 0
0 0 0
0 0 0
0 0 0
0 0 0
0 0 0
0 0 0
0 0 0
0 0 0
0 0 0
0 0 0
0 0 0
0 0 0
0 0 0
0 0 0
0 0 0
0 0 0
0 0 0
0 0 0
0 0 0
0 0 0
0 0 0
0 0 0
0 0 0
0 0 0
0 0 0
0 0 0
0 0 0
0 0 0
0 0 0
0 0 0
0 0 0
0 0 0
0 0 0
0 0 0
0 0 0
0 0 0
0 0 0
0 0 0
0 0 0
0 0 0
0 0 0
0 0 0
0 0 0
0 0 0
0 0 0
0 0 0
0 0 0
0 0 0
0 0 0
0 0 0
0 0 0
0 0 0
0 0 0
0 0 0
0 0 0
0 0 0
0 0 0
0 0 0
0 0 0
0 0 0
0 0 0
0 0 0
0 0 0
0 0 0
0 0 0
0 0 0
0 0 0
0 0 0
0 0 0
0 0 0
0 0 0
0 0 0
0 0 0
0 0 0
0 0 0
0 0 0
0 0 0
0 0 0
0 0 0
0 0 0
0 0 0
0 0 0
0 0 0
0 0 0
0 0 0
0 0 0
0 0 0
0 0 0
0 0 0
0 0 0
0 0 0
0 0 0
0 0 0
0 0 0
0 0 0
0 0 0
0 0 0
0 0 0
0 0 0
0 0 0
0 0 0
0 0 0
0 0 0
0 0 0
0 0 0
0 0 0
0 0 0
0 0 0
0 0 0
0 0 0
0 0 0
0 0 0
0 0 0
0 0 0
0 0 0
0 0 0
0 0 0
0 0 0
0 0 0
0 0 0
0 0 0
0 0 0
0 0 0
0 0 0
0 0 0
0 0 0
0 0 0
0 0 0
0 0 0
0 0 0
0 0 0
0 0 0
0 0 0
0 0 0
0 0 0
0 0 0
0 0 0
0 0 0
0 0 0
0 0 0
0 0 0
0 0 0
0 0 0
0 0 0
0 0 0
0 0 0
0 0 0
0 0 0
0 0 0
0 0 0
0 0 0
0 0 0
0 0 0
0 0 0
0 0 0
0 0 0
0 0 0
0 0 0
0 0 0
0 0 0
0 0 0
0 0 0
0 0 0
0 0 0
0 0 0
0 0 0
0 0 0
0 0 0
0 0 0
